@RELATION EDU_polarity_prediction

@ATTRIBUTE feature1 NUMERIC
@ATTRIBUTE feature2 NUMERIC
@ATTRIBUTE feature3 NUMERIC
@ATTRIBUTE feature4 NUMERIC
@ATTRIBUTE feature5 NUMERIC
@ATTRIBUTE feature6 NUMERIC
@ATTRIBUTE feature7 NUMERIC
@ATTRIBUTE class {pos,neg,neu}

@DATA
0,0,0,0,0,0,2,pos
0,0,0,0.356,0.033,0.075,0,neg
0.25,0.058,0.094,0.046,0.188,0.071,0,pos
0.25,0.058,0.094,0.046,0.188,0.071,0,pos
0,0,0,0,0,0,-2,neg
0,0,0,0,0,0,1,neu
0,0,0,0,0,0,-1,neg
0,0,0,0,0,0,6,neg
0,0,0,0,0,0,4,neg
0.058,0.214,0.069,0.128,0.248,0.08,0,neg
0.058,0.214,0.069,0.128,0.248,0.08,0,neg
0.058,0.214,0.069,0.128,0.248,0.08,0,neg
0.058,0.214,0.069,0.128,0.248,0.08,-1,neg
0.058,0.214,0.069,0.044,0.238,0.088,-4,neg
0.058,0.214,0.069,0.044,0.238,0.088,0,neg
0,0,0,0.044,0.238,0.088,0,neg
0,0,0,0,0,0,1,neu
0,0,0,0,0,0,8,pos
0,0,0,0,0,0,0,neu
0,0,0,0,0,0,0,pos
0,0,0,0,0,0,4,neu
0.094,0.069,0.094,0.167,0.158,0.167,0,pos
0.25,0.058,0.094,0.167,0.158,0.167,0,neu
0,0,0,0.105,0.053,0.167,0,neu
0,0,0,0,0,0,-5,pos
0,0,0,0,0,0,-4,neg
0,0,0,0.254,0.051,0.095,0,neu
0.2,0.058,0.038,0.095,0.06,0.075,4,pos
0.2,0.058,0.038,0.095,0.06,0.075,0,pos
0.194,0.015,0.067,0,0,0,5,pos
0.194,0.015,0.067,0,0,0,5,pos
0,0,0,0,0,0,10,pos
0.25,0.058,0.094,0.356,0.033,0.075,2,pos
0.25,0.058,0.094,0.356,0.033,0.075,0,pos
0,0,0,0.356,0.033,0.075,-2,pos
0,0,0,0,0,0,4,neu
0.015,0.358,0.082,0.254,0.051,0.095,4,neu
0.067,0.082,0.119,0.254,0.051,0.095,0,neg
0,0,0,0.095,0.06,0.075,1,pos
0.058,0.214,0.069,0.044,0.238,0.088,-8,neg
0.058,0.214,0.069,0.044,0.238,0.088,-8,neg
0.058,0.231,0.077,0.044,0.238,0.088,0,neg
0.058,0.231,0.077,0.044,0.238,0.088,-4,neg
0.208,0.111,0.111,0,0,0,0,neg
0.208,0.111,0.111,0,0,0,0,neg
0,0,0,0,0,0,0,neg
0.069,0.111,0.083,0.079,0.075,0.075,-3,neg
0.208,0.111,0.111,0.079,0.075,0.075,-2,neu
0,0,0,0.079,0.075,0.075,0,neu
0,0,0,0,0,0,-2,neu
0.25,0.058,0.094,0,0,0,9,pos
0.25,0.058,0.094,0,0,0,10,pos
0,0,0,0,0,0,1,pos
0,0,0,0,0,0,0,neu
0.094,0.069,0.094,0,0,0,0,neu
0.094,0.069,0.094,0,0,0,0,neu
0.174,0.022,0.087,0,0,0,12,pos
0.174,0.022,0.087,0,0,0,0,pos
0.028,0.208,0.069,0.044,0.238,0.088,0,neu
0.069,0.111,0.083,0.044,0.238,0.088,9,pos
0,0,0,0.095,0.06,0.075,1,neg
0,0,0,0.044,0.238,0.088,0,neg
0.058,0.214,0.069,0.044,0.238,0.088,-1,neg
0.058,0.214,0.069,0.044,0.238,0.088,0,neg
0,0,0,0,0,0,2,neu
0.058,0.214,0.069,0,0,0,-3,neg
0.058,0.214,0.069,0,0,0,-10,neg
0,0,0,0.044,0.167,0.056,2,neu
0.038,0.1,0.4,0.111,0.111,0.333,-2,neg
0.058,0.2,0.1,0.111,0.111,0.333,2,neu
0,0,0,0,0,0,-6,neg
0.174,0.022,0.087,0,0,0,0,pos
0.174,0.022,0.087,0,0,0,0,pos
0,0,0,0,0,0,0,neu
0,0,0,0,0,0,12,pos
0.094,0.069,0.094,0,0,0,0,neu
0.094,0.069,0.094,0,0,0,0,neu
0.25,0.058,0.094,0.356,0.033,0.075,8,neu
0.094,0.069,0.094,0.356,0.033,0.075,10,pos
0.2,0.058,0.038,0.079,0.075,0.075,10,pos
0.2,0.058,0.038,0.079,0.075,0.075,8,pos
0.25,0.058,0.094,0.254,0.051,0.095,4,pos
0.25,0.058,0.094,0.254,0.051,0.095,0,pos
0,0,0,0.254,0.051,0.095,0,pos
0.154,0.058,0.154,0.333,0.051,0.111,5,pos
0.154,0.058,0.154,0.333,0.051,0.111,24,pos
0,0,0,0.333,0.051,0.111,6,pos
0.058,0.214,0.069,0,0,0,0,pos
0.25,0.058,0.094,0,0,0,6,neg
0,0,0,0,0,0,20,pos
0,0,0,0,0,0,-8,neg
0.058,0.214,0.069,0,0,0,-3,neg
0.058,0.214,0.069,0,0,0,0,neg
0.058,0.214,0.069,0,0,0,0,neg
0.058,0.214,0.069,0,0,0,0,neg
0,0,0,0,0,0,0,neg
0,0,0,0.044,0.238,0.088,3,neg
0.058,0.462,0.038,0.044,0.238,0.088,0,neg
0.058,0.462,0.038,0.044,0.238,0.088,0,neg
0,0,0,0,0,0,-3,neg
0.058,0.214,0.069,0.044,0.238,0.088,0,neg
0.058,0.214,0.069,0.044,0.238,0.088,0,neg
0.058,0.214,0.069,0.044,0.238,0.088,-1,neg
0.058,0.214,0.069,0.044,0.238,0.088,-2,neg
0,0,0,0,0,0,-1,neg
0.058,0.214,0.069,0,0,0,0,neg
0.058,0.214,0.069,0,0,0,-8,neg
0,0,0,0,0,0,0,neg
0,0,0,0,0,0,-8,neg
0.087,0.109,0.174,0.044,0.238,0.088,0,neu
0.087,0.109,0.174,0.044,0.238,0.088,4,neu
0.058,0.214,0.069,0.095,0.06,0.075,0,neg
0.058,0.214,0.069,0.095,0.06,0.075,0,neg
0.058,0.214,0.069,0.046,0.188,0.071,0,neg
0.058,0.214,0.069,0.046,0.188,0.071,-4,neg
0,0,0,0.046,0.188,0.071,1,neg
0,0,0,0,0,0,0,neg
0,0,0,0,0,0,-5,neg
0.25,0.058,0.094,0.128,0.248,0.08,-10,neg
0.058,0.214,0.069,0.128,0.248,0.08,12,pos
0,0,0,0.128,0.248,0.08,-4,neg
0.058,0.214,0.069,0,0,0,0,neg
0.058,0.214,0.069,0,0,0,6,neg
0,0,0,0,0,0,-3,neg
0,0,0,0,0,0,-4,neu
0.25,0.058,0.094,0.128,0.248,0.08,3,pos
0.25,0.058,0.094,0.128,0.248,0.08,15,pos
0,0,0,0.056,0.128,0.104,1,neg
0.062,0.5,0.188,0.046,0.188,0.071,2,neg
0.062,0.5,0.188,0.046,0.188,0.071,-10,neg
0,0,0,0.046,0.188,0.071,-4,neg
0.25,0.058,0.094,0.254,0.051,0.095,6,pos
0.25,0.058,0.094,0.254,0.051,0.095,3,pos
0,0,0,0.254,0.051,0.095,12,pos
0.069,0.111,0.083,0,0,0,1,neg
0.208,0.111,0.111,0,0,0,0,neu
0.094,0.069,0.094,0,0,0,14,pos
0.25,0.058,0.094,0,0,0,-3,neu
0.094,0.069,0.094,0.254,0.051,0.095,1,neu
0.094,0.069,0.094,0.254,0.051,0.095,0,neu
0,0,0,0.095,0.06,0.075,-9,pos
0,0,0,0,0,0,-8,pos
0.25,0.058,0.094,0.254,0.051,0.095,2,pos
0.25,0.058,0.094,0.254,0.051,0.095,10,pos
0,0,0,0.254,0.051,0.095,7,pos
0,0,0,0,0,0,5,pos
0,0,0,0,0,0,0,neu
0.067,0.082,0.119,0,0,0,0,neu
0.067,0.082,0.119,0,0,0,0,neu
0.067,0.082,0.119,0,0,0,0,neu
0.067,0.082,0.119,0,0,0,0,neu
0.015,0.358,0.082,0,0,0,0,neu
0.067,0.082,0.119,0,0,0,0,neg
0.058,0.214,0.069,0.046,0.188,0.071,-6,neg
0.058,0.214,0.069,0.046,0.188,0.071,-8,neg
0,0,0,0.046,0.188,0.071,0,neg
0.069,0.111,0.083,0,0,0,-2,neu
0.069,0.111,0.083,0,0,0,0,neu
0,0,0,0.095,0.06,0.075,0,neg
0.087,0.109,0.174,0.044,0.238,0.088,3,neu
0.087,0.109,0.174,0.044,0.238,0.088,0,neu
0.071,0.214,0.119,0,0,0,0,neg
0.015,0.214,0.214,0,0,0,-4,neu
0,0,0,0,0,0,-1,neu
0.094,0.069,0.094,0.095,0.06,0.075,-10,neg
0.058,0.214,0.069,0.095,0.06,0.075,0,neu
0,0,0,0.044,0.238,0.088,7,neu
0,0,0,0,0,0,-2,neu
0,0,0,0.067,0.067,0.2,-2,neu
0.058,0.214,0.069,0.067,0.067,0.2,0,neu
0.094,0.069,0.094,0.067,0.067,0.2,-4,neg
0.028,0.208,0.069,0.046,0.188,0.071,-4,neg
0.208,0.111,0.111,0.046,0.188,0.071,2,pos
0.087,0.109,0.174,0.046,0.188,0.071,0,neg
0.022,0.217,0.109,0.046,0.188,0.071,0,neu
0,0,0,0,0,0,-4,neg
0.058,0.214,0.069,0,0,0,5,pos
0.25,0.058,0.094,0,0,0,-4,neg
0.208,0.111,0.111,0,0,0,2,pos
0.028,0.208,0.069,0,0,0,5,neg
0,0,0,0,0,0,0,neu
0.094,0.069,0.094,0.128,0.248,0.08,8,pos
0.25,0.058,0.094,0.128,0.248,0.08,2,neu
0.015,0.358,0.082,0.056,0.128,0.104,0,neg
0.015,0.358,0.082,0.056,0.128,0.104,-2,neg
0,0,0,0,0,0,-2,neg
0,0,0,0,0,0,0,neg
0.015,0.358,0.082,0,0,0,-2,neg
0.015,0.358,0.082,0,0,0,0,neg
0,0,0,0.095,0.06,0.075,-12,neg
0.038,0.1,0.4,0.044,0.238,0.088,0,neu
0.038,0.1,0.4,0.044,0.238,0.088,0,neu
0.094,0.069,0.094,0,0,0,0,neu
0.094,0.069,0.094,0,0,0,11,neu
0.058,0.214,0.069,0.046,0.188,0.071,9,neu
0.094,0.069,0.094,0.046,0.188,0.071,0,neg
0,0,0,0.079,0.075,0.075,0,neg
0,0,0,0.079,0.075,0.075,4,pos
0.062,0.217,0.188,0.356,0.033,0.075,0,neu
0.062,0.188,0.174,0.356,0.033,0.075,-7,neg
0,0,0,0,0,0,0,neu
0,0,0,0.044,0.238,0.088,-1,neu
0.058,0.462,0.038,0.095,0.06,0.075,-4,neg
0.058,0.462,0.038,0.095,0.06,0.075,-8,neg
0,0,0,0,0,0,0,neg
0,0,0,0,0,0,-5,pos
0,0,0,0,0,0,12,pos
0.25,0.058,0.094,0.056,0.128,0.104,3,neu
0.094,0.069,0.094,0.056,0.128,0.104,-1,pos
0,0,0,0.088,0.104,0.064,10,pos
0.058,0.214,0.069,0,0,0,9,pos
0.25,0.058,0.094,0,0,0,-4,neg
0.094,0.069,0.094,0.254,0.051,0.095,0,pos
0.25,0.058,0.094,0.254,0.051,0.095,0,neu
0,0,0,0.254,0.051,0.095,1,pos
0,0,0,0,0,0,8,pos
0,0,0,0,0,0,3,pos
0.25,0.058,0.094,0.254,0.051,0.095,6,neu
0.094,0.069,0.094,0.254,0.051,0.095,12,pos
0.25,0.058,0.094,0.095,0.06,0.075,8,pos
0.25,0.058,0.094,0.095,0.06,0.075,5,pos
0.25,0.058,0.094,0.356,0.033,0.075,7,pos
0.25,0.058,0.094,0.356,0.033,0.075,12,pos
0.208,0.111,0.111,0.356,0.033,0.075,10,pos
0.028,0.208,0.069,0.356,0.033,0.075,1,neg
0.375,0.062,0.062,0,0,0,10,pos
0.375,0.062,0.062,0,0,0,0,pos
0.25,0.058,0.094,0.356,0.033,0.075,8,pos
0.25,0.058,0.094,0.356,0.033,0.075,0,pos
0,0,0,0.356,0.033,0.075,5,pos
0,0,0,0,0,0,16,pos
0.058,0.214,0.069,0,0,0,-6,neg
0.058,0.214,0.069,0,0,0,-1,neg
0,0,0,0,0,0,0,neg
0.058,0.214,0.069,0.046,0.188,0.071,-8,neg
0.058,0.214,0.069,0.046,0.188,0.071,0,neg
0.062,0.5,0.188,0.046,0.188,0.071,-15,neg
0.062,0.5,0.188,0.046,0.188,0.071,0,neg
0.094,0.069,0.094,0.044,0.238,0.088,-1,neg
0.058,0.214,0.069,0.044,0.238,0.088,5,neu
0,0,0,0.044,0.238,0.088,-1,neg
0,0,0,0,0,0,0,neg
0.058,0.214,0.069,0.044,0.238,0.088,8,neg
0.058,0.214,0.069,0.044,0.238,0.088,3,neg
0.058,0.462,0.038,0.044,0.238,0.088,0,neg
0.058,0.462,0.038,0.044,0.238,0.088,0,neg
0.022,0.217,0.109,0,0,0,-3,neu
0.087,0.109,0.174,0,0,0,0,neg
0,0,0,0,0,0,4,neg
0,0,0,0,0,0,-2,neg
0.25,0.058,0.094,0.128,0.248,0.08,0,neg
0.058,0.214,0.069,0.128,0.248,0.08,8,pos
0,0,0,0.128,0.248,0.08,-4,neg
0.194,0.015,0.067,0,0,0,-1,neu
0.067,0.082,0.119,0,0,0,10,pos
0,0,0,0,0,0,6,pos
0.028,0.208,0.069,0,0,0,-1,neu
0.069,0.111,0.083,0,0,0,10,pos
0.015,0.358,0.082,0.088,0.104,0.064,-1,neg
0.015,0.358,0.082,0.088,0.104,0.064,3,neg
0,0,0,0.128,0.248,0.08,-4,neu
0.25,0.058,0.094,0.356,0.033,0.075,4,pos
0.25,0.058,0.094,0.356,0.033,0.075,0,pos
0,0,0,0.356,0.033,0.075,2,pos
0.094,0.069,0.094,0.254,0.051,0.095,3,pos
0.25,0.058,0.094,0.254,0.051,0.095,-4,neu
0,0,0,0.254,0.051,0.095,5,pos
0.25,0.058,0.094,0,0,0,2,pos
0.25,0.058,0.094,0,0,0,-1,pos
0,0,0,0,0,0,0,pos
0,0,0,0,0,0,7,neu
0.094,0.069,0.094,0.356,0.033,0.075,2,pos
0.25,0.058,0.094,0.356,0.033,0.075,0,neu
0,0,0,0.356,0.033,0.075,1,pos
0.094,0.069,0.094,0,0,0,1,neu
0.094,0.069,0.094,0,0,0,8,neu
0.208,0.111,0.111,0.044,0.238,0.088,-1,neu
0.069,0.111,0.083,0.044,0.238,0.088,0,neg
0,0,0,0.044,0.238,0.088,0,neg
0,0,0,0,0,0,2,neg
0,0,0,0.111,0.111,0.333,2,neu
0.058,0.214,0.069,0.111,0.111,0.333,0,neu
0.094,0.069,0.094,0.111,0.111,0.333,5,neg
0,0,0,0,0,0,10,pos
0.028,0.208,0.069,0.044,0.238,0.088,0,neg
0.208,0.111,0.111,0.044,0.238,0.088,6,pos
0,0,0,0.254,0.051,0.095,0,neg
0,0,0,0,0,0,-1,neg
0,0,0,0.254,0.051,0.095,8,pos
0.25,0.058,0.094,0.254,0.051,0.095,10,pos
0.25,0.058,0.094,0.254,0.051,0.095,-2,pos
0.25,0.058,0.094,0,0,0,16,pos
0.25,0.058,0.094,0,0,0,0,pos
0,0,0,0,0,0,-4,neu
0,0,0,0,0,0,-16,neg
0,0,0,0.111,0.056,0.056,1,pos
0.058,0.214,0.069,0.111,0.056,0.056,2,pos
0.25,0.058,0.094,0.111,0.056,0.056,-1,neg
0.058,0.214,0.069,0,0,0,0,neu
0.094,0.069,0.094,0,0,0,-6,neg
0.015,0.358,0.082,0.046,0.188,0.071,0,pos
0.194,0.015,0.067,0.046,0.188,0.071,0,neg
0.25,0.058,0.094,0.356,0.033,0.075,-1,neg
0.058,0.214,0.069,0.356,0.033,0.075,-4,pos
0,0,0,0,0,0,7,pos
0.194,0.015,0.067,0.356,0.033,0.075,6,neu
0.067,0.082,0.119,0.356,0.033,0.075,4,pos
0,0,0,0.079,0.075,0.075,10,pos
0,0,0,0,0,0,8,pos
0.231,0.058,0.038,0.254,0.051,0.095,-8,pos
0.231,0.058,0.038,0.254,0.051,0.095,0,pos
0.25,0.058,0.094,0.254,0.051,0.095,4,pos
0.25,0.058,0.094,0.254,0.051,0.095,12,pos
0,0,0,0,0,0,4,pos
0,0,0,0.044,0.238,0.088,-4,neg
0.015,0.358,0.082,0.044,0.238,0.088,2,neg
0.015,0.358,0.082,0.044,0.238,0.088,2,neg
0,0,0,0.046,0.188,0.071,4,neg
0.058,0.214,0.069,0.046,0.188,0.071,-2,neg
0.058,0.214,0.069,0.046,0.188,0.071,3,neg
0,0,0,0.254,0.051,0.095,0,neu
0.058,0.214,0.069,0.095,0.06,0.075,-6,pos
0.25,0.058,0.094,0.095,0.06,0.075,3,neg
0.071,0.214,0.119,0,0,0,-5,neg
0.015,0.214,0.214,0,0,0,1,neu
0.087,0.109,0.174,0,0,0,-3,neu
0.087,0.109,0.174,0,0,0,0,neu
0,0,0,0.056,0.128,0.104,-4,neg
0.194,0.015,0.067,0.128,0.248,0.08,0,pos
0.194,0.015,0.067,0.128,0.248,0.08,4,pos
0,0,0,0.046,0.188,0.071,8,neu
0.015,0.214,0.214,0.079,0.075,0.075,8,neu
0.071,0.214,0.119,0.079,0.075,0.075,1,neg
0,0,0,0,0,0,0,neu
0,0,0,0.254,0.051,0.095,6,neu
0.25,0.058,0.094,0.095,0.06,0.075,5,pos
0.25,0.058,0.094,0.095,0.06,0.075,5,pos
0,0,0,0,0,0,4,pos
0,0,0,0.356,0.033,0.075,12,pos
0.25,0.058,0.094,0.356,0.033,0.075,4,pos
0.25,0.058,0.094,0.356,0.033,0.075,12,pos
0,0,0,0,0,0,10,pos
0,0,0,0,0,0,1,pos
0,0,0,0,0,0,0,neu
0.067,0.082,0.119,0.044,0.238,0.088,2,pos
0.194,0.015,0.067,0.044,0.238,0.088,-1,neu
0.058,0.2,0.1,0.254,0.051,0.095,0,neg
0.058,0.2,0.1,0.254,0.051,0.095,-12,neg
0.067,0.082,0.119,0,0,0,0,neg
0.015,0.358,0.082,0,0,0,0,neu
0,0,0,0,0,0,1,pos
0.094,0.069,0.094,0.079,0.075,0.075,6,pos
0.25,0.058,0.094,0.079,0.075,0.075,0,neu
0,0,0,0.356,0.033,0.075,0,neu
0.208,0.111,0.111,0.095,0.06,0.075,0,neu
0.069,0.111,0.083,0.095,0.06,0.075,-6,neg
0.094,0.069,0.094,0.044,0.238,0.088,1,neu
0.094,0.069,0.094,0.044,0.238,0.088,0,neu
0,0,0,0,0,0,-8,neg
0,0,0,0.254,0.051,0.095,-1,neg
0.154,0.058,0.154,0.044,0.238,0.088,-2,neu
0.154,0.077,0.154,0.044,0.238,0.088,12,pos
0.094,0.069,0.094,0.079,0.075,0.075,0,neu
0.094,0.069,0.094,0.079,0.075,0.075,-3,neu
0,0,0,0.079,0.075,0.075,0,neu
0.25,0.058,0.094,0.046,0.188,0.071,-8,neg
0.058,0.214,0.069,0.046,0.188,0.071,4,pos
0,0,0,0.046,0.188,0.071,-2,neg
0,0,0,0,0,0,-7,neg
0,0,0,0,0,0,1,neg
0,0,0,0,0,0,10,pos
0,0,0,0,0,0,14,pos
0.094,0.069,0.094,0.167,0.158,0.167,4,pos
0.25,0.058,0.094,0.167,0.158,0.167,0,neu
0,0,0,0.105,0.053,0.167,0,neu
0,0,0,0,0,0,0,neu
0,0,0,0,0,0,0,neu
0,0,0,0,0,0,15,pos
0,0,0,0.095,0.06,0.075,5,pos
0.25,0.058,0.094,0.254,0.051,0.095,0,neu
0.094,0.069,0.094,0.254,0.051,0.095,15,pos
0.194,0.015,0.067,0,0,0,0,neu
0.067,0.082,0.119,0,0,0,1,pos
0,0,0,0,0,0,2,neu
0,0,0,0.254,0.051,0.095,2,pos
0.214,0.015,0.071,0.254,0.051,0.095,6,pos
0.214,0.015,0.071,0.254,0.051,0.095,0,pos
0,0,0,0,0,0,-2,neu
0.25,0.058,0.094,0,0,0,0,pos
0.25,0.058,0.094,0,0,0,10,pos
0,0,0,0,0,0,4,neu
0.25,0.058,0.094,0.356,0.033,0.075,11,pos
0.25,0.058,0.094,0.356,0.033,0.075,2,pos
0,0,0,0.356,0.033,0.075,8,pos
0,0,0,0.254,0.051,0.095,7,pos
0.25,0.058,0.094,0.254,0.051,0.095,4,pos
0.25,0.058,0.094,0.254,0.051,0.095,12,pos
0.25,0.058,0.094,0.356,0.033,0.075,2,pos
0.25,0.058,0.094,0.356,0.033,0.075,0,pos
0,0,0,0.356,0.033,0.075,7,pos
0,0,0,0,0,0,-5,neg
0.25,0.058,0.094,0.356,0.033,0.075,8,pos
0.25,0.058,0.094,0.356,0.033,0.075,16,pos
0,0,0,0.356,0.033,0.075,8,pos
0.094,0.069,0.094,0,0,0,3,pos
0.25,0.058,0.094,0,0,0,-1,neu
0,0,0,0,0,0,4,pos
0,0,0,0.053,0.211,0.105,-2,neu
0.208,0.111,0.111,0.067,0.158,0.211,3,neg
0.208,0.111,0.111,0.067,0.158,0.211,-8,neg
0,0,0,0,0,0,-1,neg
0,0,0,0,0,0,0,neu
0,0,0,0,0,0,-8,neu
0,0,0,0.254,0.051,0.095,10,pos
0.094,0.069,0.094,0.254,0.051,0.095,0,pos
0.25,0.058,0.094,0.254,0.051,0.095,1,neu
0,0,0,0,0,0,18,pos
0.094,0.069,0.094,0.254,0.051,0.095,0,neu
0.094,0.069,0.094,0.254,0.051,0.095,0,neu
0.094,0.069,0.094,0.095,0.06,0.075,18,pos
0.25,0.058,0.094,0.095,0.06,0.075,-3,neu
0,0,0,0,0,0,4,neg
0,0,0,0,0,0,26,pos
0.015,0.358,0.082,0.056,0.128,0.104,-12,neg
0.015,0.358,0.082,0.056,0.128,0.104,4,neg
0,0,0,0.128,0.248,0.08,-1,pos
0,0,0,0,0,0,10,pos
0,0,0,0.254,0.051,0.095,1,neu
0.25,0.058,0.094,0.095,0.06,0.075,8,pos
0.25,0.058,0.094,0.095,0.06,0.075,-2,pos
0,0,0,0,0,0,3,pos
0.022,0.217,0.109,0,0,0,0,neu
0.087,0.109,0.174,0,0,0,-1,neg
0,0,0,0.044,0.238,0.088,-2,neg
0.058,0.214,0.069,0.044,0.238,0.088,0,neg
0.058,0.214,0.069,0.044,0.238,0.088,-4,neg
0,0,0,0,0,0,0,neg
0,0,0,0,0,0,0,neg
0,0,0,0.046,0.188,0.071,-10,neg
0.058,0.214,0.069,0.046,0.188,0.071,0,neg
0.058,0.214,0.069,0.046,0.188,0.071,0,neg
0,0,0,0,0,0,0,neu
0.094,0.069,0.094,0,0,0,2,neu
0.094,0.069,0.094,0,0,0,1,neu
0,0,0,0.088,0.104,0.064,1,neu
0.094,0.069,0.094,0.088,0.104,0.064,12,neu
0.094,0.069,0.094,0.088,0.104,0.064,1,neu
0.25,0.058,0.094,0,0,0,0,pos
0.25,0.058,0.094,0,0,0,5,pos
0.25,0.058,0.094,0.356,0.033,0.075,4,pos
0.25,0.058,0.094,0.356,0.033,0.075,10,pos
0,0,0,0.356,0.033,0.075,20,pos
0.094,0.069,0.094,0.128,0.248,0.08,-4,neg
0.058,0.214,0.069,0.128,0.248,0.08,0,neu
0,0,0,0.128,0.248,0.08,-4,neg
0,0,0,0,0,0,5,neg
0,0,0,0,0,0,4,neu
0.058,0.214,0.069,0.046,0.188,0.071,-8,neg
0.058,0.214,0.069,0.046,0.188,0.071,-1,neg
0.015,0.358,0.082,0.046,0.188,0.071,-3,neg
0.015,0.358,0.082,0.046,0.188,0.071,-4,neg
0,0,0,0,0,0,0,neg
0,0,0,0.046,0.188,0.071,0,neu
0.058,0.214,0.069,0.079,0.075,0.075,-2,neg
0.058,0.214,0.069,0.079,0.075,0.075,0,neg
0,0,0,0,0,0,6,neu
0,0,0,0.095,0.06,0.075,0,neu
0.094,0.069,0.094,0.095,0.06,0.075,0,neu
0.094,0.069,0.094,0.095,0.06,0.075,0,neu
0.094,0.069,0.094,0.044,0.167,0.667,0,neu
0.094,0.069,0.094,0.044,0.167,0.667,0,neu
0,0,0,0.111,0.333,0.333,0,neg
0,0,0,0,0,0,-1,neg
0,0,0,0,0,0,2,neu
0.25,0.058,0.094,0.095,0.06,0.075,-4,neu
0.094,0.069,0.094,0.095,0.06,0.075,3,pos
0,0,0,0.095,0.06,0.075,0,neu
0.038,0.1,0.4,0,0,0,-1,neu
0.038,0.1,0.4,0,0,0,2,neu
0,0,0,0,0,0,8,neu
0.094,0.069,0.094,0.044,0.238,0.088,-1,neu
0.094,0.069,0.094,0.044,0.238,0.088,0,neu
0,0,0,0.095,0.06,0.075,-4,neg
0.094,0.069,0.094,0.128,0.248,0.08,-4,neg
0.058,0.214,0.069,0.128,0.248,0.08,0,neu
0.015,0.358,0.082,0.128,0.248,0.08,0,neg
0.015,0.358,0.082,0.128,0.248,0.08,0,neg
0,0,0,0,0,0,0,neg
0.058,0.214,0.069,0,0,0,0,neu
0.094,0.069,0.094,0,0,0,-5,neg
0.058,0.2,0.1,0,0,0,0,neg
0.058,0.2,0.1,0,0,0,-4,neg
0.015,0.358,0.082,0,0,0,0,neg
0.015,0.358,0.082,0,0,0,-2,neg
0,0,0,0.044,0.238,0.088,6,neg
0.058,0.214,0.069,0.044,0.238,0.088,0,neg
0.058,0.214,0.069,0.044,0.238,0.088,0,neg
0,0,0,0,0,0,-11,neg
0,0,0,0,0,0,-1,neu
0.094,0.069,0.094,0.254,0.051,0.095,10,pos
0.25,0.058,0.094,0.254,0.051,0.095,1,neu
0,0,0,0.254,0.051,0.095,6,pos
0.058,0.214,0.069,0.088,0.104,0.064,-5,neg
0.058,0.214,0.069,0.088,0.104,0.064,-5,neg
0,0,0,0.128,0.248,0.08,0,neu
0.094,0.069,0.094,0.095,0.06,0.075,10,pos
0.25,0.058,0.094,0.095,0.06,0.075,0,neu
0.067,0.082,0.119,0.254,0.051,0.095,0,neu
0.067,0.082,0.119,0.254,0.051,0.095,10,neu
0,0,0,0,0,0,31,pos
0.25,0.058,0.094,0.046,0.188,0.071,5,pos
0.25,0.058,0.094,0.046,0.188,0.071,10,pos
0,0,0,0.356,0.033,0.075,1,neg
0,0,0,0.044,0.238,0.088,0,neu
0.058,0.462,0.038,0.095,0.06,0.075,1,neg
0.058,0.462,0.038,0.095,0.06,0.075,0,neg
0,0,0,0,0,0,-6,neg
0.028,0.208,0.069,0,0,0,0,neg
0.208,0.111,0.111,0,0,0,0,pos
0,0,0,0,0,0,0,neu
0.25,0.058,0.094,0.095,0.06,0.075,1,neu
0.094,0.069,0.094,0.095,0.06,0.075,10,pos
0,0,0,0.095,0.06,0.075,0,neu
0,0,0,0,0,0,0,neg
0,0,0,0.044,0.238,0.088,0,neg
0.058,0.214,0.069,0.044,0.238,0.088,0,neg
0.058,0.214,0.069,0.044,0.238,0.088,-5,neg
0.022,0.217,0.109,0,0,0,1,neg
0.022,0.217,0.109,0,0,0,1,neg
0,0,0,0.044,0.238,0.088,0,neu
0.094,0.069,0.094,0.095,0.06,0.075,-1,neg
0.058,0.214,0.069,0.095,0.06,0.075,2,neu
0,0,0,0.254,0.051,0.095,6,pos
0.25,0.058,0.094,0.254,0.051,0.095,24,pos
0.25,0.058,0.094,0.254,0.051,0.095,8,pos
0,0,0,0.254,0.051,0.095,0,pos
0.058,0.214,0.069,0.254,0.051,0.095,10,pos
0.25,0.058,0.094,0.254,0.051,0.095,0,neg
0.058,0.214,0.069,0,0,0,0,neg
0.058,0.214,0.069,0,0,0,0,neg
0.062,0.217,0.188,0,0,0,11,neu
0.062,0.188,0.174,0,0,0,0,neg
0,0,0,0.356,0.033,0.075,0,neu
0.25,0.058,0.094,0.079,0.075,0.075,10,pos
0.25,0.058,0.094,0.079,0.075,0.075,5,pos
0.25,0.058,0.094,0.356,0.033,0.075,4,neg
0.058,0.214,0.069,0.356,0.033,0.075,10,pos
0,0,0,0.046,0.188,0.071,6,pos
0,0,0,0,0,0,0,neu
0.058,0.214,0.069,0.044,0.238,0.088,0,neu
0.094,0.069,0.094,0.044,0.238,0.088,6,neg
0,0,0,0.095,0.06,0.075,0,neg
0,0,0,0,0,0,-6,neg
0.094,0.069,0.094,0,0,0,-1,neg
0.058,0.214,0.069,0,0,0,0,neu
0.094,0.069,0.094,0.079,0.075,0.075,5,neg
0.058,0.214,0.069,0.079,0.075,0.075,-3,neu
0,0,0,0.046,0.188,0.071,-5,neu
0.25,0.058,0.094,0.356,0.033,0.075,14,pos
0.25,0.058,0.094,0.356,0.033,0.075,8,pos
0,0,0,0.356,0.033,0.075,8,pos
0.028,0.208,0.069,0,0,0,-2,neg
0.208,0.111,0.111,0,0,0,16,pos
0.058,0.214,0.069,0.088,0.104,0.064,14,pos
0.25,0.058,0.094,0.088,0.104,0.064,2,neg
0.194,0.015,0.067,0.056,0.128,0.104,0,neu
0.067,0.082,0.119,0.056,0.128,0.104,2,pos
0,0,0,0,0,0,10,pos
0,0,0,0,0,0,0,pos
0,0,0,0.254,0.051,0.095,12,pos
0.194,0.015,0.067,0.254,0.051,0.095,1,pos
0.194,0.015,0.067,0.254,0.051,0.095,9,pos
0,0,0,0,0,0,5,pos
0,0,0,0,0,0,20,pos
0,0,0,0,0,0,10,pos
0.25,0.058,0.094,0.079,0.075,0.075,12,pos
0.25,0.058,0.094,0.079,0.075,0.075,0,pos
0,0,0,0.356,0.033,0.075,12,neu
0,0,0,0,0,0,0,pos
0,0,0,0,0,0,6,pos
0,0,0,0,0,0,0,neu
0,0,0,0.095,0.06,0.075,0,neg
0.094,0.069,0.094,0.044,0.238,0.088,0,neu
0.094,0.069,0.094,0.044,0.238,0.088,-2,neu
0,0,0,0,0,0,-1,neg
0.058,0.2,0.1,0,0,0,0,neu
0.038,0.1,0.4,0,0,0,1,neg
0.058,0.2,0.1,0.044,0.238,0.088,1,neg
0.058,0.2,0.1,0.044,0.238,0.088,2,neg
0,0,0,0.044,0.238,0.088,0,neg
0,0,0,0,0,0,-1,neg
0.015,0.358,0.082,0,0,0,0,neg
0.015,0.358,0.082,0,0,0,-1,neg
0.094,0.069,0.094,0,0,0,0,neg
0.058,0.214,0.069,0,0,0,0,neu
0,0,0,0.044,0.238,0.088,0,neg
0,0,0,0.044,0.238,0.088,-3,neg
0.058,0.214,0.069,0.044,0.238,0.088,0,neg
0.058,0.214,0.069,0.044,0.238,0.088,-4,neg
0.015,0.358,0.082,0,0,0,4,neg
0.015,0.358,0.082,0,0,0,-2,neg
0.25,0.058,0.094,0.356,0.033,0.075,12,neg
0.058,0.214,0.069,0.356,0.033,0.075,12,pos
0,0,0,0.046,0.188,0.071,10,pos
0,0,0,0,0,0,-4,neg
0,0,0,0.044,0.238,0.088,-4,neg
0.058,0.2,0.1,0.044,0.238,0.088,0,neg
0.058,0.2,0.1,0.044,0.238,0.088,-1,neg
0,0,0,0,0,0,-7,neg
0.094,0.069,0.094,0.044,0.238,0.088,0,neu
0.094,0.069,0.094,0.044,0.238,0.088,1,neu
0,0,0,0.095,0.06,0.075,0,neg
0,0,0,0,0,0,0,neg
0,0,0,0,0,0,0,neg
0,0,0,0.044,0.238,0.088,4,neg
0.087,0.109,0.174,0.044,0.238,0.088,-2,neg
0.022,0.217,0.109,0.044,0.238,0.088,0,neu
0,0,0,0.053,0.211,0.105,10,pos
0.067,0.082,0.119,0.105,0.053,0.105,0,neg
0.015,0.358,0.082,0.105,0.053,0.105,0,neu
0,0,0,0,0,0,7,neg
0.058,0.214,0.069,0.079,0.075,0.075,-2,neu
0.094,0.069,0.094,0.079,0.075,0.075,-2,neg
0.069,0.111,0.083,0.079,0.075,0.075,3,pos
0.028,0.208,0.069,0.079,0.075,0.075,8,neu
0.174,0.022,0.087,0,0,0,0,neu
0.087,0.109,0.174,0,0,0,4,pos
0.194,0.015,0.067,0.254,0.051,0.095,8,pos
0.194,0.015,0.067,0.254,0.051,0.095,2,pos
0,0,0,0.254,0.051,0.095,0,pos
0,0,0,0,0,0,0,pos
0,0,0,0,0,0,23,pos
0,0,0,0,0,0,2,neu
0.25,0.058,0.094,0.356,0.033,0.075,1,neu
0.094,0.069,0.094,0.356,0.033,0.075,2,pos
0,0,0,0.079,0.075,0.075,2,pos
0,0,0,0,0,0,2,pos
0,0,0,0,0,0,10,pos
0.25,0.058,0.094,0.254,0.051,0.095,8,pos
0.25,0.058,0.094,0.254,0.051,0.095,4,pos
0,0,0,0.254,0.051,0.095,14,pos
0,0,0,0,0,0,-5,neg
0,0,0,0.044,0.238,0.088,0,neu
0.25,0.058,0.094,0.095,0.06,0.075,-1,neg
0.058,0.214,0.069,0.095,0.06,0.075,7,pos
0.058,0.214,0.069,0.046,0.188,0.071,-4,neg
0.058,0.214,0.069,0.046,0.188,0.071,-6,neg
0,0,0,0.046,0.188,0.071,-2,neg
0.058,0.214,0.069,0.044,0.238,0.088,0,neg
0.058,0.214,0.069,0.044,0.238,0.088,1,neg
0.094,0.069,0.094,0.044,0.238,0.088,1,neg
0.058,0.214,0.069,0.044,0.238,0.088,0,neu
0.058,0.231,0.077,0.053,0.417,0.083,0,neu
0.154,0.077,0.154,0.053,0.417,0.083,1,neg
0,0,0,0.053,0.417,0.083,2,neg
0,0,0,0,0,0,-5,neg
0.067,0.082,0.119,0,0,0,1,neg
0.015,0.358,0.082,0,0,0,0,neu
0.015,0.358,0.082,0.111,0.222,0.111,6,neg
0.015,0.358,0.082,0.111,0.222,0.111,0,neg
0,0,0,0.044,0.238,0.111,-6,neu
0,0,0,0,0,0,0,neu
0.25,0.058,0.094,0,0,0,0,neu
0.094,0.069,0.094,0,0,0,4,pos
0.25,0.058,0.094,0,0,0,-2,neg
0.058,0.214,0.069,0,0,0,9,pos
0,0,0,0.095,0.06,0.075,2,pos
0.058,0.214,0.069,0.254,0.051,0.095,-2,neu
0.094,0.069,0.094,0.254,0.051,0.095,-1,neg
0,0,0,0,0,0,-3,neg
0,0,0,0,0,0,0,neu
0,0,0,0,0,0,-6,neg
0,0,0,0,0,0,5,pos
0,0,0,0.044,0.238,0.088,-6,neg
0.058,0.214,0.069,0.044,0.238,0.088,0,neg
0.058,0.214,0.069,0.044,0.238,0.088,-4,neg
0.058,0.214,0.069,0,0,0,-2,neg
0.058,0.214,0.069,0,0,0,6,neg
0.015,0.358,0.082,0.056,0.128,0.104,0,neu
0.067,0.082,0.119,0.056,0.128,0.104,0,neg
0,0,0,0.088,0.104,0.064,-2,pos
0,0,0,0,0,0,-1,neg
0,0,0,0,0,0,-2,neg
0,0,0,0,0,0,4,neg
0.067,0.082,0.119,0.095,0.06,0.075,-2,neu
0.067,0.082,0.119,0.095,0.06,0.075,-1,neu
0,0,0,0.095,0.06,0.075,1,neu
0.058,0.214,0.069,0,0,0,-4,neu
0.094,0.069,0.094,0,0,0,-1,neg
0,0,0,0,0,0,-12,neg
0,0,0,0.088,0.104,0.064,4,pos
0.067,0.082,0.119,0.056,0.128,0.104,2,neu
0.067,0.082,0.119,0.056,0.128,0.104,2,neu
0,0,0,0,0,0,8,pos
0,0,0,0,0,0,0,neu
0,0,0,0.128,0.248,0.08,6,pos
0.058,0.214,0.069,0.056,0.128,0.104,0,neg
0.058,0.214,0.069,0.056,0.128,0.104,0,neg
0,0,0,0,0,0,0,neg
0.174,0.022,0.087,0.254,0.051,0.095,0,pos
0.174,0.022,0.087,0.254,0.051,0.095,0,pos
0,0,0,0.254,0.051,0.095,0,pos
0.333,0.062,0.062,0.356,0.033,0.075,9,pos
0.333,0.062,0.062,0.356,0.033,0.075,2,pos
0,0,0,0.356,0.033,0.075,-2,pos
0,0,0,0,0,0,-1,neg
0.2,0.058,0.038,0,0,0,13,pos
0.2,0.058,0.038,0,0,0,2,pos
0,0,0,0.254,0.051,0.095,16,pos
0.25,0.058,0.094,0.254,0.051,0.095,4,pos
0.25,0.058,0.094,0.254,0.051,0.095,10,pos
0,0,0,0,0,0,14,pos
0,0,0,0,0,0,0,neg
0,0,0,0,0,0,4,pos
0.094,0.069,0.094,0.046,0.188,0.071,-10,neg
0.058,0.214,0.069,0.046,0.188,0.071,0,neu
0,0,0,0.046,0.188,0.071,-10,neg
0,0,0,0,0,0,0,neg
0,0,0,0,0,0,8,neg
0,0,0,0,0,0,-7,neg
0.058,0.214,0.069,0.044,0.238,0.088,-6,neg
0.058,0.214,0.069,0.044,0.238,0.088,-5,neg
0,0,0,0.044,0.238,0.088,-3,neg
0,0,0,0,0,0,-6,neg
0,0,0,0,0,0,0,neg
0,0,0,0,0,0,-6,neg
0.022,0.217,0.109,0,0,0,0,neg
0.022,0.217,0.109,0,0,0,0,neg
0,0,0,0,0,0,-2,neg
0,0,0,0,0,0,6,pos
0,0,0,0.254,0.051,0.095,2,pos
0.058,0.214,0.069,0.254,0.051,0.095,1,pos
0.25,0.058,0.094,0.254,0.051,0.095,-6,neg
0,0,0,0,0,0,0,neu
0.058,0.214,0.069,0.046,0.188,0.071,-4,neg
0.058,0.214,0.069,0.046,0.188,0.071,0,neg
0,0,0,0.046,0.188,0.071,0,neg
0.058,0.214,0.069,0,0,0,8,pos
0.25,0.058,0.094,0,0,0,-5,neg
0,0,0,0,0,0,1,neg
0.058,0.214,0.069,0,0,0,0,neu
0.094,0.069,0.094,0,0,0,0,neg
0,0,0,0,0,0,4,neg
0.058,0.462,0.038,0,0,0,0,neg
0.058,0.462,0.038,0,0,0,0,neg
0,0,0,0,0,0,-4,neg
0.25,0.058,0.094,0.254,0.051,0.095,10,pos
0.25,0.058,0.094,0.254,0.051,0.095,24,pos
0,0,0,0.254,0.051,0.095,0,pos
0.25,0.058,0.094,0.254,0.051,0.095,4,neu
0.094,0.069,0.094,0.254,0.051,0.095,0,pos
0,0,0,0.095,0.06,0.075,-2,pos
0,0,0,0.044,0.238,0.088,-1,neg
0.094,0.069,0.094,0.044,0.238,0.088,0,neg
0.058,0.214,0.069,0.044,0.238,0.088,0,neu
0.015,0.214,0.214,0.254,0.051,0.095,0,neu
0.071,0.214,0.119,0.254,0.051,0.095,-8,neg
0.25,0.058,0.094,0.044,0.238,0.088,2,pos
0.25,0.058,0.094,0.044,0.238,0.088,0,pos
0.25,0.058,0.094,0.356,0.033,0.075,0,pos
0.25,0.058,0.094,0.356,0.033,0.075,-1,pos
0,0,0,0.356,0.033,0.075,0,pos
0,0,0,0,0,0,-1,neu
0.25,0.058,0.094,0,0,0,0,neu
0.094,0.069,0.094,0,0,0,0,pos
0.069,0.111,0.083,0,0,0,-7,neg
0.208,0.111,0.111,0,0,0,4,neu
0,0,0,0,0,0,10,pos
0.094,0.069,0.094,0.254,0.051,0.095,13,pos
0.25,0.058,0.094,0.254,0.051,0.095,-1,neu
0,0,0,0.254,0.051,0.095,-1,pos
0.25,0.058,0.094,0.088,0.104,0.064,2,pos
0.25,0.058,0.094,0.088,0.104,0.064,0,pos
0,0,0,0.056,0.128,0.104,0,neu
0.094,0.069,0.094,0.044,0.238,0.088,0,pos
0.25,0.058,0.094,0.044,0.238,0.088,0,neu
0,0,0,0.254,0.051,0.095,0,neg
0.094,0.069,0.094,0,0,0,0,neu
0.094,0.069,0.094,0,0,0,0,neu
0.25,0.058,0.094,0.095,0.06,0.075,0,neu
0.094,0.069,0.094,0.095,0.06,0.075,0,pos
0,0,0,0.095,0.06,0.075,0,neu
0.25,0.058,0.094,0.356,0.033,0.075,0,neu
0.094,0.069,0.094,0.356,0.033,0.075,0,pos
0,0,0,0.079,0.075,0.075,6,pos
0.25,0.058,0.094,0.356,0.033,0.075,5,pos
0.25,0.058,0.094,0.356,0.033,0.075,6,pos
0,0,0,0.356,0.033,0.075,1,pos
0.094,0.069,0.094,0,0,0,-8,pos
0.25,0.058,0.094,0,0,0,0,neu
0,0,0,0,0,0,3,neu
0,0,0,0,0,0,0,neu
0,0,0,0.095,0.06,0.075,0,pos
0.154,0.077,0.154,0.254,0.051,0.095,9,pos
0.154,0.058,0.154,0.254,0.051,0.095,0,neu
0,0,0,0,0,0,0,neu
0,0,0,0,0,0,2,neu
0.154,0.077,0.154,0,0,0,0,neu
0.154,0.077,0.154,0,0,0,0,neu
0,0,0,0,0,0,4,pos
0,0,0,0,0,0,0,neu
0,0,0,0,0,0,12,pos
0,0,0,0,0,0,-1,neg
0,0,0,0,0,0,6,pos
0,0,0,0,0,0,10,pos
0.067,0.082,0.119,0.079,0.075,0.075,10,pos
0.194,0.015,0.067,0.079,0.075,0.075,0,neu
0,0,0,0.356,0.033,0.075,0,neu
0,0,0,0,0,0,4,pos
0.062,0.188,0.174,0.056,0.128,0.104,-4,pos
0.375,0.062,0.062,0.056,0.128,0.104,0,neu
0,0,0,0.056,0.128,0.104,-1,pos
0.038,0.1,0.4,0,0,0,-1,neu
0.038,0.1,0.4,0,0,0,0,neu
0,0,0,0,0,0,4,pos
0,0,0,0,0,0,0,neu
0,0,0,0.356,0.033,0.075,-2,neu
0.058,0.214,0.069,0.079,0.075,0.075,-4,pos
0.25,0.058,0.094,0.079,0.075,0.075,-6,neg
0,0,0,0.044,0.238,0.088,-13,neg
0.058,0.214,0.069,0.044,0.238,0.088,-8,neg
0.058,0.214,0.069,0.044,0.238,0.088,-2,neg
0.058,0.214,0.069,0,0,0,-4,neg
0.058,0.214,0.069,0,0,0,2,neg
0,0,0,0,0,0,2,neg
0,0,0,0.044,0.238,0.088,4,neg
0.015,0.358,0.082,0.044,0.238,0.088,-10,neg
0.015,0.358,0.082,0.044,0.238,0.088,0,neg
0.058,0.214,0.069,0,0,0,-12,neg
0.058,0.214,0.069,0,0,0,15,neg
0,0,0,0.254,0.051,0.095,25,neu
0.25,0.058,0.094,0.095,0.06,0.075,5,pos
0.25,0.058,0.094,0.095,0.06,0.075,10,pos
0.25,0.058,0.094,0.254,0.051,0.095,1,pos
0.25,0.058,0.094,0.254,0.051,0.095,7,pos
0,0,0,0.254,0.051,0.095,1,pos
0,0,0,0,0,0,10,pos
0.25,0.058,0.094,0.356,0.033,0.075,4,pos
0.25,0.058,0.094,0.356,0.033,0.075,9,pos
0,0,0,0.356,0.033,0.075,8,pos
0.25,0.058,0.094,0.254,0.051,0.095,9,pos
0.25,0.058,0.094,0.254,0.051,0.095,11,pos
0,0,0,0.254,0.051,0.095,9,pos
0,0,0,0,0,0,0,neu
0,0,0,0,0,0,14,pos
0.25,0.058,0.094,0.356,0.033,0.075,2,pos
0.25,0.058,0.094,0.356,0.033,0.075,2,pos
0,0,0,0.356,0.033,0.075,0,pos
0,0,0,0,0,0,6,pos
0.25,0.058,0.094,0.356,0.033,0.075,8,pos
0.25,0.058,0.094,0.356,0.033,0.075,10,pos
0,0,0,0.356,0.033,0.075,1,pos
0,0,0,0,0,0,12,pos
0,0,0,0,0,0,5,pos
0.25,0.058,0.094,0.254,0.051,0.095,6,pos
0.25,0.058,0.094,0.254,0.051,0.095,5,pos
0.25,0.058,0.094,0.254,0.051,0.095,10,pos
0.25,0.058,0.094,0.254,0.051,0.095,8,pos
0.087,0.109,0.174,0,0,0,0,neu
0.087,0.109,0.174,0,0,0,0,neu
0,0,0,0,0,0,18,pos
0,0,0,0,0,0,11,pos
0.208,0.111,0.111,0,0,0,10,pos
0.028,0.208,0.069,0,0,0,-1,neg
0,0,0,0,0,0,0,neu
0.058,0.214,0.069,0.056,0.128,0.104,10,pos
0.25,0.058,0.094,0.056,0.128,0.104,-4,neg
0,0,0,0.056,0.128,0.104,0,pos
0,0,0,0.046,0.188,0.071,0,neu
0.208,0.111,0.111,0.079,0.075,0.075,4,neu
0.069,0.111,0.083,0.079,0.075,0.075,-6,neg
0.25,0.058,0.094,0,0,0,12,pos
0.25,0.058,0.094,0,0,0,2,pos
0,0,0,0,0,0,3,pos
0,0,0,0,0,0,7,pos
0,0,0,0,0,0,2,pos
0,0,0,0,0,0,1,pos
0.015,0.358,0.082,0,0,0,-2,neg
0.015,0.358,0.082,0,0,0,-4,neg
0,0,0,0,0,0,-3,neg
0,0,0,0,0,0,1,neg
0.058,0.214,0.069,0.254,0.051,0.095,0,neu
0.094,0.069,0.094,0.254,0.051,0.095,-4,neg
0,0,0,0.095,0.06,0.075,13,pos
0,0,0,0,0,0,-9,neg
0,0,0,0,0,0,-8,neg
0,0,0,0,0,0,4,neg
0,0,0,0,0,0,8,neg
0,0,0,0,0,0,0,neu
0,0,0,0,0,0,14,pos
0,0,0,0.088,0.104,0.064,-4,neg
0.058,0.462,0.038,0.128,0.248,0.08,4,neu
0.038,0.038,0.154,0.128,0.248,0.08,0,neg
0,0,0,0,0,0,-2,neu
0,0,0,0.044,0.238,0.088,0,neg
0.058,0.231,0.077,0.044,0.238,0.088,0,neg
0.058,0.231,0.077,0.044,0.238,0.088,-2,neg
0.022,0.217,0.109,0,0,0,-4,neg
0.022,0.217,0.109,0,0,0,2,neg
0.015,0.358,0.082,0,0,0,-1,neg
0.015,0.358,0.082,0,0,0,-3,neg
0.208,0.111,0.111,0,0,0,2,neg
0.208,0.111,0.111,0,0,0,2,neg
0.058,0.214,0.069,0.128,0.248,0.08,0,neg
0.058,0.214,0.069,0.128,0.248,0.08,0,neg
0.058,0.462,0.038,0.128,0.248,0.08,0,neg
0.058,0.462,0.038,0.128,0.248,0.08,-5,neg
0.058,0.214,0.069,0.044,0.238,0.088,2,neg
0.058,0.214,0.069,0.044,0.238,0.088,0,neg
0.058,0.214,0.069,0.044,0.238,0.088,3,neg
0.058,0.214,0.069,0.044,0.238,0.088,-2,neg
0.058,0.214,0.069,0,0,0,0,neg
0.058,0.214,0.069,0,0,0,-8,neg
0,0,0,0.095,0.06,0.075,-5,neg
0.058,0.214,0.069,0.044,0.238,0.088,0,neu
0.094,0.069,0.094,0.044,0.238,0.088,-4,neg
0.058,0.214,0.069,0,0,0,5,neg
0.058,0.214,0.069,0,0,0,0,neg
0,0,0,0.044,0.167,0.056,-4,neg
0.015,0.358,0.082,0.044,0.167,0.056,10,neg
0.015,0.358,0.082,0.044,0.167,0.056,-2,neg
0.208,0.111,0.111,0,0,0,4,neu
0.069,0.111,0.083,0,0,0,0,neg
0,0,0,0,0,0,0,neu
0.25,0.058,0.094,0,0,0,1,neu
0.094,0.069,0.094,0,0,0,5,pos
0.058,0.214,0.069,0,0,0,-3,neg
0.058,0.214,0.069,0,0,0,-4,neg
0,0,0,0.128,0.248,0.08,6,pos
0.038,0.1,0.4,0.056,0.128,0.104,-6,neg
0.058,0.2,0.1,0.056,0.128,0.104,7,neu
0,0,0,0.111,0.056,0.056,0,neu
0.25,0.058,0.094,0.111,0.111,0.333,10,pos
0.25,0.058,0.094,0.111,0.111,0.333,0,pos
0.058,0.214,0.069,0.044,0.238,0.088,0,pos
0.25,0.058,0.094,0.044,0.238,0.088,-5,neg
0.062,0.5,0.188,0.254,0.051,0.095,0,neg
0.062,0.5,0.188,0.254,0.051,0.095,0,neg
0.25,0.058,0.094,0.044,0.238,0.088,4,pos
0.25,0.058,0.094,0.044,0.238,0.088,8,pos
0,0,0,0.254,0.051,0.095,6,neg
0.038,0.038,0.154,0,0,0,0,neu
0.038,0.038,0.154,0,0,0,0,neu
0,0,0,0.254,0.051,0.095,0,neu
0.25,0.058,0.094,0.095,0.06,0.075,10,pos
0.25,0.058,0.094,0.095,0.06,0.075,0,pos
0.25,0.058,0.094,0,0,0,0,neu
0.094,0.069,0.094,0,0,0,8,pos
0,0,0,0,0,0,0,neg
0,0,0,0,0,0,1,pos
0.067,0.082,0.119,0.095,0.06,0.075,8,pos
0.194,0.015,0.067,0.095,0.06,0.075,0,neu
0,0,0,0.254,0.051,0.095,-2,neu
0.094,0.069,0.094,0.046,0.188,0.071,0,neg
0.058,0.214,0.069,0.046,0.188,0.071,0,neu
0,0,0,0.046,0.188,0.071,-1,neg
0.094,0.069,0.094,0.044,0.238,0.088,10,neu
0.094,0.069,0.094,0.044,0.238,0.088,0,neu
0,0,0,0.095,0.06,0.075,6,neg
0,0,0,0,0,0,10,pos
0.087,0.109,0.174,0,0,0,0,pos
0.174,0.022,0.087,0,0,0,0,neu
0,0,0,0,0,0,-3,neg
0.094,0.069,0.094,0.067,0.158,0.211,-1,neu
0.094,0.069,0.094,0.067,0.158,0.211,0,neu
0,0,0,0.067,0.158,0.211,0,neu
0.058,0.214,0.069,0,0,0,0,neg
0.058,0.214,0.069,0,0,0,1,neg
0.067,0.082,0.119,0.046,0.188,0.071,0,neu
0.067,0.082,0.119,0.046,0.188,0.071,0,neu
0,0,0,0.079,0.075,0.075,0,neg
0,0,0,0.079,0.075,0.075,1,neu
0.208,0.111,0.111,0.079,0.075,0.075,4,neu
0.069,0.111,0.083,0.079,0.075,0.075,0,neg
0.194,0.015,0.067,0.356,0.033,0.075,1,neu
0.067,0.082,0.119,0.356,0.033,0.075,0,pos
0,0,0,0.079,0.075,0.075,2,pos
0,0,0,0,0,0,5,pos
0,0,0,0.088,0.104,0.064,-1,pos
0.154,0.077,0.154,0.056,0.128,0.104,-1,neu
0.154,0.077,0.154,0.056,0.128,0.104,0,neu
0.25,0.058,0.094,0,0,0,0,neg
0.058,0.214,0.069,0,0,0,8,pos
0,0,0,0,0,0,4,neg
0,0,0,0,0,0,-2,neu
0.194,0.015,0.067,0.044,0.238,0.088,-2,neg
0.015,0.358,0.082,0.044,0.238,0.088,11,pos
0,0,0,0.044,0.238,0.088,0,neg
0,0,0,0,0,0,-2,neg
0,0,0,0,0,0,0,neu
0.094,0.069,0.094,0.356,0.033,0.075,10,pos
0.25,0.058,0.094,0.356,0.033,0.075,0,neu
0,0,0,0.356,0.033,0.075,6,pos
0,0,0,0,0,0,3,pos
0,0,0,0,0,0,-8,neg
0,0,0,0.167,0.158,0.167,5,pos
0.038,0.1,0.4,0.333,0.167,0.333,0,neu
0.038,0.1,0.4,0.333,0.167,0.333,-4,neu
0,0,0,0,0,0,1,pos
0,0,0,0,0,0,12,pos
0.094,0.069,0.094,0.356,0.033,0.075,2,pos
0.25,0.058,0.094,0.356,0.033,0.075,11,neu
0,0,0,0.356,0.033,0.075,0,pos
0,0,0,0,0,0,10,pos
0.25,0.058,0.094,0.254,0.051,0.095,1,pos
0.25,0.058,0.094,0.254,0.051,0.095,0,pos
0,0,0,0.254,0.051,0.095,2,pos
0.25,0.058,0.094,0,0,0,-1,pos
0.25,0.058,0.094,0,0,0,2,pos
0.094,0.069,0.094,0,0,0,-1,pos
0.25,0.058,0.094,0,0,0,-1,neu
0,0,0,0,0,0,8,pos
0.194,0.015,0.067,0.095,0.06,0.075,12,pos
0.194,0.015,0.067,0.095,0.06,0.075,-9,pos
0,0,0,0.254,0.051,0.095,1,neu
0,0,0,0,0,0,0,neg
0,0,0,0.079,0.075,0.075,-4,neu
0,0,0,0.079,0.075,0.075,2,pos
0,0,0,0.079,0.075,0.075,0,neu
0,0,0,0.079,0.075,0.075,15,pos
0.094,0.069,0.094,0.254,0.051,0.095,0,neg
0.058,0.214,0.069,0.254,0.051,0.095,2,neu
0,0,0,0.044,0.238,0.088,5,pos
0.154,0.077,0.154,0.079,0.075,0.075,3,pos
0.154,0.058,0.154,0.079,0.075,0.075,0,neu
0.25,0.058,0.094,0.356,0.033,0.075,0,neu
0.094,0.069,0.094,0.356,0.033,0.075,0,pos
0,0,0,0,0,0,14,pos
0.062,0.188,0.174,0,0,0,-2,neg
0.062,0.217,0.188,0,0,0,0,neu
0.25,0.058,0.094,0,0,0,-2,neg
0.058,0.214,0.069,0,0,0,0,pos
0,0,0,0,0,0,-2,neg
0,0,0,0.254,0.051,0.095,2,neu
0.25,0.058,0.094,0.095,0.06,0.075,4,pos
0.25,0.058,0.094,0.095,0.06,0.075,4,pos
0.071,0.214,0.119,0.088,0.104,0.064,0,neg
0.015,0.214,0.214,0.088,0.104,0.064,0,neu
0,0,0,0.128,0.248,0.08,-1,neu
0.071,0.214,0.119,0,0,0,15,pos
0.214,0.015,0.071,0,0,0,0,neu
0,0,0,0,0,0,7,pos
0,0,0,0.254,0.051,0.095,11,pos
0.25,0.058,0.094,0.254,0.051,0.095,14,pos
0.25,0.058,0.094,0.254,0.051,0.095,-5,pos
0.058,0.214,0.069,0,0,0,5,pos
0.25,0.058,0.094,0,0,0,0,neg
0.058,0.214,0.069,0.044,0.238,0.088,0,neu
0.094,0.069,0.094,0.044,0.238,0.088,-2,neg
0,0,0,0.095,0.06,0.075,0,neg
0,0,0,0,0,0,1,neg
0,0,0,0,0,0,4,pos
0,0,0,0,0,0,0,pos
0,0,0,0,0,0,-4,neg
0,0,0,0.046,0.188,0.071,4,neg
0.094,0.069,0.094,0.046,0.188,0.071,1,neg
0.058,0.214,0.069,0.046,0.188,0.071,-3,neu
0.094,0.069,0.094,0.095,0.06,0.075,2,neu
0.094,0.069,0.094,0.095,0.06,0.075,-4,neu
0,0,0,0.095,0.06,0.075,0,neu
0.094,0.069,0.094,0.044,0.238,0.088,0,neg
0.058,0.214,0.069,0.044,0.238,0.088,0,neu
0,0,0,0.044,0.238,0.088,7,neg
0.058,0.214,0.069,0,0,0,2,neg
0.058,0.214,0.069,0,0,0,0,neg
0,0,0,0,0,0,-2,neg
0.208,0.111,0.111,0,0,0,10,pos
0.028,0.208,0.069,0,0,0,-1,neg
0.058,0.214,0.069,0.053,0.417,0.083,1,neg
0.058,0.214,0.069,0.053,0.417,0.083,0,neg
0,0,0,0.053,0.417,0.083,0,neg
0,0,0,0,0,0,10,pos
0,0,0,0,0,0,-8,neg
0.038,0.1,0.4,0,0,0,0,neu
0.038,0.1,0.4,0,0,0,-2,neu
0,0,0,0,0,0,5,pos
0,0,0,0.4,0.033,0.067,4,pos
0.25,0.058,0.094,0.4,0.033,0.067,6,pos
0.25,0.058,0.094,0.4,0.033,0.067,0,pos
0.25,0.058,0.094,0,0,0,0,pos
0.25,0.058,0.094,0,0,0,0,pos
0,0,0,0,0,0,-4,pos
0,0,0,0,0,0,6,pos
0,0,0,0,0,0,2,pos
0,0,0,0.095,0.06,0.075,5,pos
0.038,0.1,0.4,0.254,0.051,0.095,0,neu
0.038,0.1,0.4,0.254,0.051,0.095,0,neu
0,0,0,0.105,0.053,0.105,5,pos
0.069,0.111,0.083,0.105,0.053,0.105,4,pos
0.028,0.208,0.069,0.105,0.053,0.105,-1,neu
0.25,0.058,0.094,0.254,0.051,0.095,2,pos
0.25,0.058,0.094,0.254,0.051,0.095,2,pos
0,0,0,0.254,0.051,0.095,0,pos
0,0,0,0,0,0,-1,pos
0.067,0.082,0.119,0,0,0,-2,neg
0.015,0.358,0.082,0,0,0,-2,neu
0,0,0,0,0,0,0,neu
0.058,0.214,0.069,0.088,0.104,0.064,0,pos
0.25,0.058,0.094,0.088,0.104,0.064,-10,neg
0,0,0,0.056,0.128,0.104,0,neu
0,0,0,0.254,0.051,0.095,8,pos
0.194,0.015,0.067,0.254,0.051,0.095,0,pos
0.194,0.015,0.067,0.254,0.051,0.095,11,pos
0,0,0,0,0,0,10,pos
0,0,0,0,0,0,16,pos
0,0,0,0,0,0,1,pos
0.208,0.111,0.111,0.095,0.06,0.075,2,pos
0.028,0.208,0.069,0.095,0.06,0.075,-8,neg
0.094,0.069,0.094,0.044,0.238,0.088,0,neu
0.094,0.069,0.094,0.044,0.238,0.088,1,neu
0,0,0,0,0,0,-10,neg
0.214,0.015,0.071,0.095,0.06,0.075,18,neu
0.071,0.214,0.119,0.095,0.06,0.075,2,pos
0,0,0,0.254,0.051,0.095,0,neu
0.038,0.038,0.154,0,0,0,2,pos
0.231,0.058,0.038,0,0,0,0,neu
0,0,0,0,0,0,-1,neu
0.094,0.069,0.094,0.356,0.033,0.075,-2,pos
0.25,0.058,0.094,0.356,0.033,0.075,0,neu
0,0,0,0.356,0.033,0.075,13,pos
0,0,0,0.095,0.06,0.075,-1,neu
0.25,0.058,0.094,0.095,0.06,0.075,4,neu
0.094,0.069,0.094,0.095,0.06,0.075,2,pos
0.094,0.069,0.094,0.067,0.067,0.2,10,pos
0.25,0.058,0.094,0.067,0.067,0.2,1,neu
0,0,0,0.4,0.033,0.067,3,neu
0.25,0.058,0.094,0,0,0,0,neu
0.094,0.069,0.094,0,0,0,13,pos
0.25,0.058,0.094,0,0,0,-4,neu
0.094,0.069,0.094,0,0,0,2,pos
0.069,0.111,0.083,0,0,0,0,neu
0.069,0.111,0.083,0,0,0,4,neu
0.25,0.058,0.094,0.095,0.06,0.075,9,pos
0.25,0.058,0.094,0.095,0.06,0.075,5,pos
0,0,0,0.254,0.051,0.095,0,neu
0.094,0.069,0.094,0.254,0.051,0.095,-2,neu
0.094,0.069,0.094,0.254,0.051,0.095,0,neu
0,0,0,0.095,0.06,0.075,3,pos
0,0,0,0,0,0,10,pos
0,0,0,0,0,0,-2,neg
0.058,0.214,0.069,0,0,0,-2,neg
0.058,0.214,0.069,0,0,0,0,neg
0,0,0,0,0,0,0,neu
0,0,0,0.044,0.238,0.088,-4,neg
0.058,0.214,0.069,0.044,0.238,0.088,-1,neg
0.058,0.214,0.069,0.044,0.238,0.088,-4,neg
0.058,0.214,0.069,0,0,0,-2,neg
0.058,0.214,0.069,0,0,0,-3,neg
0,0,0,0,0,0,5,pos
0.25,0.058,0.094,0,0,0,1,pos
0.25,0.058,0.094,0,0,0,-2,pos
0,0,0,0,0,0,10,pos
0.25,0.058,0.094,0.356,0.033,0.075,-5,neg
0.058,0.214,0.069,0.356,0.033,0.075,8,pos
0,0,0,0.046,0.188,0.071,4,pos
0.231,0.058,0.038,0,0,0,1,pos
0.231,0.058,0.038,0,0,0,0,pos
0.25,0.058,0.094,0,0,0,-1,neu
0.094,0.069,0.094,0,0,0,0,pos
0.333,0.062,0.062,0.254,0.051,0.095,9,pos
0.333,0.062,0.062,0.254,0.051,0.095,4,pos
0.25,0.058,0.094,0.254,0.051,0.095,9,pos
0.25,0.058,0.094,0.254,0.051,0.095,4,pos
0.25,0.058,0.094,0.356,0.033,0.075,10,pos
0.25,0.058,0.094,0.356,0.033,0.075,10,pos
0.25,0.058,0.094,0.356,0.033,0.075,2,pos
0.25,0.058,0.094,0.356,0.033,0.075,2,pos
0,0,0,0,0,0,7,pos
0,0,0,0,0,0,2,pos
0,0,0,0.095,0.06,0.075,-4,neg
0.058,0.214,0.069,0.044,0.238,0.088,0,neu
0.094,0.069,0.094,0.044,0.238,0.088,-10,neg
0.058,0.214,0.069,0.079,0.075,0.075,0,neg
0.058,0.214,0.069,0.079,0.075,0.075,0,neg
0.069,0.111,0.083,0.046,0.188,0.071,0,neu
0.069,0.111,0.083,0.046,0.188,0.071,0,neu
0.094,0.069,0.094,0.254,0.051,0.095,-11,neg
0.058,0.214,0.069,0.254,0.051,0.095,-2,neu
0,0,0,0.044,0.238,0.088,10,pos
0,0,0,0,0,0,0,pos
0,0,0,0,0,0,0,neg
0,0,0,0,0,0,0,neg
0,0,0,0,0,0,0,neg
0.067,0.082,0.119,0.067,0.158,0.211,2,neg
0.015,0.358,0.082,0.067,0.158,0.211,-2,neu
0.087,0.109,0.174,0.053,0.211,0.105,0,neg
0.022,0.217,0.109,0.053,0.211,0.105,0,neu
0,0,0,0,0,0,0,neu
0.015,0.358,0.082,0,0,0,-2,neu
0.067,0.082,0.119,0,0,0,0,neg
0.058,0.214,0.069,0,0,0,-3,neu
0.094,0.069,0.094,0,0,0,-10,neg
0.094,0.069,0.094,0,0,0,8,neg
0.058,0.214,0.069,0,0,0,2,neu
0.058,0.214,0.069,0.046,0.188,0.071,-12,neg
0.058,0.214,0.069,0.046,0.188,0.071,-2,neg
0,0,0,0.046,0.188,0.071,1,neg
0.038,0.038,0.154,0,0,0,0,neu
0.038,0.038,0.154,0,0,0,9,neu
0.067,0.082,0.119,0.095,0.06,0.075,0,neu
0.067,0.082,0.119,0.095,0.06,0.075,10,neu
0,0,0,0.095,0.06,0.075,0,neu
0.094,0.069,0.094,0,0,0,-6,neg
0.058,0.214,0.069,0,0,0,0,neu
0,0,0,0,0,0,-4,neg
0.058,0.214,0.069,0.088,0.104,0.064,-4,neg
0.058,0.214,0.069,0.088,0.104,0.064,-9,neg
0.015,0.358,0.082,0.128,0.248,0.08,0,neu
0.067,0.082,0.119,0.128,0.248,0.08,0,neg
0.015,0.358,0.082,0,0,0,0,neg
0.015,0.358,0.082,0,0,0,0,neg
0,0,0,0.044,0.238,0.088,-4,neg
0.022,0.217,0.109,0.044,0.238,0.088,3,neg
0.022,0.217,0.109,0.044,0.238,0.088,0,neg
0,0,0,0,0,0,-8,neg
0,0,0,0,0,0,0,neu
0.25,0.058,0.094,0.254,0.051,0.095,2,neu
0.094,0.069,0.094,0.254,0.051,0.095,11,pos
0.2,0.058,0.038,0.095,0.06,0.075,0,pos
0.2,0.058,0.038,0.095,0.06,0.075,10,pos
0,0,0,0,0,0,-4,neg
0.058,0.214,0.069,0.044,0.238,0.088,-1,neg
0.058,0.214,0.069,0.044,0.238,0.088,-8,neg
0,0,0,0.044,0.238,0.088,2,neg
0.015,0.214,0.214,0.044,0.238,0.088,0,neg
0.015,0.214,0.214,0.044,0.238,0.088,-2,neg
0.208,0.111,0.111,0.044,0.238,0.088,-2,pos
0.028,0.208,0.069,0.044,0.238,0.088,-2,neg
0.094,0.069,0.094,0,0,0,0,neu
0.094,0.069,0.094,0,0,0,1,neu
0,0,0,0.044,0.238,0.088,-2,neg
0.015,0.358,0.082,0.044,0.238,0.088,2,neg
0.015,0.358,0.082,0.044,0.238,0.088,0,neg
0,0,0,0,0,0,12,pos
0,0,0,0,0,0,10,pos
0,0,0,0,0,0,10,pos
0.194,0.015,0.067,0,0,0,12,pos
0.194,0.015,0.067,0,0,0,0,pos
0.094,0.069,0.094,0.088,0.104,0.064,0,neu
0.094,0.069,0.094,0.088,0.104,0.064,4,neu
0.194,0.015,0.067,0.088,0.104,0.064,0,neu
0.067,0.082,0.119,0.088,0.104,0.064,2,pos
0.058,0.214,0.069,0.056,0.128,0.104,-2,neg
0.058,0.214,0.069,0.056,0.128,0.104,-2,neg
0,0,0,0.128,0.248,0.08,5,pos
0,0,0,0,0,0,0,neu
0,0,0,0.095,0.06,0.075,-1,neg
0.25,0.058,0.094,0.044,0.238,0.088,0,neu
0.094,0.069,0.094,0.044,0.238,0.088,5,pos
0,0,0,0,0,0,2,pos
0,0,0,0,0,0,-1,neu
0,0,0,0,0,0,0,neu
0,0,0,0,0,0,1,neu
0,0,0,0,0,0,12,pos
0.094,0.069,0.094,0,0,0,4,neu
0.094,0.069,0.094,0,0,0,0,neu
0.038,0.1,0.4,0.095,0.06,0.075,0,neu
0.038,0.1,0.4,0.095,0.06,0.075,4,neu
0,0,0,0.095,0.06,0.075,0,neu
0,0,0,0,0,0,0,pos
0,0,0,0.053,0.211,0.105,-9,neg
0.058,0.214,0.069,0.053,0.211,0.105,-4,neg
0.058,0.214,0.069,0.053,0.211,0.105,1,neg
0,0,0,0.128,0.248,0.08,4,neu
0.015,0.358,0.082,0.088,0.104,0.064,0,neg
0.015,0.358,0.082,0.088,0.104,0.064,-4,neg
0,0,0,0,0,0,0,neu
0.375,0.062,0.062,0.356,0.033,0.075,5,pos
0.375,0.062,0.062,0.356,0.033,0.075,1,pos
0,0,0,0.356,0.033,0.075,4,pos
0,0,0,0,0,0,0,pos
0.015,0.358,0.082,0.128,0.248,0.08,2,neg
0.015,0.358,0.082,0.128,0.248,0.08,-1,neg
0,0,0,0.128,0.248,0.08,1,neg
0,0,0,0,0,0,1,neg
0,0,0,0,0,0,0,neu
0,0,0,0,0,0,-2,neu
0,0,0,0,0,0,1,neu
0,0,0,0,0,0,0,neg
0.094,0.069,0.094,0.128,0.248,0.08,-3,neg
0.058,0.214,0.069,0.128,0.248,0.08,0,neu
0,0,0,0.128,0.248,0.08,0,neg
0,0,0,0,0,0,0,neg
0.058,0.231,0.077,0,0,0,0,neu
0.154,0.077,0.154,0,0,0,0,neg
0,0,0,0.128,0.248,0.08,0,neg
0.208,0.111,0.111,0.128,0.248,0.08,-1,neg
0.208,0.111,0.111,0.128,0.248,0.08,1,neg
0.094,0.069,0.094,0.095,0.06,0.075,0,neu
0.094,0.069,0.094,0.095,0.06,0.075,2,neu
0.015,0.358,0.082,0.095,0.06,0.075,0,neu
0.067,0.082,0.119,0.095,0.06,0.075,14,neg
0,0,0,0,0,0,-2,neg
0,0,0,0,0,0,17,neg
0.208,0.111,0.111,0.095,0.06,0.075,4,pos
0.028,0.208,0.069,0.095,0.06,0.075,1,neg
0,0,0,0.254,0.051,0.095,-1,neu
0,0,0,0,0,0,18,neg
0,0,0,0,0,0,3,pos
0,0,0,0.4,0.033,0.067,0,pos
0.25,0.058,0.094,0.4,0.033,0.067,2,pos
0.25,0.058,0.094,0.4,0.033,0.067,5,pos
0.25,0.058,0.094,0,0,0,4,pos
0.25,0.058,0.094,0,0,0,10,pos
0.25,0.058,0.094,0.254,0.051,0.095,8,pos
0.25,0.058,0.094,0.254,0.051,0.095,2,pos
0,0,0,0.254,0.051,0.095,0,pos
0,0,0,0,0,0,1,pos
0,0,0,0,0,0,-4,pos
0.058,0.214,0.069,0.088,0.104,0.064,4,pos
0.25,0.058,0.094,0.088,0.104,0.064,-4,neg
0,0,0,0.056,0.128,0.104,2,neu
0,0,0,0,0,0,0,pos
0,0,0,0,0,0,8,pos
0.231,0.058,0.038,0,0,0,1,pos
0.231,0.058,0.038,0,0,0,2,pos
0.214,0.015,0.071,0.254,0.051,0.095,10,pos
0.214,0.015,0.071,0.254,0.051,0.095,4,pos
0.375,0.062,0.062,0.254,0.051,0.095,7,pos
0.375,0.062,0.062,0.254,0.051,0.095,0,pos
0.25,0.058,0.094,0,0,0,0,neu
0.094,0.069,0.094,0,0,0,10,pos
0.214,0.015,0.071,0.254,0.051,0.095,0,pos
0.214,0.015,0.071,0.254,0.051,0.095,0,pos
0,0,0,0.254,0.051,0.095,0,pos
0,0,0,0,0,0,-1,pos
0.058,0.214,0.069,0.046,0.188,0.071,0,neu
0.094,0.069,0.094,0.046,0.188,0.071,-6,neg
0.015,0.358,0.082,0.079,0.075,0.075,-7,neg
0.015,0.358,0.082,0.079,0.075,0.075,-2,neg
0.028,0.208,0.069,0,0,0,-10,neg
0.208,0.111,0.111,0,0,0,5,pos
0.208,0.111,0.111,0,0,0,5,pos
0.028,0.208,0.069,0,0,0,-2,neg
0,0,0,0.044,0.238,0.088,10,pos
0.058,0.214,0.069,0.254,0.051,0.095,0,neg
0.058,0.214,0.069,0.254,0.051,0.095,2,neg
0.25,0.058,0.094,0.254,0.051,0.095,0,neg
0.058,0.214,0.069,0.254,0.051,0.095,4,pos
0,0,0,0.044,0.238,0.088,2,pos
0,0,0,0,0,0,0,pos
0.058,0.214,0.069,0,0,0,-4,pos
0.25,0.058,0.094,0,0,0,-1,neg
0.094,0.069,0.094,0,0,0,11,pos
0.25,0.058,0.094,0,0,0,6,neu
0,0,0,0.111,0.111,0.333,3,neu
0.067,0.082,0.119,0.111,0.111,0.333,10,neu
0.067,0.082,0.119,0.111,0.111,0.333,0,neu
0,0,0,0,0,0,0,neu
0.058,0.214,0.069,0,0,0,10,pos
0.25,0.058,0.094,0,0,0,-2,neg
0.194,0.015,0.067,0.128,0.248,0.08,0,pos
0.194,0.015,0.067,0.128,0.248,0.08,10,pos
0,0,0,0.056,0.128,0.104,-4,neg
0,0,0,0,0,0,2,pos
0.25,0.058,0.094,0.254,0.051,0.095,0,neu
0.094,0.069,0.094,0.254,0.051,0.095,10,pos
0,0,0,0.095,0.06,0.075,4,pos
0,0,0,0,0,0,10,pos
0,0,0,0.254,0.051,0.095,7,pos
0.25,0.058,0.094,0.254,0.051,0.095,36,pos
0.25,0.058,0.094,0.254,0.051,0.095,4,pos
0,0,0,0.254,0.051,0.095,0,pos
0.174,0.022,0.087,0.254,0.051,0.095,0,pos
0.174,0.022,0.087,0.254,0.051,0.095,10,pos
0,0,0,0.254,0.051,0.095,1,pos
0.25,0.058,0.094,0.254,0.051,0.095,4,pos
0.25,0.058,0.094,0.254,0.051,0.095,-15,pos
0,0,0,0,0,0,2,neu
0.028,0.208,0.069,0,0,0,14,pos
0.028,0.208,0.069,0,0,0,-2,pos
0,0,0,0,0,0,4,pos
0.058,0.214,0.069,0,0,0,14,pos
0.25,0.058,0.094,0,0,0,-2,neg
0.015,0.358,0.082,0,0,0,-4,neg
0.015,0.358,0.082,0,0,0,-3,neg
0.25,0.058,0.094,0.356,0.033,0.075,0,neu
0.094,0.069,0.094,0.356,0.033,0.075,1,pos
0,0,0,0.079,0.075,0.075,-5,pos
0.015,0.214,0.214,0,0,0,-19,neu
0.071,0.214,0.119,0,0,0,0,neg
0.015,0.358,0.082,0.044,0.238,0.088,-2,neg
0.015,0.358,0.082,0.044,0.238,0.088,2,neg
0,0,0,0.044,0.238,0.088,-1,neg
0.058,0.214,0.069,0,0,0,-4,neg
0.058,0.214,0.069,0,0,0,0,neg
0,0,0,0,0,0,0,neg
0,0,0,0,0,0,1,neg
0,0,0,0.044,0.238,0.088,4,neg
0.015,0.358,0.082,0.044,0.238,0.088,-6,neg
0.015,0.358,0.082,0.044,0.238,0.088,-5,neg
0,0,0,0.056,0.128,0.104,0,neg
0.194,0.015,0.067,0.128,0.248,0.08,0,pos
0.194,0.015,0.067,0.128,0.248,0.08,1,pos
0,0,0,0,0,0,0,neu
0,0,0,0,0,0,0,neu
0,0,0,0,0,0,2,neu
0,0,0,0,0,0,-7,neg
0,0,0,0,0,0,0,neu
0,0,0,0.044,0.238,0.088,1,pos
0.015,0.214,0.214,0.254,0.051,0.095,0,neg
0.015,0.214,0.214,0.254,0.051,0.095,0,neg
0,0,0,0.356,0.033,0.075,2,pos
0,0,0,0.356,0.033,0.075,12,pos
0,0,0,0.356,0.033,0.075,10,pos
0.194,0.015,0.067,0,0,0,8,pos
0.194,0.015,0.067,0,0,0,8,pos
0,0,0,0,0,0,4,pos
0.038,0.1,0.4,0,0,0,-6,neg
0.058,0.2,0.1,0,0,0,-1,neu
0,0,0,0,0,0,1,neu
0.25,0.058,0.094,0.046,0.188,0.071,-2,neu
0.094,0.069,0.094,0.046,0.188,0.071,0,pos
0.058,0.214,0.069,0.079,0.075,0.075,-7,neg
0.058,0.214,0.069,0.079,0.075,0.075,-1,neg
0,0,0,0.095,0.06,0.075,-1,neg
0.062,0.188,0.167,0.044,0.238,0.088,1,neu
0.062,0.188,0.167,0.044,0.238,0.088,0,neu
0,0,0,0,0,0,2,neu
0,0,0,0,0,0,10,pos
0,0,0,0,0,0,4,pos
0,0,0,0,0,0,8,pos
0.094,0.069,0.094,0.079,0.075,0.075,2,neg
0.058,0.214,0.069,0.079,0.075,0.075,16,neu
0.038,0.1,0.4,0.046,0.188,0.071,2,neu
0.038,0.1,0.4,0.046,0.188,0.071,0,neu
0,0,0,0,0,0,0,pos
0,0,0,0,0,0,4,pos
0,0,0,0,0,0,-2,neg
0,0,0,0,0,0,-4,neg
0,0,0,0.046,0.2,0.071,-2,neg
0.022,0.217,0.109,0.046,0.2,0.071,0,neg
0.022,0.217,0.109,0.046,0.2,0.071,0,neg
0,0,0,0,0,0,1,neu
0.25,0.058,0.094,0.356,0.033,0.075,7,pos
0.25,0.058,0.094,0.356,0.033,0.075,-2,pos
0,0,0,0.356,0.033,0.075,8,pos
0.062,0.217,0.188,0.128,0.248,0.08,11,pos
0.375,0.062,0.062,0.128,0.248,0.08,2,neg
0.208,0.111,0.111,0.056,0.128,0.104,12,pos
0.028,0.208,0.069,0.056,0.128,0.104,0,neg
0,0,0,0,0,0,2,neu
0,0,0,0.044,0.238,0.088,12,pos
0.25,0.058,0.094,0.254,0.051,0.095,-7,neg
0.058,0.214,0.069,0.254,0.051,0.095,10,pos
0.069,0.111,0.083,0,0,0,0,pos
0.028,0.208,0.069,0,0,0,0,neu
0,0,0,0,0,0,3,neg
0,0,0,0,0,0,5,neg
0,0,0,0.128,0.248,0.08,0,neg
0.015,0.214,0.214,0.128,0.248,0.08,-2,neg
0.015,0.214,0.214,0.128,0.248,0.08,0,neg
0,0,0,0,0,0,-4,neg
0,0,0,0,0,0,7,neg
0,0,0,0,0,0,1,pos
0,0,0,0,0,0,5,pos
0.25,0.058,0.094,0,0,0,0,pos
0.25,0.058,0.094,0,0,0,14,pos
0,0,0,0,0,0,-4,neg
0,0,0,0,0,0,0,neu
0,0,0,0.254,0.051,0.095,12,pos
0.094,0.069,0.094,0.254,0.051,0.095,2,pos
0.25,0.058,0.094,0.254,0.051,0.095,0,neu
0.194,0.015,0.067,0.356,0.033,0.075,6,pos
0.194,0.015,0.067,0.356,0.033,0.075,8,pos
0,0,0,0.356,0.033,0.075,6,pos
0,0,0,0,0,0,-2,neg
0.194,0.015,0.067,0,0,0,5,pos
0.194,0.015,0.067,0,0,0,4,pos
0,0,0,0,0,0,6,pos
0.094,0.069,0.094,0,0,0,7,pos
0.25,0.058,0.094,0,0,0,0,neu
0.194,0.015,0.067,0.254,0.051,0.095,1,pos
0.194,0.015,0.067,0.254,0.051,0.095,0,pos
0.087,0.109,0.174,0.254,0.051,0.095,8,pos
0.174,0.022,0.087,0.254,0.051,0.095,0,neu
0.094,0.069,0.094,0.254,0.051,0.095,-8,neg
0.058,0.214,0.069,0.254,0.051,0.095,0,neu
0,0,0,0.044,0.238,0.088,3,pos
0,0,0,0,0,0,11,pos
0.25,0.058,0.094,0,0,0,2,neu
0.094,0.069,0.094,0,0,0,16,pos
0.087,0.109,0.174,0.111,0.222,0.111,2,pos
0.174,0.022,0.087,0.111,0.222,0.111,0,neu
0,0,0,0.333,0.051,0.111,0,neu
0,0,0,0,0,0,9,pos
0,0,0,0,0,0,8,pos
0.094,0.069,0.094,0.356,0.033,0.075,2,pos
0.25,0.058,0.094,0.356,0.033,0.075,0,neu
0,0,0,0.356,0.033,0.075,8,pos
0.25,0.058,0.094,0,0,0,4,pos
0.25,0.058,0.094,0,0,0,-1,pos
0,0,0,0,0,0,0,pos
0.094,0.069,0.094,0.088,0.104,0.064,4,pos
0.25,0.058,0.094,0.088,0.104,0.064,0,neu
0,0,0,0.056,0.128,0.104,0,neu
0.154,0.058,0.154,0,0,0,6,pos
0.154,0.058,0.154,0,0,0,0,pos
0.022,0.217,0.109,0,0,0,4,pos
0.174,0.022,0.087,0,0,0,-2,neg
0,0,0,0.333,0.167,0.333,0,pos
0.058,0.214,0.069,0.333,0.167,0.333,2,pos
0.25,0.058,0.094,0.333,0.167,0.333,-4,neg
0,0,0,0,0,0,2,pos
0.058,0.231,0.077,0.044,0.238,0.088,-2,neg
0.058,0.231,0.077,0.044,0.238,0.088,2,neg
0.015,0.358,0.082,0.044,0.238,0.088,0,neg
0.015,0.358,0.082,0.044,0.238,0.088,-4,neg
0,0,0,0,0,0,2,neg
0.094,0.069,0.094,0,0,0,-2,neg
0.058,0.214,0.069,0,0,0,0,neu
0,0,0,0,0,0,0,neu
0,0,0,0.254,0.051,0.095,1,neu
0.154,0.058,0.154,0.095,0.06,0.075,0,neu
0.154,0.077,0.154,0.095,0.06,0.075,12,pos
0.094,0.069,0.094,0,0,0,0,neu
0.094,0.069,0.094,0,0,0,-5,neu
0.208,0.111,0.111,0,0,0,-9,pos
0.028,0.208,0.069,0,0,0,9,neg
