@RELATION EDU_polarity_prediction 

@ATTRIBUTE Conjunction {pos,neg,neu,No}
@ATTRIBUTE Contrast {pos,neg,neu,No}
@ATTRIBUTE Cause {pos,neg,neu,No}
@ATTRIBUTE Condition {pos,neg,neu,No}
@ATTRIBUTE Concession {pos,neg,neu,No}
@ATTRIBUTE afinn_pure NUMERIC
@ATTRIBUTE afinn NUMERIC
@ATTRIBUTE huliu_pure NUMERIC
@ATTRIBUTE huliu NUMERIC
@ATTRIBUTE ofinder_pure NUMERIC
@ATTRIBUTE ofinder NUMERIC
@ATTRIBUTE class {pos,neg,neu}

@DATA 
No,No,No,No,No,0,0,0,0,0,0,neu
No,No,No,No,No,2,0,1,0,1,0,pos
No,No,No,No,No,2,2,1,1,1,1,pos
pos,No,No,No,No,0,0,0,0,1,1,pos
No,No,No,No,No,0,0,0,0,0,0,pos
pos,No,No,No,No,0,0,0,0,0,0,pos
No,No,No,No,No,6,6,3,3,2,3,pos
No,No,No,No,No,1,0,0,0,1,0,neu
No,No,No,No,No,1,0,0,0,0,0,neu
No,No,No,No,No,0,0,1,0,1,0,pos
pos,No,No,No,No,2,0,0,0,0,0,pos
No,No,No,No,No,0,0,1,0,1,0,pos
pos,No,No,No,No,3,3,1,1,1,1,pos
pos,No,No,No,No,3,3,1,1,0,0,pos
pos,No,No,No,No,2,0,1,0,1,0,pos
No,No,No,No,No,5,3,2,1,2,1,pos
No,No,No,No,No,0,0,0,0,-1,0,neu
No,No,No,No,No,0,0,0,0,0,0,pos
No,No,No,No,No,4,1,1,0,2,1,pos
No,No,No,No,No,0,0,0,0,2,2,pos
No,No,No,No,No,5,0,2,0,2,0,pos
No,No,No,No,No,0,0,1,1,1,1,pos
pos,No,No,No,No,4,0,2,1,2,1,pos
No,No,No,No,No,3,3,1,1,1,1,pos
No,No,No,No,No,1,0,1,0,0,0,pos
pos,No,No,No,No,0,0,1,0,1,0,pos
No,No,No,No,No,3,0,1,0,2,1,pos
No,No,No,No,No,0,0,1,0,1,0,pos
No,No,No,No,No,0,0,0,0,0,0,neu
No,No,No,No,No,0,0,0,0,0,0,pos
No,No,No,No,No,0,0,0,0,0,0,neu
No,No,No,No,No,0,0,0,0,0,0,neu
No,No,No,No,No,0,0,1,0,0,-1,pos
pos,No,No,No,No,0,0,2,1,2,1,pos
No,No,No,No,No,3,0,1,0,1,0,pos
No,No,No,No,No,0,0,2,1,2,1,pos
pos,No,No,No,No,0,0,0,0,1,0,pos
No,No,No,No,No,-2,-2,-1,-1,-1,-1,pos
No,No,No,neu,No,0,0,0,0,0,0,neu
No,No,No,No,No,2,0,0,0,1,0,neu
No,No,No,No,No,0,0,0,0,0,0,neu
No,No,No,No,No,0,0,0,0,0,0,pos
No,No,No,No,No,2,2,1,1,2,1,pos
No,No,No,No,No,0,0,0,0,0,0,neu
No,No,neu,No,No,0,0,0,0,0,0,neu
No,No,No,No,No,0,0,1,0,1,0,neu
neu,No,No,No,No,1,1,0,0,-1,-1,neu
neu,No,No,neu,No,0,0,0,0,0,0,neu
No,No,No,No,No,0,0,1,1,1,1,pos
No,No,No,No,No,0,0,0,0,0,0,neu
neu,No,No,No,No,0,0,0,0,1,0,pos
No,No,No,No,No,0,0,0,0,1,1,neu
No,No,No,No,No,0,0,1,0,1,0,pos
No,No,pos,No,No,1,1,1,1,1,1,pos
No,No,pos,pos,No,0,0,0,0,0,0,pos
No,No,No,No,No,0,0,0,0,-1,-1,neu
neu,No,No,No,No,0,0,0,0,0,0,pos
neu,No,No,No,No,3,3,1,1,1,1,pos
No,No,No,No,No,1,0,1,0,2,0,neu
No,neu,No,No,No,3,3,1,1,2,1,pos
No,No,No,No,No,0,0,0,0,1,1,pos
pos,No,No,No,No,4,0,2,0,2,0,pos
No,No,No,No,No,2,2,1,1,0,1,pos
No,No,No,No,No,0,0,0,0,2,2,pos
No,No,pos,No,No,4,4,1,1,1,1,pos
No,No,No,No,No,0,0,0,0,0,0,pos
No,No,No,No,No,2,2,-1,-1,1,1,pos
No,No,No,No,No,-2,0,0,0,0,0,neg
No,No,No,No,No,-3,0,-1,0,0,0,neg
No,neg,No,neu,No,-2,0,0,0,0,0,neg
No,neg,No,No,No,0,0,0,0,0,0,neg
No,neg,No,No,No,0,0,1,0,0,-1,neg
No,neg,No,No,No,0,0,0,0,1,0,neu
No,No,No,No,No,1,0,2,0,4,0,pos
No,No,No,No,No,-1,-1,0,0,0,0,pos
pos,No,No,No,No,2,2,1,1,1,1,pos
No,No,No,No,No,3,3,1,1,2,1,pos
No,No,No,No,No,2,0,0,0,0,0,neg
No,neg,No,No,No,2,2,1,1,3,3,pos
No,neg,No,No,pos,0,0,0,0,0,0,neg
No,No,No,No,No,0,0,0,0,0,0,neu
No,No,No,No,No,0,0,0,0,-1,0,neu
No,No,No,No,No,0,0,-1,-1,-1,-1,neg
No,No,No,No,No,-3,-3,-1,-1,0,0,neg
neg,No,No,No,No,0,0,0,0,0,0,neg
No,No,No,No,No,-3,0,-1,0,-1,0,pos
No,No,No,No,No,4,4,1,1,1,1,pos
No,No,No,No,pos,0,0,0,0,2,1,neu
No,No,No,No,No,0,0,0,0,-1,0,pos
No,No,No,No,No,3,3,1,1,1,1,pos
No,No,No,No,No,3,3,1,1,0,1,pos
No,No,No,No,No,0,0,-1,-1,-1,-1,neg
No,neg,No,No,No,0,0,0,0,0,0,pos
No,No,No,pos,No,0,0,0,0,0,0,neu
No,No,No,No,No,0,0,0,0,1,0,pos
No,No,No,No,No,2,0,2,1,2,1,pos
No,No,No,No,No,0,0,0,0,-1,0,neg
No,No,No,No,No,0,0,0,0,0,0,neg
No,No,No,No,No,0,0,0,0,0,0,neu
No,No,No,neg,No,0,0,0,0,0,0,neu
No,No,No,No,No,-2,-2,-1,-1,0,-2,neg
No,neg,No,No,No,0,0,0,0,1,1,pos
No,No,No,No,No,0,0,0,0,0,0,pos
No,No,No,No,No,0,0,0,0,0,0,pos
pos,No,No,No,No,0,0,-1,0,0,0,pos
No,No,No,No,No,0,0,0,0,0,0,pos
pos,No,No,No,neu,0,0,0,0,-1,0,neu
pos,No,No,No,neu,0,0,0,0,0,0,neu
neu,No,No,No,No,0,0,0,0,0,0,pos
No,No,No,No,No,-2,-2,-1,-1,0,-1,neg
No,neg,No,No,No,2,2,1,1,-1,-1,neu
No,No,No,No,No,3,3,1,1,1,1,pos
No,No,No,No,No,4,4,1,1,2,1,pos
No,pos,No,No,No,0,0,0,0,-1,0,neu
No,No,No,No,No,0,0,-1,0,0,0,pos
No,No,No,No,No,0,0,1,0,1,0,pos
No,No,No,No,No,0,0,0,0,0,0,pos
No,pos,No,No,No,0,0,0,0,0,0,neu
No,No,No,No,No,2,0,0,-1,0,-1,pos
No,No,No,No,No,0,0,0,0,0,0,neu
No,No,No,No,No,0,0,0,0,0,0,neg
No,No,No,No,No,0,0,0,0,0,0,neu
No,No,No,No,No,0,0,0,0,0,0,neu
No,No,No,No,No,4,0,2,0,2,0,pos
No,No,No,No,No,0,0,0,0,0,0,neu
No,No,No,No,No,0,0,2,1,2,1,pos
No,No,No,No,No,0,0,0,0,0,0,neg
No,No,No,No,No,0,0,0,0,0,0,neg
No,No,No,No,No,0,0,0,0,0,0,neg
No,No,No,No,No,0,0,0,0,0,0,pos
No,No,No,No,No,0,0,0,0,0,0,pos
No,No,No,No,No,0,0,0,0,0,0,pos
No,pos,No,No,No,3,3,1,1,0,1,pos
No,No,No,No,No,1,1,0,0,0,0,pos
No,No,No,No,No,0,0,0,0,-1,-1,pos
No,No,No,No,No,0,0,0,0,-1,0,neg
No,No,No,No,No,6,3,2,1,1,0,pos
No,No,pos,No,No,0,0,0,0,1,1,pos
No,No,No,No,No,2,3,2,2,4,3,pos
No,No,No,No,No,2,2,0,0,0,0,pos
No,No,No,No,No,2,2,1,1,2,2,pos
No,No,No,No,No,5,5,1,1,1,1,pos
No,No,No,No,No,0,0,0,0,0,0,pos
No,No,No,No,No,4,4,1,1,1,1,pos
No,No,No,No,No,0,0,1,0,0,0,pos
No,No,No,No,No,5,0,2,0,2,0,pos
No,No,No,No,No,2,0,2,0,1,0,pos
No,No,No,No,No,8,4,3,1,3,1,pos
No,No,No,No,No,3,3,1,1,1,1,pos
No,No,No,No,No,3,3,1,1,2,2,pos
No,No,No,No,No,0,0,0,0,0,0,pos
pos,No,No,No,No,4,4,1,1,1,1,neu
No,No,No,No,No,0,0,0,0,0,0,pos
No,No,No,No,No,3,0,1,0,2,0,pos
No,No,No,No,No,0,0,0,0,0,0,pos
No,No,No,No,No,4,4,1,1,1,1,pos
pos,No,No,No,No,-2,-2,-1,-1,-2,-1,pos
No,No,No,No,No,1,0,0,0,0,0,neu
No,No,No,No,No,0,0,0,0,0,0,neg
No,No,No,No,No,0,0,-1,-1,-1,-1,neu
No,No,No,No,No,0,0,1,1,0,0,pos
pos,No,No,No,No,0,0,0,0,0,0,neu
pos,No,No,No,No,3,3,2,2,2,3,pos
No,No,No,No,No,0,0,0,0,0,0,neg
No,No,neg,No,No,0,0,1,1,0,0,neu
No,No,No,No,No,3,0,1,0,1,0,pos
No,No,No,No,No,0,0,1,1,1,0,pos
No,No,No,No,No,0,0,0,0,0,0,neu
No,No,No,No,No,0,0,0,0,0,0,neu
No,No,No,No,No,0,0,0,0,0,0,pos
pos,No,No,No,No,2,2,2,2,3,3,pos
No,No,No,No,No,0,0,-1,-1,0,0,neg
No,No,neg,No,No,0,0,0,0,0,0,neu
No,No,No,No,No,0,0,-1,-1,0,0,neg
No,No,No,No,No,0,0,0,0,0,0,pos
pos,No,No,No,No,0,0,-1,-1,0,0,neg
pos,No,No,neg,No,0,0,0,0,1,1,neu
No,No,No,No,No,2,0,1,0,1,0,pos
pos,No,No,neg,No,1,1,1,1,0,0,pos
No,No,No,No,No,-1,0,0,0,1,0,neg
No,No,No,neg,No,0,0,0,0,0,0,neu
No,neu,No,No,No,0,0,0,0,-1,0,neu
No,No,No,No,No,4,2,3,2,3,1,pos
No,No,No,No,No,0,0,0,0,0,0,neu
No,No,No,No,No,1,1,1,1,2,1,pos
No,No,No,No,No,4,1,2,1,2,1,pos
No,No,No,No,No,5,3,2,1,2,1,pos
No,No,No,No,No,-2,0,-2,0,-1,0,pos
No,No,No,pos,No,1,0,0,0,1,0,pos
No,No,No,No,No,3,0,1,0,2,0,pos
No,No,No,No,No,2,2,1,1,1,1,pos
No,No,No,No,No,0,0,1,0,1,0,pos
pos,No,No,No,No,0,0,0,0,0,0,pos
No,No,No,No,No,0,0,1,0,0,0,pos
No,pos,No,No,No,0,0,-1,-1,-1,-1,pos
No,No,No,No,No,2,0,1,0,1,0,pos
No,No,No,No,No,0,0,-1,-1,-1,-1,neg
No,neg,No,No,No,0,0,0,0,2,0,neu
No,No,No,No,No,0,0,0,0,0,0,pos
No,No,No,No,No,3,3,0,1,0,1,pos
No,No,No,No,No,0,0,0,0,1,0,pos
No,No,No,No,No,0,0,1,0,1,0,pos
No,No,No,No,No,2,2,1,1,2,2,pos
No,No,No,pos,No,1,1,0,0,1,1,pos
No,No,No,No,No,3,0,2,0,2,0,pos
No,No,No,No,No,0,0,0,0,0,0,pos
No,neg,No,No,No,0,0,0,0,0,0,neu
No,No,No,No,No,0,0,0,0,0,0,neg
No,No,No,No,No,0,0,0,0,0,0,neu
No,No,No,No,No,0,0,0,0,-1,-1,neu
No,neu,No,No,No,0,0,-1,0,0,0,neg
No,No,No,No,No,0,0,0,0,0,0,neu
No,No,neu,No,No,1,1,-1,0,0,0,neg
No,No,No,No,No,0,0,0,0,1,0,neg
No,No,No,No,No,0,0,0,0,1,1,neg
No,No,No,No,No,0,0,0,0,0,0,neg
neg,No,No,No,No,0,0,-1,-1,1,0,neg
No,No,No,No,No,0,0,0,0,0,0,neg
No,No,No,No,neg,0,0,0,0,-1,0,neg
No,No,No,No,No,0,0,0,0,0,0,neg
No,No,No,No,No,0,0,0,0,0,0,neu
neu,No,No,No,No,0,0,0,0,0,0,neg
No,No,No,No,No,-3,0,-1,0,1,0,neg
No,No,No,No,No,0,0,0,0,0,0,neg
No,No,No,No,No,-2,0,-1,0,-1,0,neg
No,No,No,No,No,0,0,1,1,1,1,neg
neg,No,No,No,No,0,0,0,0,-1,-1,neg
No,No,No,No,No,0,0,0,0,0,0,neu
No,No,No,No,No,0,0,-1,0,-1,0,neu
No,No,No,No,No,0,0,-1,-1,-1,-1,pos
No,No,No,No,No,-2,-2,-1,-1,0,0,neg
No,No,No,No,No,-5,-2,-2,-1,-2,-1,neg
No,No,No,No,No,-2,-2,-1,-1,-1,-1,neg
No,No,No,No,No,0,0,0,0,-1,-1,neg
No,No,No,No,No,-1,-1,-1,0,-1,0,neg
No,No,No,No,No,0,0,0,0,1,1,neg
No,No,No,No,No,0,0,1,1,0,0,neg
No,No,No,No,No,0,0,1,1,1,1,neg
No,No,No,No,No,-3,-3,-1,-1,-1,-1,neg
No,No,No,No,No,0,0,0,0,0,0,neg
No,No,No,No,No,-1,-2,-3,-2,-2,-2,neg
No,No,No,No,No,6,3,2,1,2,1,neg
No,neg,No,No,No,3,0,1,0,1,0,pos
No,neg,No,No,No,0,0,0,0,0,0,neg
No,No,No,No,No,0,0,0,0,0,0,neu
No,No,No,No,No,0,0,-1,-1,0,0,neg
No,No,No,No,No,-1,-1,0,0,1,1,neg
neg,No,No,No,No,0,0,-1,-1,2,1,neg
No,No,No,No,No,2,0,1,0,1,0,pos
No,pos,No,No,No,0,0,0,0,0,0,pos
No,No,No,No,No,0,0,-1,-1,-1,-1,neg
No,No,No,No,No,0,0,1,1,1,1,neg
No,No,neg,No,No,0,0,0,0,1,0,neg
No,No,No,No,No,0,0,-2,0,-1,0,neu
neu,No,No,No,No,1,1,0,0,0,0,neu
neu,No,neu,No,No,0,0,-1,-1,-1,-1,neu
No,No,No,No,No,0,0,0,0,0,0,neu
No,No,No,No,No,0,0,0,0,0,0,neg
No,No,No,No,No,0,0,0,0,0,0,neu
neu,No,No,No,No,3,0,1,0,2,1,neg
No,No,No,No,No,2,0,-1,0,1,0,neg
No,No,No,No,No,0,0,0,0,0,0,neg
No,No,No,No,No,0,0,-1,-1,0,0,neg
No,No,No,No,No,3,3,1,1,1,1,pos
No,No,No,No,No,0,0,0,0,0,-1,neg
No,No,No,No,No,0,0,0,0,1,0,neg
No,No,No,No,No,0,0,0,0,0,0,neg
No,No,neg,No,No,0,0,0,0,0,0,neg
No,No,No,No,No,3,3,1,1,1,1,pos
No,pos,No,No,No,-2,-2,-1,-1,-1,-1,neg
No,No,No,No,No,0,0,0,0,0,0,neu
No,No,No,No,No,4,4,1,1,2,2,pos
No,No,No,No,No,1,1,0,0,0,0,pos
No,No,No,No,No,0,0,1,1,0,0,pos
pos,No,No,No,No,0,0,0,0,0,0,pos
No,No,No,No,No,2,2,0,0,1,1,pos
No,No,No,No,No,2,2,1,1,1,1,pos
No,No,No,No,No,3,3,1,1,1,1,pos
pos,No,No,No,No,0,0,0,0,1,0,pos
No,No,No,No,No,3,3,1,1,2,2,pos
No,No,No,No,No,3,0,1,0,1,0,pos
No,No,No,No,No,3,3,1,1,-1,-1,pos
No,No,pos,No,No,3,0,1,0,1,0,pos
No,No,No,No,No,3,3,2,1,1,0,pos
No,No,No,No,No,2,2,1,1,1,1,pos
No,No,No,No,No,0,0,0,0,-1,-1,neu
No,No,No,No,No,0,0,-1,0,-1,0,neg
No,No,No,No,No,3,3,1,1,2,1,pos
No,No,No,No,No,0,0,0,0,0,0,neg
neg,No,No,No,No,0,0,-1,-1,0,0,neg
No,neg,No,No,No,0,0,0,0,0,0,neu
No,No,No,No,No,3,3,1,1,1,1,pos
No,No,No,No,No,0,0,0,0,0,0,neu
neu,No,No,No,No,1,1,1,1,1,1,pos
pos,No,No,No,No,1,0,1,0,1,0,pos
No,No,No,No,No,0,0,-2,-2,-2,-2,neg
No,neg,No,No,No,1,1,1,1,0,1,pos
No,neg,No,No,No,0,0,0,0,0,0,neu
No,neg,neu,No,No,-1,-1,0,0,-1,-1,neu
No,No,No,No,No,0,0,0,0,1,0,pos
No,No,No,No,No,0,0,-1,0,0,0,neu
neu,No,No,No,No,3,3,1,1,1,1,pos
No,No,No,No,No,4,0,1,0,1,0,pos
No,No,No,No,No,0,0,0,0,-1,0,neu
No,No,No,No,No,3,3,1,1,1,1,pos
No,No,No,No,No,0,0,0,0,-1,0,neg
neg,No,No,No,No,2,2,-1,0,0,0,neg
No,No,No,No,No,0,-2,0,-1,0,-1,neu
No,No,No,No,No,2,0,1,0,1,0,pos
No,No,No,No,No,0,0,0,0,0,0,pos
No,No,pos,No,No,0,0,0,0,1,1,pos
No,No,No,No,No,0,0,0,0,2,1,pos
No,No,No,No,No,-2,0,-1,0,-1,0,neu
No,No,No,No,No,3,0,1,0,1,0,pos
No,No,No,No,No,-1,-1,2,0,2,0,pos
No,No,No,No,No,0,0,0,0,-1,0,pos
pos,No,No,No,No,-1,-1,1,1,0,0,pos
No,No,No,No,No,2,2,1,1,1,0,neu
No,No,No,No,No,0,0,1,0,1,0,pos
No,No,No,No,No,0,0,0,0,0,0,neu
No,No,No,No,No,0,0,0,0,1,0,pos
No,No,No,No,No,0,0,0,0,0,0,neu
No,No,No,No,No,0,0,0,0,1,0,neu
No,No,No,No,No,3,0,1,0,1,0,pos
No,No,No,No,No,-2,0,-1,0,0,0,neg
No,No,No,No,No,-2,0,-1,0,-1,0,neg
No,No,No,No,No,3,0,2,0,1,0,pos
No,pos,No,No,No,-1,-1,-1,-1,-1,-1,neg
No,pos,neg,No,No,1,1,1,1,2,1,neu
No,No,No,No,No,0,0,0,0,0,0,neu
No,No,No,No,No,3,3,1,1,1,1,pos
No,No,No,No,No,0,0,0,0,0,0,pos
neg,No,No,No,No,0,0,0,0,0,0,pos
No,No,No,No,No,0,0,-1,-1,-2,-1,neg
neg,No,No,No,No,0,0,0,0,0,0,neg
No,No,No,No,No,0,0,0,0,0,0,neg
No,No,No,No,No,0,0,1,1,1,1,pos
No,No,No,No,No,2,2,1,1,1,1,pos
No,No,No,No,No,2,0,2,1,1,0,neg
No,No,No,No,No,0,0,0,0,0,0,neu
No,No,No,No,No,0,0,0,0,0,0,neu
No,No,No,No,No,0,0,0,0,0,0,neu
No,No,No,No,No,0,0,0,0,0,0,neu
No,No,No,No,No,0,0,0,0,0,0,neu
No,No,neu,No,No,0,0,0,0,0,0,neu
neu,No,neu,No,No,0,0,0,0,0,0,neg
No,No,No,No,No,-3,-3,0,0,0,0,neg
No,No,No,No,No,-2,-2,-1,-1,-1,-1,neg
neg,No,No,No,No,0,0,0,0,0,0,neg
No,No,No,No,No,0,0,-1,0,-1,0,neu
No,neu,No,No,No,0,0,0,0,0,0,neu
No,No,No,No,No,0,0,0,0,0,0,neg
No,No,No,No,No,1,0,1,0,1,0,neu
No,No,No,No,No,0,0,0,0,0,0,neu
No,neu,No,No,No,-1,0,0,1,-1,1,neg
No,neu,No,neg,No,-1,-1,0,-1,0,-1,neu
No,No,No,No,No,0,0,-2,0,-2,0,neg
No,No,No,No,No,0,0,0,0,0,0,neu
No,No,No,No,No,-3,-3,-1,-1,-1,-1,neg
neg,No,No,No,No,0,0,0,0,0,0,neg
No,No,No,No,No,0,0,0,0,0,0,neg
neu,No,No,No,No,0,0,0,0,0,0,neu
No,neu,No,No,No,0,0,0,0,0,0,neu
No,No,No,No,No,-3,-3,-2,-1,-1,-1,neg
No,No,No,No,No,0,0,-1,0,-1,0,neu
No,No,No,No,No,3,3,1,1,1,1,pos
pos,No,No,No,No,0,0,0,0,0,0,pos
No,No,No,No,No,0,0,0,0,0,0, pos
No,No,No,No,No,0,0,0,0,0,0,neg
No,No,No,No,No,0,0,0,0,0,0,neg
No,No,No,No,No,1,1,0,0,0,0,neg
No,No,No,No,No,-1,-1,0,0,0,0,neu
No,No,No,No,No,0,0,0,0,0,0,neg
No,No,No,No,No,0,0,0,0,0,0,neu
No,No,No,No,No,0,0,0,0,0,0,neu
No,No,No,No,No,0,0,-1,0,-1,0,neu
No,No,No,No,No,0,0,0,0,0,0,neg
No,No,No,No,No,-2,0,-1,0,0,0,neu
No,No,No,No,No,-3,-3,-1,-1,-1,-1,neg
No,No,No,No,No,2,2,1,1,1,1,neg
No,No,No,No,No,0,0,1,0,1,0,neu
No,neu,No,No,No,-4,-2,-2,-1,-2,-1,neg
No,No,No,No,No,-1,0,-1,0,0,0,neg
No,No,No,No,No,0,0,0,0,1,0,neg
No,No,No,No,No,0,0,0,0,0,0,neu
No,No,No,No,No,0,0,0,0,0,0,neu
No,pos,No,No,No,3,3,1,1,1,1,pos
No,No,No,No,No,3,0,1,0,1,0,pos
No,pos,No,No,No,0,0,1,1,1,1,neg
No,No,No,No,No,3,3,1,1,1,1,pos
pos,No,No,No,No,0,0,2,1,2,1,pos
No,No,No,No,No,0,0,0,0,0,0,neu
No,No,No,No,No,0,0,0,0,0,0,neu
No,No,No,No,No,3,0,1,0,2,0,neg
No,No,No,No,No,0,0,-1,0,0,1,neg
No,No,No,No,No,-3,-3,0,0,0,0,neg
neg,No,No,No,No,0,0,0,0,-1,0,neg
No,No,No,No,No,0,0,0,0,0,0,neu
No,No,No,No,No,3,0,0,0,2,0,neg
No,No,No,No,No,0,0,0,0,-2,-1,neu
neu,No,No,No,No,-3,0,-1,0,-1,0,neu
No,No,No,No,No,5,3,2,1,2,1,pos
No,No,No,No,No,2,2,1,1,1,1,pos
pos,No,No,No,No,2,2,1,1,1,1,pos
No,No,No,No,No,0,0,0,0,-1,-1,neg
No,No,No,No,No,3,3,3,2,3,2,pos
No,No,No,No,No,5,5,1,1,1,1,pos
No,No,No,No,No,0,0,1,0,1,0,neg
No,pos,No,No,No,0,0,0,0,0,0,neu
neu,No,No,No,No,1,1,0,0,0,0,pos
No,No,No,No,No,3,3,1,1,1,1,pos
No,No,No,No,No,3,0,1,0,0,-1,pos
No,No,No,No,No,3,3,0,0,0,0,neu
No,No,No,No,No,4,4,1,1,1,1,pos
No,No,No,No,No,4,2,1,0,1,0,pos
No,No,No,No,No,0,0,1,1,2,1,pos
No,No,No,No,No,2,2,1,1,0,1,pos
No,No,No,No,No,4,4,1,1,1,1,pos
pos,No,No,No,No,3,3,1,1,1,1,pos
pos,No,No,No,pos,0,0,0,0,1,0,neg
No,No,No,No,No,3,3,1,1,1,1,pos
No,No,No,No,No,0,0,0,0,0,0,pos
No,No,No,No,No,3,3,1,1,0,0,pos
No,No,No,No,No,0,0,0,0,0,0,pos
pos,No,No,No,No,3,0,1,0,1,0,pos
No,No,No,No,No,4,4,2,2,2,2,pos
No,No,No,No,No,-3,0,-2,0,-1,0,neg
No,No,No,No,No,-1,0,0,0,0,0,neg
No,No,No,No,No,0,0,0,0,0,0,neg
No,No,No,No,No,-2,-2,-1,-1,-1,-1,neg
No,No,No,No,No,0,0,0,0,0,0,neg
neg,No,No,No,No,-7,-3,-2,-1,-1,-1,neg
neg,No,neg,No,No,0,0,0,0,0,0,neg
No,No,No,No,No,2,0,-2,0,-1,0,neg
No,No,No,No,No,2,0,1,0,2,0,neu
No,No,No,No,No,0,0,0,0,-1,0,neg
No,No,No,neg,No,0,0,0,0,0,0,neg
No,No,No,No,No,2,2,1,1,1,1,neg
No,No,No,No,No,1,0,1,0,1,0,neg
No,No,No,No,No,0,0,0,0,0,0,neg
No,No,No,No,No,0,0,0,0,0,0,neg
No,No,No,No,No,-2,0,-1,0,-1,1,neu
No,No,No,No,No,0,0,0,0,0,0,neg
No,No,No,No,No,2,2,0,0,0,0,neg
No,No,No,No,No,0,0,0,0,-2,0,neg
No,No,No,No,No,0,0,0,0,0,0,neg
No,No,No,No,No,2,2,1,1,1,1,pos
No,pos,No,No,No,-1,-1,0,0,-1,-1,neg
No,No,No,No,No,0,0,0,0,0,0,neu
No,No,No,No,neg,3,3,1,1,0,1,pos
No,No,No,No,No,0,0,0,0,1,0,neg
No,No,No,No,No,-2,-2,0,0,2,2,neg
No,No,No,No,No,1,0,-1,0,-1,0,neg
No,No,No,No,No,0,0,0,0,0,0,neg
No,No,No,No,No,0,0,1,1,0,0,neu
No,No,No,No,No,0,0,-1,0,-2,0,neg
No,neg,No,No,No,-5,-3,-1,0,-1,0,neg
No,No,No,No,No,1,1,0,0,0,0,neu
No,No,No,No,No,1,1,-1,-1,-1,-1,neg
No,No,No,No,No,0,0,0,0,1,1,neu
No,neu,No,No,No,-2,0,-2,0,-2,0,neg
No,No,No,No,No,0,0,0,0,0,-1,neu
No,No,No,No,No,0,0,2,1,1,0,neu
No,No,No,No,No,0,0,1,0,1,0,pos
No,No,No,No,No,3,3,1,1,1,1,pos
No,No,No,No,No,0,0,0,0,1,0,neu
No,No,No,No,No,2,0,1,0,0,0,neu
No,No,No,No,No,0,0,0,0,0,0,neu
No,No,No,No,No,4,3,2,1,2,1,pos
No,No,No,No,No,-2,-2,0,0,0,0,neu
No,No,No,No,No,0,0,1,0,1,0,pos
No,No,No,No,No,0,0,0,0,0,0,neu
No,neu,No,No,No,2,0,1,0,1,0,neu
No,No,No,No,No,1,0,2,1,3,2,pos
No,No,No,No,No,3,0,1,0,1,0,pos
No,No,No,No,No,0,0,0,0,0,0,neu
No,No,No,No,No,0,0,0,0,-1,-1,neu
No,No,No,No,No,0,0,0,0,0,0,neu
No,pos,No,No,No,2,0,1,0,0,0,pos
pos,No,No,No,No,3,3,1,1,1,1,pos
No,No,No,No,No,0,0,-2,0,0,0,neg
No,No,No,No,No,0,0,-1,-1,0,0,neg
No,No,No,No,No,0,0,1,0,-1,0,neg
No,neg,No,No,No,0,0,0,0,0,0,neu
No,No,No,No,No,0,0,-1,-1,-1,-1,neg
neg,No,No,No,No,0,0,-1,0,0,0,neg
neg,No,No,No,No,-2,0,-1,0,-1,0,neg
neg,No,No,No,No,0,0,0,0,-1,-1,neg
neg,No,No,No,No,0,-1,0,-1,0,-1,neg
No,No,No,No,No,-2,-2,0,0,0,0,neu
No,No,No,No,No,4,0,0,-1,1,-1,neg
No,No,No,No,No,0,0,0,0,0,0,neu
No,No,No,No,No,0,0,0,0,0,0,neu
No,No,No,No,No,-2,0,0,0,0,0,neg
No,No,No,No,No,0,0,0,0,0,0,neg
No,No,No,No,No,3,3,1,1,2,2,pos
No,No,No,neu,No,-2,0,-1,0,-1,0,neu
No,No,No,No,No,-1,0,0,0,0,0,neu
No,No,No,No,No,0,0,1,1,0,0,pos
No,No,No,No,No,3,3,1,1,2,2,pos
pos,No,No,No,No,3,3,1,1,1,1,pos
No,No,No,No,No,1,3,1,1,1,1,pos
No,No,No,No,No,2,2,1,1,1,1,pos
pos,No,No,No,No,0,0,1,1,1,1,pos
No,No,No,No,No,-2,-2,-1,-1,0,0,neg
No,No,No,No,No,0,0,0,0,-1,0,neu
No,No,No,No,No,0,0,1,0,0,0,neu
No,No,No,No,No,0,0,0,0,-1,-1,neu
No,No,No,No,No,0,0,0,0,0,0,pos
No,No,No,No,No,-1,-2,-1,-1,-1,-1,neg
neu,No,pos,No,No,0,0,-1,0,0,0,neg
No,No,No,No,No,0,0,0,0,-1,0,neg
No,No,No,No,No,0,0,0,0,1,0,neu
No,No,neu,No,No,0,0,0,0,0,0,neu
No,No,No,No,No,0,0,0,0,1,1,neu
No,No,No,No,No,3,3,1,1,1,1,pos
No,No,No,No,No,2,0,1,0,1,0,pos
No,No,No,No,No,2,2,1,1,1,1,pos
No,neu,No,No,No,0,0,1,0,1,0,neg
No,neu,No,No,No,4,4,2,2,2,2,neu
No,No,No,No,No,0,0,1,0,1,0,neu
neu,No,No,No,No,0,0,0,0,0,0,neu
No,No,No,No,No,0,0,0,0,0,0,neu
No,No,No,No,No,0,0,-1,0,-1,0,neu
No,No,No,No,No,3,0,1,0,1,0,pos
No,No,No,No,No,1,1,0,0,1,1,pos
No,No,No,No,No,2,2,0,0,1,1,pos
No,No,No,No,No,0,0,0,0,0,0,pos
No,No,No,pos,No,0,0,0,0,0,0,pos
No,No,No,No,No,-1,0,0,0,0,1,pos
No,No,No,No,No,-2,0,-1,0,-1,0,pos
No,No,No,No,No,3,0,1,0,2,0,pos
No,No,No,No,No,0,0,0,0,1,1,pos
No,No,No,No,No,2,1,0,0,1,1,pos
No,No,No,No,No,0,0,0,0,0,0,neu
No,No,No,No,No,0,0,0,0,0,0,neu
neu,No,No,No,No,3,0,1,0,1,0,pos
neu,No,No,No,No,2,2,1,1,-1,-1,pos
neu,No,No,No,No,0,0,0,0,0,-1,neu
No,No,No,No,No,0,0,1,0,1,0,pos
No,No,No,No,No,0,0,1,0,1,0,pos
No,No,No,No,No,0,0,0,0,0,0,pos
pos,No,No,No,No,0,0,0,0,-1,0,pos
No,No,No,No,No,0,0,-1,0,-1,0,neg
neg,No,No,No,No,0,0,0,0,-2,0,neu
No,No,No,No,No,0,0,0,0,0,0,neu
No,No,No,No,No,0,0,0,0,0,0,pos
No,No,No,No,No,-3,-3,-1,-1,-1,-1,neg
No,neg,No,No,No,0,0,0,0,0,0,neu
No,No,No,No,No,2,2,1,1,1,1,pos
No,No,No,No,No,0,0,0,0,0,0,pos
No,No,No,No,No,3,3,1,1,2,1,pos
No,No,No,No,No,3,3,1,1,1,1,pos
No,No,No,No,No,5,5,0,0,3,3,pos
No,No,No,No,No,2,0,1,0,-2,0,pos
No,No,No,No,No,0,0,1,0,1,0,pos
No,pos,No,No,No,-2,-2,-1,-1,-1,-1,neg
No,No,No,No,No,0,0,0,0,0,0,neu
No,No,No,No,No,0,0,0,0,1,0,neu
No,No,neu,No,No,-3,-3,-1,-1,-1,-1,neg
No,No,No,pos,No,6,4,2,1,3,2,neu
No,No,No,No,No,0,0,1,0,1,0,pos
No,No,No,No,No,0,0,0,0,0,0,neu
neu,No,No,No,No,2,0,0,0,0,0,pos
neu,No,No,No,No,0,0,0,0,0,0,neu
No,neu,No,No,No,0,0,0,0,-1,0,neu
No,neu,No,No,No,0,0,0,0,-1,-1,pos
No,neu,pos,No,No,0,0,0,0,0,0,neu
No,neu,No,No,No,3,3,1,1,3,2,pos
No,No,No,No,No,0,0,0,0,0,0,neu
No,No,No,No,No,0,0,-1,0,0,0,neg
No,No,No,No,No,0,0,-1,-1,0,0,neg
No,No,No,No,No,0,0,0,0,0,0,neg
No,No,No,No,No,-3,-1,0,0,0,0,neg
No,No,No,No,No,0,0,0,0,0,0,neg
No,No,No,No,No,0,0,0,0,0,0,neg
No,No,No,No,No,-2,-2,-2,-2,-1,-1,neg
No,No,No,No,No,0,0,0,0,0,0,neg
No,No,No,No,No,0,0,0,0,0,0,neg
No,No,No,No,No,-1,0,0,0,0,0,neu
No,neu,No,No,No,-4,-2,-1,-1,-1,-1,neg
No,No,No,No,No,0,0,0,0,0,0,neu
neu,No,No,No,No,3,0,2,0,2,0,neu
No,No,No,No,No,0,0,-1,-1,0,0,neu
No,No,No,No,No,-1,-1,0,0,0,0,neu
No,No,No,neu,No,0,0,0,0,0,0,neu
No,No,No,neu,No,-3,0,-1,0,0,0,neg
No,No,No,No,No,0,0,-1,-1,-1,-1,neg
No,neg,No,No,No,0,0,1,1,0,0,pos
No,No,No,No,No,0,0,0,0,0,0,neg
No,No,No,No,No,0,0,0,0,0,0,neu
No,No,No,No,No,-1,-1,-1,-1,0,0,neg
No,No,No,No,No,0,0,1,1,2,1,pos
No,No,No,No,No,-1,-1,-1,-1,0,0,neg
No,No,No,No,No,0,0,1,0,1,0,pos
No,pos,No,No,No,2,2,0,0,1,0,neg
No,No,No,No,No,0,0,0,0,0,0,neu
No,No,No,No,No,2,2,1,1,1,1,pos
No,No,No,No,No,0,0,1,0,1,0,neu
No,neu,No,No,No,0,0,0,0,0,0,neg
neg,neu,No,No,No,0,0,-1,0,-1,0,neg
neg,neu,No,No,No,0,0,-1,-1,0,0,neg
neg,No,No,No,No,0,0,0,0,0,0,neg
neg,No,No,No,No,-2,0,0,0,0,0,neg
neg,No,No,No,No,0,0,0,0,0,0,neg
neg,No,No,No,No,-3,0,-4,-1,-3,-1,neg
No,No,No,No,No,0,0,0,0,0,0,neu
No,No,neu,No,No,0,0,0,0,0,0,neu
No,No,No,No,No,0,0,0,0,0,0,neu
No,neu,No,No,No,3,3,1,1,2,1,neu
No,No,No,No,No,3,3,1,1,1,0,neu
No,No,No,No,No,0,0,0,0,0,0,neg
No,No,No,No,No,0,0,0,0,0,0,neg
No,neg,No,No,No,2,0,1,0,1,0,pos
pos,No,No,No,No,0,0,0,0,0,0,neu
pos,No,neu,No,No,-2,-2,-1,-1,0,-1,neg
No,No,No,No,No,0,0,0,0,0,0,neu
No,No,No,No,No,3,3,1,1,1,1,pos
No,No,No,No,No,0,0,0,0,0,0,pos
No,No,No,pos,No,0,0,0,0,0,0,pos
No,No,No,No,No,0,0,0,0,0,0,pos
No,No,No,No,No,-1,0,0,0,0,0,pos
No,No,No,No,No,0,0,0,0,0,0,neu
No,No,No,No,No,-3,0,-1,0,-2,0,neg
neg,No,No,No,No,-1,-1,-1,-1,-2,-1,neg
neg,No,No,No,No,-1,0,-1,0,0,0,neg
No,No,No,No,No,-3,-3,-1,-1,-1,-1,neg
neg,No,No,No,No,3,0,1,0,1,0,pos
No,No,No,No,No,3,0,1,0,1,0,pos
No,No,No,No,No,0,0,-1,0,-1,0,neg
No,No,No,No,No,2,2,2,2,1,1,pos
No,No,No,No,No,0,0,0,0,0,0,neg
No,No,No,No,No,0,0,1,1,0,0,neg
neg,No,No,No,No,0,0,0,0,0,0,neg
neg,No,No,No,No,2,0,1,0,1,0,pos
No,No,No,No,No,0,0,1,0,1,0,pos
pos,No,No,No,No,0,0,0,0,0,0,pos
No,No,No,No,No,0,0,-2,0,-1,-1,pos
No,No,No,No,No,0,0,0,0,-1,0,neg
No,neg,No,No,No,2,2,2,1,3,1,pos
No,No,No,neu,No,1,1,1,0,2,1,neu
No,No,No,No,No,0,0,1,0,2,0,neu
No,No,neu,No,No,3,3,1,1,1,1,neu
neu,No,neu,No,No,0,0,0,0,0,0,neu
neu,neu,neu,No,No,0,0,0,0,0,0,neu
neu,No,No,No,No,4,0,3,0,3,0,pos
No,No,No,No,No,0,0,0,0,-1,-1,neg
No,neg,No,No,No,0,0,0,0,0,0,pos
No,No,No,No,No,3,3,1,1,1,1,pos
No,pos,No,No,No,0,0,-1,-1,-1,-1,neg
No,No,No,No,No,0,0,1,1,0,0,pos
No,No,No,No,No,2,0,1,0,2,1,pos
No,No,No,No,No,1,0,1,0,1,0,pos
pos,No,No,No,No,4,2,2,1,2,1,pos
No,No,No,No,No,0,0,0,0,1,0,neg
No,No,No,No,No,0,0,0,0,0,0,neu
No,No,No,No,No,4,4,3,2,1,0,pos
No,No,No,No,No,-2,0,-1,0,0,0,neu
No,neu,No,No,No,0,0,0,0,1,0,neu
No,No,No,No,No,0,0,0,0,0,0,neu
No,neu,No,No,neu,-2,-2,-2,-1,-2,0,pos
No,No,No,No,No,-2,-2,-1,-1,-1,-1,pos
No,No,No,No,No,1,0,0,0,1,0,pos
No,No,No,No,No,3,3,1,1,1,1,pos
No,No,No,No,No,3,0,2,0,2,0,pos
pos,No,No,No,No,0,0,1,1,2,1,pos
No,No,No,No,No,0,0,0,0,0,0,neu
No,No,No,No,No,-3,0,-1,0,0,0,neg
No,No,No,No,No,0,0,0,0,0,0,neg
No,No,No,No,No,0,0,0,0,0,0,neg
No,No,No,No,No,2,2,1,1,1,1,pos
No,No,No,No,No,-3,0,-1,0,-1,0,neg
No,No,No,No,No,0,0,0,0,1,0,neg
No,No,No,No,No,0,0,0,0,0,0,neu
No,No,No,No,No,0,0,0,0,0,0,neg
No,No,No,No,No,2,0,1,0,1,0,neg
No,No,No,No,No,0,0,0,0,0,0,neg
No,No,No,No,No,0,0,0,0,0,0,neg
No,No,No,No,No,-1,0,-2,-1,0,0,neg
No,No,No,No,No,3,3,1,1,1,1,pos
No,No,No,No,No,6,6,3,3,3,3,pos
No,No,No,No,No,0,0,0,0,0,0,pos
No,No,No,No,No,2,2,1,1,-1,-1,neu
No,No,No,No,No,0,0,0,0,0,0,pos
No,No,No,No,No,-1,-1,0,0,0,0,pos
No,No,No,No,No,0,0,0,0,1,0,neu
No,No,No,No,No,2,2,1,1,1,1,neu
neu,No,No,No,neg,0,0,0,0,0,-1,neu
neu,No,No,No,No,0,0,0,0,0,0,neg
No,No,No,No,No,0,0,0,0,0,0,neg
No,No,No,No,No,0,0,0,0,1,1,neg
No,No,No,No,No,0,0,1,1,0,0,neu
No,No,neu,No,No,0,0,0,0,0,0,neu
No,No,neu,No,neu,1,1,-1,1,2,1,neg
No,No,No,No,No,4,2,2,1,1,0,pos
No,No,No,No,No,0,0,0,0,0,0,neg
No,No,No,No,No,0,0,2,1,2,1,pos
No,No,No,No,No,0,0,0,0,0,0,neg
neg,No,No,No,No,0,0,0,0,-1,0,neg
No,No,No,No,No,3,3,1,1,0,0,pos
No,No,No,No,No,3,3,1,1,1,1,pos
No,No,No,No,No,-1,0,0,0,0,-1,pos
No,No,No,No,No,6,2,3,1,3,1,pos
No,No,No,No,No,0,0,0,0,0,0,pos
No,No,No,No,No,0,0,1,0,1,0,pos
No,No,No,No,No,0,0,0,0,0,0,pos
pos,No,No,No,No,1,1,1,1,2,1,pos
No,No,No,No,No,-3,0,-1,0,-1,0,neg
No,No,No,No,No,2,2,1,1,1,1,pos
No,No,No,No,No,5,3,3,1,3,1,pos
pos,No,No,No,No,2,0,2,1,2,1,pos
No,No,No,No,No,3,0,1,0,0,-1,pos
No,No,No,No,pos,0,0,0,0,-1,0,neu
No,No,No,No,No,2,2,1,1,-1,-1,pos
No,No,No,No,No,0,0,-1,0,-1,0,neu
No,No,No,No,No,2,0,0,0,1,0,neg
No,No,No,No,No,-2,-2,-1,-1,-1,-1,neg
No,No,No,No,No,0,0,0,0,-1,0,neg
No,No,No,No,No,0,0,0,0,0,0,neu
No,No,No,No,No,-2,-2,-1,-1,-2,0,neu
No,No,No,No,No,2,2,2,2,1,1,pos
No,No,No,No,No,0,0,0,0,0,0,pos
No,No,No,No,No,0,0,0,0,1,0,neu
No,No,No,No,No,6,3,3,1,4,1,pos
No,No,No,No,No,0,0,0,0,0,0,neu
No,No,No,No,No,-3,-3,0,0,0,0,pos
No,No,No,No,No,1,0,1,0,1,0,neg
No,No,No,No,No,-3,0,-1,0,-1,0,neg
No,No,No,neg,No,0,0,0,0,1,0,neu
No,No,No,No,No,-1,0,-1,0,-1,0,neu
No,No,No,No,No,0,0,0,0,0,0,neu
No,No,No,No,No,-2,0,0,0,-1,-1,neg
No,pos,No,No,No,0,0,1,0,0,-1,pos
No,No,neg,No,No,0,0,1,1,1,1,pos
No,No,No,No,No,3,3,0,1,0,1,neu
No,No,No,neu,No,2,2,1,1,1,1,neu
No,No,No,neu,No,0,0,0,0,1,0,neg
No,No,No,No,No,0,0,0,0,0,0,neu
No,No,No,No,No,1,1,1,1,1,1,neu
No,No,No,No,No,3,0,1,0,1,0,pos
No,No,No,No,No,3,0,1,0,1,0,pos
No,No,No,No,No,0,0,1,1,1,1,pos
No,No,No,No,No,4,4,1,1,1,1,pos
No,No,No,No,No,2,2,0,0,0,0,pos
No,No,No,No,No,4,2,2,1,2,1,pos
No,No,No,No,No,0,0,0,0,0,0,neg
No,No,No,No,No,-1,1,1,1,1,1,pos
No,pos,No,No,No,-3,-3,-1,-1,-1,-1,neg
No,No,No,No,No,0,0,0,0,0,0,neu
neu,No,No,No,No,-3,-3,-1,-1,-1,-1,neg
No,No,No,No,No,0,0,0,0,0,0,neg
No,No,No,No,No,2,2,1,1,1,1,neg
No,No,No,No,No,-1,-2,-1,-1,-1,-1,neg
No,No,No,No,No,0,0,-2,-2,-1,-1,neg
No,No,No,No,No,-3,0,-1,0,-1,0,neg
No,No,No,No,No,-2,0,-1,0,0,0,neg
neg,No,No,No,No,-2,-2,0,0,-1,-1,neg
No,No,No,No,No,0,0,0,0,0,0,neg
No,No,No,No,No,-2,-2,-1,-1,0,0,neg
No,No,No,No,No,0,0,0,0,0,0,neg
No,No,No,No,No,0,0,0,0,0,0,neg
No,No,No,No,No,0,0,-1,0,-1,0,neg
No,No,No,No,No,4,0,1,0,1,0,pos
No,No,No,No,No,0,0,1,0,1,0,pos
No,No,No,No,No,0,0,1,0,0,0,pos
No,No,No,No,No,-3,-3,0,0,0,0,neg
No,No,No,No,No,0,0,1,0,1,0,neu
No,No,No,No,No,6,6,1,1,1,1,pos
No,pos,No,No,No,0,0,1,0,1,0,pos
No,No,No,No,No,0,0,0,0,0,0,neu
No,No,No,No,No,0,0,0,0,0,0,neu
neu,No,No,No,No,5,0,1,0,3,0,pos
No,No,No,No,No,2,2,1,1,1,1,pos
No,No,No,No,No,0,0,0,0,1,1,pos
No,No,No,No,No,0,0,0,0,0,0,neu
neu,No,No,No,No,1,1,1,1,2,2,pos
No,No,No,No,No,2,0,1,0,1,0,pos
No,No,No,No,No,0,0,-1,0,0,0,pos
No,No,No,No,No,0,0,0,0,0,0,pos
No,No,No,No,No,2,0,1,0,1,0,pos
No,No,No,No,No,0,0,0,0,0,0,neu
No,neu,No,No,No,0,0,0,0,0,0,neu
No,No,No,No,No,4,0,1,0,1,0,pos
No,No,No,No,No,0,0,0,0,0,0,pos
No,No,No,No,No,0,0,1,1,1,1,pos
No,No,No,No,No,-1,0,-1,0,0,0,neg
No,No,No,No,No,0,0,0,0,0,0,pos
No,No,No,No,No,0,0,1,0,1,0,pos
No,No,No,No,No,-2,0,-1,0,-1,0,neg
No,No,No,No,No,1,1,0,0,0,0,pos
No,No,No,No,No,-1,0,-1,0,0,0,neg
No,No,No,No,No,0,0,0,0,1,1,neg
No,No,No,No,No,0,0,0,0,0,0,neg
No,No,neg,No,No,-1,-1,-1,-1,0,0,neg
No,No,No,No,No,0,0,0,0,1,1,neg
neg,No,No,No,No,0,0,-1,0,-1,0,neg
neg,No,No,No,No,0,0,0,0,0,0,neu
neg,No,No,No,No,0,0,0,0,0,0,neu
neg,No,No,No,No,0,0,0,0,1,0,neu
No,No,No,No,No,0,0,0,0,0,0,neu
No,No,No,No,No,3,3,1,1,2,2,pos
No,pos,No,No,No,0,0,0,0,0,0,neu
No,No,No,No,No,-3,0,-1,0,-1,0,neu
No,No,No,No,No,-3,-3,-1,-1,0,-1,pos
No,No,No,No,No,2,2,1,1,2,1,neg
No,No,No,No,No,0,0,0,0,0,0,neu
No,neg,No,No,No,0,0,1,1,1,1,neu
No,No,No,No,No,-3,0,-1,0,-2,0,neg
No,No,No,No,No,3,3,2,2,1,1,pos
No,No,No,No,No,0,0,1,0,1,0,pos
No,No,No,No,No,0,0,1,0,2,0,pos
No,No,No,No,No,2,2,1,1,0,1,pos
No,No,No,No,No,0,0,1,0,1,0,pos
No,No,No,No,No,0,0,1,0,0,0,pos
No,No,No,No,No,0,0,-1,0,0,-1,neg
neg,No,No,No,No,0,0,-1,-1,-1,-1,neg
No,No,No,No,No,-2,0,0,0,-1,0,neg
No,No,No,No,No,1,0,0,0,0,0,neg
No,No,No,No,No,0,0,0,0,0,0,neu
No,No,No,No,No,0,0,-2,-1,-1,0,neg
No,No,No,No,No,5,3,1,1,2,1,pos
No,pos,No,No,No,-1,-1,-3,-1,-2,-1,neg
No,No,No,No,No,-1,0,-1,-1,-3,-2,neg
No,No,No,No,No,2,0,1,0,1,0,neg
No,No,No,No,No,2,2,1,1,1,1,neg
No,No,No,No,No,0,0,0,0,0,0,neu
No,No,No,No,No,3,3,2,1,3,2,pos
No,No,No,No,No,0,0,-1,0,-2,-1,neg
No,No,No,No,neg,1,0,1,0,2,0,neu
No,No,No,No,neg,0,0,0,0,0,0,neg
No,No,No,No,No,-1,1,-1,0,-1,0,neu
No,neu,No,No,No,-1,0,0,0,0,1,neg
No,No,No,No,No,0,0,0,0,0,0,neg
No,No,No,No,No,0,0,0,0,-1,-1,neg
No,No,No,No,No,-2,-2,-1,-1,1,1,neg
No,No,No,No,No,0,0,0,0,1,1,neg
No,No,No,No,No,0,0,0,0,-1,0,neg
No,No,No,No,No,0,0,0,0,-2,-1,neg
No,No,No,No,No,0,0,0,0,1,1,neg
No,No,No,No,No,0,0,0,0,2,0,neg
No,No,No,No,No,0,0,0,0,0,0,neg
No,No,No,No,No,0,0,0,0,0,0,neg
No,neg,No,No,No,0,0,0,0,0,0,neg
No,neg,No,No,No,-2,0,-2,0,-1,0,neg
No,No,No,No,No,0,0,0,0,1,1,neg
No,No,No,No,No,0,0,0,0,0,0,neg
No,No,No,No,No,0,0,0,0,2,1,neg
No,No,No,No,No,0,0,-1,-1,0,0,neg
No,No,No,No,No,0,0,0,0,0,0,neg
No,No,No,No,No,-2,-2,-1,-1,-1,-1,neg
No,No,No,No,No,-2,0,0,0,-2,-1,neg
No,No,No,No,No,0,0,0,0,0,0,neu
No,No,No,No,No,-2,0,-1,0,-1,0,neg
No,No,No,No,No,0,0,1,1,2,1,neg
No,No,No,No,No,0,0,0,0,0,0,neg
No,No,No,No,No,-1,0,-1,-1,0,-1,neg
neg,No,No,No,No,4,2,1,0,2,1,neg
neg,No,No,No,No,0,0,0,0,-1,-1,neg
No,No,No,No,No,0,0,1,1,1,1,neu
No,neu,No,No,No,0,0,0,0,0,0,neg
No,No,No,No,No,0,0,0,0,0,0,neu
No,No,No,No,No,3,0,1,0,0,0,neu
No,No,No,No,No,0,0,0,0,0,0,neg
No,No,No,No,No,0,0,0,0,0,0,neg
neg,No,No,No,No,0,0,0,0,0,0,neg
No,No,No,No,No,-2,0,-1,0,-1,0,neg
neg,No,No,No,No,1,0,0,0,0,0,neg
No,No,No,No,No,0,0,0,0,0,0,neg
No,No,No,No,No,-2,-2,-1,-1,1,0,neg
No,No,No,No,No,-4,-2,-2,0,-2,0,neg
No,No,No,No,No,4,2,2,1,2,1,pos
No,pos,No,No,No,-2,0,-1,0,-1,0,neg
No,No,No,No,No,0,0,0,0,0,0,neg
No,No,No,No,No,2,2,1,0,1,0,neg
No,No,No,No,No,-1,0,-1,0,-1,0,neg
No,No,No,No,No,-1,-1,0,0,-1,-1,neu
No,No,No,No,No,3,0,0,0,0,0, pos
No,No,No,No,No,5,3,2,1,3,1,pos
No,pos,No,No,No,0,-1,0,0,1,1,neg
No,No,No,No,No,0,0,-1,0,2,1,neg
No,No,No,No,No,-3,-3,-1,-1,-1,-1,neg
No,No,No,No,No,-2,-2,0,0,0,0,neg
No,No,No,No,No,0,0,0,0,1,1,neu
No,No,No,No,No,4,4,1,1,1,1,pos
No,No,No,No,No,-3,0,-2,0,-2,0,neg
No,neg,No,No,No,3,3,1,1,1,1,pos
pos,neg,No,No,No,0,0,0,0,0,0,pos
pos,neg,No,No,No,0,0,0,0,0,0,neu
No,No,No,No,No,0,0,1,1,0,1,neg
No,No,No,No,No,0,0,1,1,2,1,neg
No,No,No,No,No,0,0,0,0,0,0,neg
No,No,No,No,No,0,0,-1,-1,0,0,neg
No,No,No,neg,No,0,0,0,0,0,0,neg
No,No,No,No,No,-2,-2,0,0,0,0,neg
No,No,No,No,No,2,0,2,0,3,0,neg
No,neg,No,No,No,-1,0,2,0,0,0,pos
No,No,No,No,No,0,0,2,1,1,1,pos
No,No,No,No,No,0,0,0,0,0,0,pos
No,No,No,No,No,5,3,2,1,2,1,pos
No,No,No,No,No,0,0,-1,0,-2,-1,neg
No,No,No,No,No,0,0,0,0,0,0,neu
No,No,No,No,No,4,3,1,1,2,1,pos
No,No,No,No,No,3,3,1,1,1,1,pos
No,No,No,No,No,3,3,1,1,1,1,pos
No,No,No,No,No,4,4,1,1,1,1,pos
No,No,No,No,No,0,0,0,0,0,0,pos
No,No,No,No,No,0,0,0,0,0,0,neu
No,No,neu,No,No,0,0,1,1,1,1,neu
No,neu,No,No,No,0,0,0,0,0,0,neu
neu,neu,No,No,No,0,0,1,1,0,0,pos
No,No,No,No,No,-1,-1,0,0,0,0,neg
neg,No,No,No,No,0,0,0,0,-1,-1,neg
neg,neg,No,No,No,3,0,1,0,1,0,pos
No,No,No,No,No,0,0,0,0,0,0,neu
No,No,No,No,No,0,0,0,0,-1,0,neg
No,No,No,No,No,0,0,0,0,0,0,neu
No,No,No,No,No,3,0,1,0,1,0,pos
No,No,neu,No,No,0,0,2,1,0,-1,pos
neu,No,No,No,No,0,0,0,0,-1,0,neu
No,No,No,No,No,0,0,0,0,0,0,neu
No,No,No,No,No,0,0,0,0,1,0,neu
No,No,No,No,No,4,4,1,1,1,1,pos
No,No,No,No,No,2,0,1,0,1,0,neu
No,No,No,No,No,0,0,0,0,0,0,neu
No,No,No,No,No,0,0,0,0,0,0,neu
No,No,No,No,No,2,0,1,0,1,0,neu
No,No,No,No,No,0,0,0,0,0,0,neu
No,No,neu,No,No,0,0,1,0,0,-1,pos
No,No,No,No,No,-2,-2,-1,-1,-2,-1,neg
No,No,No,No,No,0,0,-1,-1,-1,-1,neg
No,No,No,No,No,0,0,1,0,0,0,neg
No,No,No,No,No,2,2,1,1,-1,-1,neu
No,neu,No,No,No,0,0,0,0,0,0,neg
neg,neu,No,No,No,-1,0,0,0,-2,-1,neg
neg,neu,neg,No,No,0,0,0,0,0,0,neu
No,No,No,No,No,3,0,1,0,1,0,pos
No,No,pos,No,No,0,0,1,0,0,0,pos
No,No,No,No,No,2,0,1,0,1,0,pos
pos,No,No,No,No,0,0,0,0,0,0,pos
No,No,No,No,No,0,0,0,0,1,1,neg
neg,No,No,No,No,0,0,0,0,-1,0,neg
neg,No,No,No,No,1,0,0,0,0,0,neg
No,No,No,No,No,0,0,0,0,1,0,neg
No,No,No,No,No,0,0,0,0,0,0,neu
No,No,No,No,No,0,0,-1,0,-1,0,neu
No,No,No,No,No,0,0,0,0,1,0,neu
No,No,No,No,No,0,0,0,0,0,0,neg
No,No,No,No,No,0,0,-1,-1,-1,0,neg
No,No,No,No,No,0,0,0,0,0,0,neu
No,neu,No,No,No,0,0,0,0,0,0,neg
No,No,No,No,No,0,0,0,0,0,0,neg
No,No,No,No,No,0,0,0,0,0,0,neu
No,No,neu,No,No,0,0,0,0,0,0,neg
No,No,No,No,No,0,0,0,0,0,0,neg
No,No,No,No,No,0,0,0,0,-1,0,neg
No,No,No,No,neu,0,0,0,0,1,0,neg
No,No,No,No,No,0,0,0,0,0,0,neu
No,No,No,No,No,2,0,0,0,0,0,neu
No,No,neu,No,No,0,0,0,0,0,0,neu
neu,No,neu,No,No,4,4,1,1,2,2,neg
No,No,neu,No,No,0,0,-1,0,-1,0,neg
No,No,No,No,No,6,4,3,1,2,1,neg
No,No,No,No,No,2,0,1,0,1,0,pos
No,No,No,No,No,0,0,1,0,0,0,neg
No,No,No,No,No,-1,-1,0,0,0,1,neu
No,neu,No,No,No,5,5,2,2,2,2,neg
No,No,No,No,No,1,1,0,0,1,0,pos
No,No,No,No,No,0,0,0,0,0,0,pos
No,No,No,No,No,1,0,0,0,1,0,pos
No,No,No,No,No,0,0,1,1,2,1,pos
No,No,No,No,No,2,2,1,1,-1,-1,pos
No,No,pos,No,No,3,3,1,1,1,1,pos
No,No,No,No,No,0,0,1,1,0,0,neu
No,No,No,No,No,5,5,1,1,1,1,pos
No,No,No,No,No,-1,0,0,0,-1,0,pos
No,No,No,No,No,0,0,2,1,1,0,pos
No,No,No,No,No,5,2,3,1,2,1,pos
No,No,No,No,No,-1,-1,0,0,0,0,neg
No,No,No,No,No,-2,0,-1,0,-1,0,neg
neg,No,No,No,No,-1,0,-1,0,-1,0,neg
No,No,No,No,No,0,0,0,0,0,0,neu
No,No,No,No,No,0,0,0,0,1,0,pos
pos,No,No,No,No,-3,0,-1,0,-1,0,pos
No,No,No,No,No,-7,-2,-3,-2,-3,-2,neu
No,No,No,No,No,0,0,0,0,0,0,neg
No,No,No,No,No,0,0,0,0,-1,-1,neg
No,No,No,No,No,0,0,0,0,1,1,neg
No,No,No,No,No,0,0,-1,0,0,0,neg
No,No,No,No,No,0,0,-2,-1,-1,0,neg
No,No,No,No,No,0,0,0,0,0,0,neg
No,No,No,No,No,0,0,0,0,0,0,neg
No,No,No,No,No,-2,0,0,1,1,1,neg
No,No,No,No,No,0,0,0,0,2,2,neg
No,No,No,No,No,-1,-1,-1,-1,-1,-1,neg
No,No,No,No,No,-2,0,-1,0,-1,-1,neg
No,No,No,No,No,0,0,0,0,0,0,neg
No,neg,No,No,No,0,0,0,0,0,0,pos
pos,neg,No,No,No,0,0,0,0,1,0,pos
No,No,No,No,No,0,0,0,0,0,0,neu
No,No,No,No,No,0,0,0,0,0,0,neu
No,No,No,No,No,0,0,0,0,1,1,neu
No,No,No,No,No,-2,-3,0,-1,0,-1,neg
No,No,No,No,No,0,0,0,0,0,0,neu
No,No,No,No,No,0,0,0,0,1,0,pos
No,No,No,No,No,0,0,0,0,0,0,neg
No,No,No,No,No,0,0,0,0,0,0,neg
No,No,No,No,No,2,2,1,1,1,1,pos
No,No,No,No,No,0,0,0,0,0,0,neu
No,No,No,No,No,0,0,0,0,0,0,pos
No,No,No,No,No,2,0,1,0,1,0,neu
No,No,No,No,No,0,0,0,0,0,0,pos
No,No,No,No,No,0,0,0,0,0,0,neu
No,No,pos,No,No,0,0,0,0,0,0,neu
No,No,No,No,No,-3,0,-1,0,-1,0,pos
No,No,No,No,No,-2,0,-1,0,-1,0,neg
No,No,No,No,No,0,0,0,0,0,0,neu
neu,No,No,No,No,2,0,1,0,1,0,pos
neu,No,No,No,No,0,0,0,0,0,0,pos
neu,No,No,No,No,3,0,1,0,1,0,pos
neu,No,No,No,No,3,0,1,0,1,0,pos
pos,No,No,No,No,3,3,1,1,1,1,pos
No,No,No,No,No,-2,-2,-1,-1,-1,-1,neg
No,No,No,No,No,0,0,-2,0,-1,0,neg
No,No,No,No,No,0,0,0,0,0,0,neg
No,No,No,No,No,0,0,0,0,0,0,neg
No,No,No,neg,No,0,0,0,0,0,0,neg
No,No,No,No,No,0,0,0,0,0,0,neg
No,No,No,No,No,2,0,1,0,0,0,neg
No,No,No,No,No,0,0,0,0,0,0,neg
No,No,No,No,No,0,0,0,0,0,0,neg
No,No,No,No,No,-1,0,-1,0,-1,0,neg
No,No,No,No,No,0,0,0,0,0,0,neg
No,No,No,No,No,0,0,0,0,0,0,neg
No,No,No,No,No,0,0,-1,0,0,0,neg
No,No,No,No,No,0,0,-1,-1,0,0,neg
No,No,No,No,No,1,0,-1,-1,0,0,neg
No,No,No,No,No,0,0,0,0,0,0,neg
No,No,No,No,No,-2,-2,-1,-1,-1,-1,neg
No,No,No,No,No,0,0,0,0,0,0,neg
No,No,No,No,No,-2,-2,-1,-1,-1,-1,neg
No,No,No,No,No,0,0,0,0,0,0,neu
No,No,No,No,No,0,0,0,0,1,1,neu
No,No,No,No,No,0,0,0,0,1,0,neu
No,No,No,No,neu,0,0,0,0,1,0,neu
No,No,No,No,No,4,4,1,1,1,1,neu
No,No,No,No,No,0,0,0,0,1,0,neu
No,No,No,No,No,0,0,0,0,0,0,pos
No,No,No,No,No,1,0,2,0,2,0,pos
No,No,No,No,No,0,0,1,1,1,1,pos
No,No,No,No,No,3,3,1,1,1,1,pos
pos,No,No,No,No,6,6,2,2,2,2,pos
No,No,No,No,No,-2,0,-1,0,-1,0,neg
No,No,No,No,No,0,0,0,0,0,0,neu
No,neu,No,No,No,0,0,-1,-1,-1,-1,neg
No,No,No,No,No,1,1,1,1,0,1,neg
No,No,No,No,No,0,0,1,1,1,1,neu
No,No,No,No,No,-2,-2,-1,-1,-1,-1,neg
No,No,No,No,No,0,0,0,0,-1,0,neg
No,No,No,No,No,0,0,-2,0,-1,0,neg
No,No,No,No,No,0,0,-2,-1,-1,0,neg
neg,No,No,No,No,0,0,0,0,0,0,neg
No,No,No,No,No,0,0,0,0,0,0,neu
No,No,No,No,No,-1,-1,0,0,0,0,neg
No,No,No,No,No,0,0,0,0,0,0,neg
No,No,No,No,No,2,2,0,0,1,1,neu
No,No,No,No,No,0,0,0,0,0,0,neu
No,No,No,No,No,0,0,0,0,0,0,neu
No,No,No,No,No,0,0,0,0,0,0,neu
No,No,No,No,No,0,0,0,0,0,0,neu
No,No,No,No,No,0,0,0,0,0,0,neu
No,No,No,No,No,0,0,0,0,0,0,neg
No,No,No,No,No,0,0,0,0,-1,0,neg
No,No,No,No,No,0,0,0,0,1,1,neu
No,No,No,No,No,-2,0,-1,0,-1,0,neu
No,No,No,No,No,1,0,1,0,1,0,pos
No,No,No,No,No,0,0,0,0,0,0,neu
No,neu,No,No,No,0,0,0,0,-1,0,neu
No,neu,No,No,No,0,0,0,0,1,1,neu
neu,No,No,No,No,2,2,1,1,1,1,neu
No,No,No,No,No,0,0,0,0,-1,0,neu
No,No,No,No,No,0,0,0,0,0,0,neu
No,No,No,No,No,-2,0,-1,0,-1,0,neg
No,No,No,No,No,-2,0,-1,0,-1,0,neg
No,No,No,No,No,0,0,0,0,0,0,neu
No,No,No,No,No,0,0,0,0,0,0,neg
neg,No,No,No,No,0,0,0,0,0,0,neg
No,No,No,No,No,0,0,0,0,0,0,neg
No,No,No,No,No,0,0,0,0,0,0,neu
No,No,No,No,No,-3,0,-1,0,-1,0,neg
No,No,No,No,No,0,0,0,0,0,0,neg
No,No,No,No,No,-2,0,-1,0,-1,0,neg
No,No,No,No,No,0,0,0,0,0,0,neg
No,No,No,No,No,0,0,-1,0,-1,0,neg
No,No,No,No,No,3,1,1,0,1,0,neg
No,No,No,No,No,0,0,0,0,0,0,neg
No,No,neg,No,No,0,0,0,0,0,0,neg
No,No,No,No,No,-3,-3,-1,-1,-2,-1,neg
No,No,No,No,No,3,0,1,0,1,0,pos
No,No,No,No,No,0,0,0,0,1,0,pos
No,No,No,No,No,0,0,0,0,-2,0,pos
No,No,No,No,No,3,3,1,1,1,1,pos
No,pos,No,No,No,-3,0,-1,0,-1,0,neg
No,No,No,No,No,2,2,1,1,1,1,pos
pos,No,No,No,No,2,0,1,0,1,0,pos
No,No,No,No,No,0,0,0,0,1,0,pos
No,No,No,No,No,0,0,0,0,0,0,pos
No,No,No,No,No,3,3,1,1,1,1,pos
No,No,No,No,No,1,-2,1,0,1,0,pos
No,No,No,No,No,0,0,0,0,0,0,neu
No,No,No,No,No,0,0,0,0,1,1,pos
No,No,No,No,No,0,0,0,0,-1,0,neu
No,No,No,No,No,0,0,0,0,0,0,neg
No,No,No,neg,No,-2,-2,-1,-1,-3,-3,neg
No,No,No,No,No,0,0,0,0,0,0,neg
No,No,No,No,No,0,0,0,0,0,0,neu
No,No,No,No,No,3,0,0,-1,0,-1,pos
No,No,No,No,No,1,1,1,1,1,1,pos
No,No,No,No,No,0,0,0,0,0,0,neu
No,No,No,No,No,0,0,0,0,0,0,neu
neu,No,No,No,No,0,0,0,0,0,0,neu
No,No,No,No,No,-1,-3,0,-1,0,-1,neg
No,No,No,No,No,0,0,0,0,1,0,neu
No,No,No,No,No,0,0,0,0,0,0,neu
neu,No,No,No,No,-2,-2,-1,-1,-1,-1,neg
neu,No,No,No,No,0,0,0,0,-1,0,neg
neu,No,neg,No,No,0,0,-1,0,-1,0,neu
neu,No,neg,No,No,4,4,1,1,1,1,pos
No,No,No,No,No,0,0,0,0,0,0,neu
No,No,No,neu,No,0,0,-1,0,-2,0,neu
No,No,No,No,No,0,0,0,0,0,0,neu
No,No,No,No,No,-2,-2,-1,-1,-1,-1,neg
No,No,No,No,No,1,1,0,0,1,1,pos
No,pos,No,No,No,0,0,0,0,-1,-1,neg
neg,No,No,No,No,-3,0,-2,-1,-1,0,neg
No,No,No,No,No,0,0,0,0,1,0,neg
No,No,No,No,No,3,3,1,1,1,1,pos
No,No,No,No,No,4,4,1,1,2,2,pos
No,No,No,No,No,2,0,1,0,1,0,pos
No,No,No,No,No,0,0,0,0,0,0,neu
No,No,neu,No,No,0,0,0,0,0,0,neu
No,No,No,No,No,0,0,0,0,0,0,neu
No,No,No,No,No,0,0,0,0,0,0,neu
No,No,No,No,No,6,3,2,1,2,1,pos
No,No,No,No,No,3,0,1,0,1,0,pos
No,No,No,No,No,0,0,0,0,0,0,neu
No,No,No,No,No,6,3,2,1,2,1,pos
No,No,No,No,No,0,0,0,0,0,0,neu
No,No,No,No,No,0,0,0,0,0,0,neu
No,No,No,No,No,6,6,2,2,1,1,pos
No,No,No,No,No,4,1,2,1,2,1,pos
No,No,No,No,No,3,3,1,1,1,1,pos
No,pos,No,No,No,0,0,0,0,-1,0,neg
No,No,No,No,No,0,0,0,0,0,0,neu
No,No,No,No,No,2,3,1,1,2,1,pos
No,No,No,No,No,0,0,-2,0,-2,0,neg
No,No,No,No,No,0,0,0,0,0,0,pos
No,No,No,No,No,0,0,0,0,0,0,pos
No,No,No,No,No,0,0,0,0,0,0,pos
No,No,No,No,No,0,0,0,0,0,0,neu
No,No,No,No,No,4,4,1,1,1,1,pos
No,No,No,No,No,0,0,0,0,0,0,neu
No,No,No,No,No,0,0,0,0,0,0,neu
No,neu,No,No,No,2,2,1,1,1,1,neu
No,No,No,No,No,3,3,1,1,1,1,pos
No,No,No,No,No,3,3,1,1,1,1,pos
pos,No,No,No,No,4,0,2,0,2,0,pos
No,No,No,No,No,2,0,1,0,1,0,pos
No,No,No,No,No,0,0,0,0,0,0,pos
No,No,No,No,No,0,0,0,0,0,0,pos
No,No,No,No,No,3,3,0,0,-1,0,pos
No,No,No,No,No,6,6,3,3,3,3,pos
No,No,No,No,No,2,2,1,1,0,0,pos
No,No,No,No,No,0,0,0,0,0,0,pos
No,No,No,No,No,2,1,2,1,1,-1, pos
No,No,No,No,No,6,6,2,2,2,2,pos
No,No,No,No,No,8,8,2,2,3,2,neu
No,No,No,No,No,3,0,1,0,1,0,pos
No,No,No,No,No,3,3,1,1,1,1,pos
No,No,No,No,No,0,0,0,0,1,0,pos
No,No,No,No,No,4,0,2,0,1,0,pos
No,No,No,No,No,2,0,0,-1,1,-1,pos
No,No,No,No,No,3,3,1,1,1,1,pos
No,No,No,No,No,0,0,1,1,1,1,pos
No,No,No,No,No,3,2,1,1,1,1,pos
pos,No,No,No,No,2,2,1,1,1,1,pos
No,No,No,No,No,3,3,1,1,0,1,pos
No,No,No,No,No,3,3,1,1,2,1,pos
pos,No,No,No,No,3,3,1,1,1,0,pos
No,No,No,No,No,0,0,-1,-1,-1,-1,neu
No,No,No,No,No,-6,-2,-3,-1,-3,-1,neg
No,No,No,No,No,3,0,-1,0,-1,0,pos
No,No,No,No,No,1,1,0,0,0,0,pos
No,No,No,No,No,0,0,0,0,-1,0,neg
No,No,No,No,No,0,0,0,0,0,0,neu
pos,No,No,No,No,-1,-1,-1,-1,-1,-1,neg
No,No,No,No,No,0,0,0,0,0,0,pos
No,pos,No,No,No,0,0,0,0,0,0,neg
pos,pos,No,No,No,0,0,0,0,-1,0,neg
No,pos,No,No,No,-2,-2,0,0,0,0,pos
pos,pos,No,No,No,3,0,1,0,2,1,pos
No,No,No,No,No,0,0,2,2,1,1,neu
No,No,No,No,No,0,0,2,0,2,0,pos
pos,No,No,No,No,3,3,1,1,1,1,pos
No,No,No,No,No,4,2,2,1,0,-1,pos
No,No,No,No,No,-2,-2,-1,-1,-1,-1,pos
No,No,No,No,No,0,0,0,0,0,0,pos
No,No,No,No,No,-1,-1,2,1,2,1,pos
No,No,No,No,No,4,4,1,1,1,1,pos
No,No,No,No,No,4,0,1,0,0,-1,pos
No,No,No,No,No,-2,-2,0,-1,1,0,neg
No,No,No,No,No,1,1,0,0,0,0,neg
No,No,No,No,No,0,0,1,0,1,0,neg
No,No,No,No,No,0,0,1,1,1,1,neg
No,No,No,No,No,0,0,-1,0,-1,0,neg
No,No,No,No,No,3,0,0,0,0,0,neg
No,No,No,No,No,0,0,0,0,2,0,pos
No,No,No,No,No,0,0,-1,0,0,0,neg
No,No,No,No,No,0,0,0,-1,0,-1,neg
No,No,No,No,No,0,0,1,1,1,1,neg
No,No,No,No,No,0,0,-1,0,-1,0,neu
neu,No,No,No,No,0,0,0,0,-1,0,neu
No,No,No,No,No,1,0,0,0,0,0,neu
No,No,No,No,No,-2,0,-1,0,-1,0,neu
No,No,No,No,No,0,0,-1,-1,1,0,neg
No,No,No,No,No,-4,-4,-1,-1,-1,-1,neg
No,No,No,No,No,3,0,1,0,0,0,pos
No,No,No,No,No,0,0,0,0,1,1,neu
pos,No,No,No,No,0,0,0,0,1,1,neu
No,No,No,No,No,0,0,0,0,0,0,neu
No,No,No,No,No,0,0,0,0,0,0,neu
No,pos,No,No,No,2,0,1,0,1,0,pos
No,No,No,No,No,0,0,-1,-1,0,0,neg
No,No,No,No,No,1,2,2,2,1,1,pos
No,No,No,No,No,2,0,1,-1,0,0,pos
No,No,No,No,No,0,0,-1,0,-1,0,neu
No,neu,No,No,No,2,-1,0,-1,0,-1, pos
No,No,No,No,No,-1,0,-1,0,-1,0,neg
No,No,No,No,No,0,0,0,0,0,0,neu
No,No,No,No,No,0,0,-2,-2,-1,-1,neg
No,No,No,No,No,3,0,1,0,1,0,pos
No,No,No,No,No,-1,-1,-1,-1,-1,-1,neg
No,No,No,No,No,0,0,0,0,0,0,neg
No,No,No,No,No,0,0,-1,-1,-1,-1,neg
No,No,No,No,No,0,0,-1,0,-1,0,neg
No,No,No,No,No,2,2,1,1,0,0,neg
No,No,No,No,No,0,0,0,0,0,0,neu
No,No,No,No,No,0,0,0,0,0,0,neg
No,No,No,No,No,-1,-1,0,0,0,0,pos
No,No,No,No,No,0,0,0,0,-1,0,neu
No,No,No,No,No,3,3,1,1,1,1,pos
No,No,No,No,No,0,0,0,0,1,0,neu
No,No,No,No,No,4,0,1,0,1,0,pos
No,pos,No,No,No,-3,0,-1,1,-2,0,neg
No,No,No,No,No,-2,0,-1,0,-2,0,neg
No,No,No,No,No,0,0,0,0,0,0,neu
No,No,No,No,No,4,2,2,1,1,0,pos
No,No,No,No,No,0,0,0,0,0,0,neu
No,No,No,No,No,0,0,0,0,0,0,neu
No,No,No,No,No,3,3,1,1,1,1,neu
No,No,No,No,No,10,7,4,2,5,3,pos
No,No,No,No,No,3,0,1,0,1,0,pos
No,neu,No,No,No,3,3,1,1,1,1,pos
pos,neu,No,No,No,0,0,0,0,1,0,neg
No,No,No,No,No,0,0,0,0,0,0,neu
No,neu,No,No,No,0,0,0,0,1,0,neg
No,neu,No,No,No,0,0,0,0,0,0,neg
No,No,No,No,No,-2,-2,-1,-1,0,0,neg
No,neu,No,No,No,0,0,0,0,0,0,neg
No,neu,No,neg,No,0,0,0,0,0,0,pos
No,No,No,No,No,0,0,0,0,0,0,neu
No,No,No,No,No,0,0,0,0,1,0,neu
No,No,No,No,No,3,3,1,1,1,1,pos
No,No,No,No,No,0,0,0,0,0,0,neu
No,No,No,No,No,0,0,0,0,0,0,neg
No,No,No,No,No,0,0,0,0,0,0,neg
pos,No,No,No,No,0,0,0,0,0,0,neg
No,neg,No,No,No,-3,0,-1,0,-1,0,neg
No,neg,No,No,No,0,0,0,0,1,0,neg
No,neg,No,No,No,0,0,0,0,1,0,neg
No,neg,No,No,No,0,0,0,0,0,0,neu
No,neg,No,No,No,-1,0,0,0,0,0,neg
No,neg,No,No,No,1,1,0,0,0,0,neu
No,neg,No,No,No,3,0,1,0,2,0,pos
No,No,No,No,No,6,6,3,3,3,3,pos
No,neg,No,No,No,5,0,2,0,1,0,pos
No,No,No,No,No,0,0,0,0,0,0,pos
No,No,No,No,No,3,3,1,1,1,1,pos
No,No,No,pos,No,0,0,0,0,0,0,neg
No,No,No,No,No,0,0,0,0,0,0,neg
No,No,No,No,No,0,0,0,0,0,0,neg
No,No,No,No,No,3,3,1,1,2,1,neu
No,No,No,No,No,0,0,0,0,0,0,neg
No,neu,No,No,No,2,2,1,1,1,1,pos
No,No,No,No,No,0,0,0,0,0,0,pos
No,No,No,No,No,0,0,0,0,0,0,neu
No,No,No,No,No,3,0,2,1,2,1,neu
No,No,No,No,No,0,0,0,0,0,0,neu
neu,No,No,No,No,2,2,2,2,1,1,neu
No,No,No,No,No,0,0,0,0,0,0,neu
No,No,No,No,No,0,0,-1,-1,-3,-1,neg
No,No,No,No,No,0,0,0,0,0,0,neu
No,neu,No,No,No,0,0,-1,-1,-1,-1,neg
No,No,No,No,No,-1,-1,-1,-1,0,0,neg
No,No,No,No,No,-2,-2,-1,-1,-1,-2,neg
No,No,No,No,No,0,0,0,0,0,0,neu
No,No,No,No,No,0,0,0,0,0,0,neg
No,No,No,No,No,0,0,0,0,0,0,neg
No,No,No,No,No,0,0,0,0,0,0,neg
No,No,No,No,No,-3,0,-1,0,0,0,neg
No,No,No,No,No,2,0,0,0,1,0,neg
No,No,No,No,No,0,0,0,0,0,0,neg
No,No,No,No,No,-2,0,-2,-1,-2,-1,neg
No,No,No,No,No,0,0,0,0,0,0,neu
No,No,No,No,No,0,0,1,1,0,0,neu
No,No,No,No,No,3,3,1,1,2,1,pos
No,No,No,No,No,0,0,0,0,0,0,pos
No,No,No,No,No,3,3,1,1,1,1,pos
No,No,No,No,No,-1,-1,-1,0,-1,0,neg
No,No,No,No,No,0,0,0,0,-1,0,neg
No,No,No,No,No,-2,-2,-1,-1,-1,-1,neg
No,No,No,No,No,0,0,1,1,0,0,neg
No,No,No,No,No,0,0,0,0,0,0,neg
No,No,No,neg,No,0,0,-1,-1,0,0,neg
No,No,No,No,No,-1,-1,0,0,0,0,pos
No,No,No,No,No,0,0,-1,0,-1,0,neg
No,No,No,No,No,0,0,0,0,0,0,neu
No,No,No,No,No,0,0,0,1,0,0,neu
No,No,No,No,No,0,0,-1,0,-1,0,neg
No,No,No,No,No,0,0,1,1,0,0,neg
No,No,No,No,No,0,0,0,0,0,0,neg
No,No,No,No,No,0,0,0,0,0,0,neu
No,No,No,No,No,3,3,1,1,2,2,pos
No,No,No,No,pos,0,0,0,0,-1,0,neg
No,No,No,No,No,2,0,2,0,2,0,pos
No,No,No,No,No,3,3,1,1,1,1,pos
No,No,No,No,No,3,3,1,1,1,1,pos
No,No,No,No,No,0,0,0,0,0,0,neu
neu,No,No,No,No,0,0,0,0,0,0,neu
No,No,No,No,No,0,0,1,1,1,1,pos
No,No,No,No,No,-3,0,-1,0,0,0,pos
No,No,No,No,No,0,0,0,0,0,0,neu
No,No,No,No,No,0,0,0,0,-1,0,pos
No,No,No,No,No,0,0,0,0,-1,0,neu
No,No,No,No,No,0,0,0,0,0,0,neu
No,No,No,No,No,2,0,1,0,1,0,pos
No,No,No,No,No,0,0,0,0,0,0,neu
No,No,No,No,No,0,0,0,0,-1,0,neu
No,No,No,No,No,0,0,-1,-1,-1,-1,neg
No,No,No,No,No,-3,-3,-1,-1,0,0,neg
neg,No,No,No,No,0,0,0,0,0,0,neg
No,No,No,No,No,-3,0,-1,0,-1,0,pos
No,No,No,No,No,4,4,1,1,1,1,pos
No,No,No,No,pos,0,0,0,0,2,1,neu
No,No,No,No,No,0,0,0,0,-1,0,pos
No,No,No,No,No,3,3,1,1,1,1,pos
No,No,No,No,No,3,3,1,1,0,1,pos
No,No,No,No,No,0,0,-1,-1,-1,-1,neg
No,neg,No,No,No,0,0,0,0,0,0,pos
No,No,No,pos,No,0,0,0,0,0,0,neu
No,No,No,No,No,0,0,0,0,1,0,pos
No,No,No,No,No,2,0,2,1,2,1,pos
No,No,No,No,No,4,4,1,1,1,1,pos
No,No,No,No,No,0,0,1,1,0,0,pos
No,No,No,No,No,0,0,0,0,0,0,neu
No,No,No,No,No,1,1,1,1,1,1,pos
No,No,No,No,No,2,2,1,1,1,1,pos
No,No,No,No,No,0,0,2,1,2,1,pos
No,No,No,No,No,0,0,-1,0,-1,0,neg
No,No,No,No,No,2,0,2,0,1,0,pos
No,No,No,No,No,3,0,1,0,0,0,pos
pos,No,No,No,No,0,0,1,1,2,2,pos
No,No,No,No,No,3,0,2,0,2,0,pos
No,No,No,No,No,0,0,0,0,0,0,neu
No,No,No,No,No,0,0,0,0,1,0,pos
No,No,No,No,No,0,0,0,0,0,0,pos
No,No,No,No,No,3,1,3,1,1,-1,pos
No,No,No,No,No,0,0,0,0,0,0,neu
No,No,No,No,No,-3,-3,0,0,-1,-1,neg
No,No,No,No,No,0,0,0,0,0,0,neu
No,No,No,No,No,1,0,1,0,1,0,pos
No,No,No,No,No,3,2,2,1,2,1,pos
No,No,No,No,No,-3,0,-1,0,-1,0,neg
No,No,No,No,No,0,0,0,0,0,0,neu
No,No,No,No,No,0,0,0,0,0,-1,neg
No,No,No,No,No,2,0,2,1,2,0,pos
No,No,No,No,No,-2,0,-1,0,-1,0,neg
No,No,No,No,No,0,0,-2,-1,-2,-1,neg
neg,No,No,No,No,0,0,-1,-1,0,0,neg
No,No,No,No,No,0,0,0,0,0,0,neg
No,No,No,No,No,1,0,0,-1,1,0,neg
No,No,No,No,No,0,0,1,0,0,0,neg
No,No,No,No,No,0,0,0,0,0,0,neu
No,neu,No,No,No,0,0,0,0,0,0,neu
No,neu,No,No,No,0,0,0,0,0,1,neg
No,neu,No,No,No,0,0,0,0,1,1,neg
No,No,No,No,No,-3,0,-1,0,-1,0,neg
No,No,No,No,No,0,0,0,0,1,0,neg
No,neg,No,No,No,0,0,0,0,0,0,neu
No,No,No,No,No,1,1,1,1,1,1,neg
No,No,No,No,No,0,0,0,0,0,0,neg
No,No,No,No,No,-2,-2,0,0,-1,-1,neu
No,No,No,No,No,0,0,0,0,0,0,neu
neu,No,No,No,No,0,0,0,0,0,0,neu
No,neu,No,No,No,5,3,3,2,3,2,pos
No,No,No,No,No,0,0,-1,-1,-1,0,neu
No,No,No,pos,No,2,0,2,1,-1,0,neg
No,No,No,pos,No,6,6,4,4,3,3,pos
No,No,No,No,No,-4,-4,-1,-1,-1,-1,neg
No,No,No,No,No,0,0,1,1,1,1,neg
No,No,No,No,No,0,0,0,0,-1,0,pos
No,No,No,pos,No,3,3,2,2,0,0,pos
No,No,No,No,No,0,0,0,0,1,0,neu
No,No,No,pos,No,2,2,1,1,1,1,pos
No,No,No,pos,No,0,-2,0,-1,2,-1,pos
No,No,No,No,No,3,0,1,0,0,-1,pos
No,No,No,No,No,4,4,1,1,1,1,pos
No,No,No,No,No,0,0,0,0,1,1,pos
No,No,No,No,No,3,3,1,1,2,1,neu
neu,No,No,No,No,0,0,0,0,0,0,pos
No,No,No,No,No,2,2,1,1,2,2,pos
No,No,No,No,No,0,0,1,1,-1,0,pos
No,No,No,No,No,0,0,0,0,0,0,pos
No,No,No,No,No,0,0,0,0,2,0,pos
No,No,No,No,No,0,0,0,0,-1,0,pos
No,No,No,No,No,0,0,1,0,1,0,pos
pos,No,No,No,No,0,0,-1,-1,0,1,pos
No,No,No,No,No,0,0,0,0,-1,0,neu
No,No,No,No,No,2,2,1,1,1,1,pos
No,No,No,No,No,0,0,0,0,0,0,neu
No,No,No,No,No,0,0,0,0,0,0,neu
No,No,No,No,No,0,0,0,0,0,0,neu
No,No,No,No,No,3,3,1,1,1,1,pos
No,No,No,No,No,0,0,0,0,0,0,pos
No,No,No,No,No,0,0,0,0,0,0,neu
No,No,No,No,No,2,2,1,1,1,1,pos
No,No,No,No,No,0,0,0,0,0,0,neg
No,No,No,No,No,0,0,0,0,1,0,pos
No,No,No,No,No,3,3,1,1,0,0,pos
pos,No,No,No,No,0,0,0,0,0,0,neu
No,No,No,No,No,0,0,0,0,-1,-1,neu
No,No,No,No,No,0,0,0,0,0,0,neg
No,No,No,No,No,0,0,0,0,0,0,neu
neu,No,No,No,No,0,0,0,0,-1,0,neg
No,No,No,No,No,3,3,1,1,1,1,neu
No,No,No,No,No,0,0,0,0,0,0,neu
No,No,No,No,No,2,0,1,0,3,0,neg
No,No,No,No,No,0,0,1,0,1,0,pos
No,No,No,No,No,0,0,0,0,0,0,neg
No,neg,No,No,No,0,0,0,0,0,0,pos
pos,neg,No,No,No,0,0,0,0,0,0,pos
No,No,No,No,No,0,0,0,0,-1,-1,neg
No,No,No,No,No,0,0,0,0,1,0,neu
No,No,No,No,No,0,0,-1,-1,0,1,neg
No,No,No,No,No,2,0,2,0,2,0,neg
No,No,No,No,No,2,0,1,0,1,0,neg
No,No,No,No,No,0,0,0,0,0,0,neg
No,No,No,No,No,0,0,0,0,0,0,neg
No,No,No,No,No,0,0,0,0,0,0,neg
No,No,No,No,No,0,0,-1,0,0,0,neg
No,No,No,No,No,0,0,-2,-1,0,-1,neg
neg,No,No,No,No,0,0,0,0,0,0,neg
No,No,No,No,No,0,0,0,0,0,0,neg
No,No,No,No,No,0,0,0,0,1,0,neu
No,No,No,No,No,3,3,1,1,1,1,pos
No,No,No,No,No,2,2,0,0,-2,-2,pos
No,pos,No,No,No,0,0,0,0,0,0,neu
No,pos,No,No,No,-1,0,0,0,-1,-1,neg
No,No,No,No,No,0,0,0,0,-1,0,neu
No,No,No,No,No,0,0,0,0,0,0,neu
No,No,No,No,No,0,0,0,0,0,0,neu
No,No,No,No,No,0,0,0,0,0,0,neg
No,No,neg,No,No,0,0,0,0,1,0,neg
No,No,No,No,No,0,0,0,0,0,0,neu
neu,No,No,No,No,0,0,0,0,0,0,neu
neu,No,No,No,No,0,0,0,0,0,0,neg
No,No,No,No,No,0,0,0,0,0,1,neu
neu,No,No,No,No,0,0,0,0,3,1,neu
neu,No,No,No,No,0,0,0,0,0,0,neg
No,No,neg,No,No,0,0,0,0,1,0,neu
neu,No,neg,No,No,0,0,0,0,0,0,pos
neu,No,neg,No,No,0,0,1,1,0,0,pos
No,No,No,No,No,3,0,1,0,1,0,pos
No,No,No,No,No,0,0,0,0,-1,0,pos
No,No,No,No,No,-1,0,0,0,0,0,neu
No,No,No,No,No,0,0,0,0,0,0,neu
No,No,No,No,No,0,0,0,0,0,0,neg
No,neg,No,No,No,2,2,1,1,1,1,pos
No,No,No,No,No,0,0,1,1,1,1,neg
No,No,No,No,No,0,0,0,0,0,0,neu
No,No,No,No,No,2,2,1,1,2,2,pos
No,No,No,No,No,2,0,1,0,1,0,pos
pos,No,No,No,No,3,3,1,1,1,1,pos
No,No,No,No,No,3,0,2,1,1,0,pos
No,No,No,No,No,10,10,4,4,4,4,pos
No,No,No,No,No,2,0,1,0,1,0,pos
pos,No,No,No,No,0,0,2,0,0,-2,pos
No,No,No,No,No,0,0,0,0,0,0,pos
No,No,No,No,No,3,3,1,1,1,1,pos
No,No,No,No,No,0,0,0,0,1,0,pos
pos,No,No,No,No,0,0,1,1,1,1,pos
No,No,No,No,No,-3,-4,-2,-2,-2,-2,pos
No,No,No,No,No,0,0,1,1,0,0,pos
No,No,No,No,No,0,0,0,0,0,0,pos
pos,No,No,No,No,-2,0,0,0,0,0,pos
No,No,No,No,No,2,0,1,0,1,0,neu
No,No,No,No,No,0,0,2,0,2,0,neu
No,No,No,No,No,0,0,0,0,0,0,neg
No,No,No,No,neg,0,0,0,0,1,0,pos
No,No,No,No,No,-2,-2,-1,-1,-1,-1,neg
No,No,No,No,No,-2,-2,-1,-1,-1,-1,neg
No,No,No,No,No,0,0,0,0,0,0,neg
No,No,No,No,No,0,0,-2,-2,0,0,neg
No,No,No,No,No,0,0,0,0,0,0,neg
No,No,No,No,No,0,0,0,0,0,0,neg
No,No,No,No,No,0,0,0,0,0,0,neg
No,No,No,No,No,-2,0,0,0,-1,0,neg
No,No,No,No,No,0,0,-1,0,-1,0,neu
neu,No,No,No,No,0,0,0,0,0,0,neu
No,No,No,No,No,0,0,0,0,-1,-1,neu
neu,No,No,No,No,3,3,1,1,0,1,pos
No,No,No,No,No,3,3,1,1,1,1,pos
No,No,No,No,No,0,0,0,0,1,0,pos
No,No,No,No,No,0,0,0,0,0,0,neu
No,No,No,No,No,0,0,0,0,0,0,neu
No,No,No,No,No,0,0,0,0,0,0,neu
No,No,No,No,No,4,4,1,1,1,1,pos
No,No,No,No,No,0,0,0,0,0,0,pos
No,No,No,No,No,3,3,1,1,3,1,neg
No,No,No,No,No,2,4,1,1,2,2,pos
pos,No,No,No,No,3,3,1,1,1,1,pos
No,pos,No,No,No,-2,0,-1,0,-1,0,neg
No,No,No,No,No,-2,0,-1,-1,0,0,neg
No,No,No,No,No,0,0,0,0,0,0,neg
No,No,No,No,No,0,0,0,0,0,-1,neg
neg,No,No,No,No,-2,-2,0,-1,-1,-1,neg
No,No,No,No,No,0,0,0,0,0,0,neu
No,No,No,No,No,0,0,0,0,1,0,neu
No,No,No,No,No,0,0,0,0,0,0,neg
neg,No,No,No,No,0,0,0,0,0,0,neg
neg,No,No,No,No,0,0,0,0,0,0,neg
No,No,No,No,No,2,0,1,0,1,0,neg
No,No,No,No,No,0,0,-1,0,-1,0,neg
No,No,No,No,No,0,0,0,0,0,0,neu
No,No,No,No,No,3,3,1,1,1,1,pos
No,No,No,No,No,0,0,0,0,0,0,neg
No,No,No,No,No,0,0,0,0,0,0,neu
No,No,No,No,No,3,1,1,0,2,0,neg
No,No,No,No,No,0,0,-1,0,-1,0,neu
No,No,No,No,No,0,0,-1,-1,0,0,neg
neg,No,No,No,No,2,2,0,0,0,-1,pos
No,pos,No,No,No,2,2,1,1,1,1,neu
