@RELATION EDU_polarity_prediction 

@ATTRIBUTE Conjunction NUMERIC
@ATTRIBUTE Contrast NUMERIC
@ATTRIBUTE Cause NUMERIC
@ATTRIBUTE Condition NUMERIC
@ATTRIBUTE Concession NUMERIC
@ATTRIBUTE afinn_pure NUMERIC
@ATTRIBUTE afinn NUMERIC
@ATTRIBUTE huliu_pure NUMERIC
@ATTRIBUTE huliu NUMERIC
@ATTRIBUTE ofinder_pure NUMERIC
@ATTRIBUTE ofinder NUMERIC
@ATTRIBUTE class {pos,neg,neu}

@DATA 
0,0,0,0,0,0,0,0,0,0,0,neu
0,0,0,0,0,2,0,1,0,1,0,pos
0,0,0,0,0,2,2,1,1,1,1,pos
1,0,0,0,0,0,0,0,0,1,1,pos
0,0,0,0,0,0,0,0,0,0,0,pos
1,0,0,0,0,0,0,0,0,0,0,pos
0,0,0,0,0,6,6,3,3,2,3,pos
0,0,0,0,0,1,0,0,0,1,0,neu
0,0,0,0,0,1,0,0,0,0,0,neu
0,0,0,0,0,0,0,1,0,1,0,pos
1,0,0,0,0,2,0,0,0,0,0,pos
0,0,0,0,0,0,0,1,0,1,0,pos
1,0,0,0,0,3,3,1,1,1,1,pos
1,0,0,0,0,3,3,1,1,0,0,pos
1,0,0,0,0,2,0,1,0,1,0,pos
0,0,0,0,0,5,3,2,1,2,1,pos
0,0,0,0,0,0,0,0,0,-1,0,neu
0,0,0,0,0,0,0,0,0,0,0,pos
0,0,0,0,0,4,1,1,0,2,1,pos
0,0,0,0,0,0,0,0,0,2,2,pos
0,0,0,0,0,5,0,2,0,2,0,pos
0,0,0,0,0,0,0,1,1,1,1,pos
1,0,0,0,0,4,0,2,1,2,1,pos
0,0,0,0,0,3,3,1,1,1,1,pos
0,0,0,0,0,1,0,1,0,0,0,pos
1,0,0,0,0,0,0,1,0,1,0,pos
0,0,0,0,0,3,0,1,0,2,1,pos
0,0,0,0,0,0,0,1,0,1,0,pos
0,0,0,0,0,0,0,0,0,0,0,neu
0,0,0,0,0,0,0,0,0,0,0,pos
0,0,0,0,0,0,0,0,0,0,0,neu
0,0,0,0,0,0,0,0,0,0,0,neu
0,0,0,0,0,0,0,1,0,0,-1,pos
1,0,0,0,0,0,0,2,1,2,1,pos
0,0,0,0,0,3,0,1,0,1,0,pos
0,0,0,0,0,0,0,2,1,2,1,pos
1,0,0,0,0,0,0,0,0,1,0,pos
0,0,0,0,0,-2,-2,-1,-1,-1,-1,pos
0,0,0,0,0,0,0,0,0,0,0,neu
0,0,0,0,0,2,0,0,0,1,0,neu
0,0,0,0,0,0,0,0,0,0,0,neu
0,0,0,0,0,0,0,0,0,0,0,pos
0,0,0,0,0,2,2,1,1,2,1,pos
0,0,0,0,0,0,0,0,0,0,0,neu
0,0,0,0,0,0,0,0,0,0,0,neu
0,0,0,0,0,0,0,1,0,1,0,neu
0,0,0,0,0,1,1,0,0,-1,-1,neu
0,0,0,0,0,0,0,0,0,0,0,neu
0,0,0,0,0,0,0,1,1,1,1,pos
0,0,0,0,0,0,0,0,0,0,0,neu
0,0,0,0,0,0,0,0,0,1,0,pos
0,0,0,0,0,0,0,0,0,1,1,neu
0,0,0,0,0,0,0,1,0,1,0,pos
0,0,1,0,0,1,1,1,1,1,1,pos
0,0,1,1,0,0,0,0,0,0,0,pos
0,0,0,0,0,0,0,0,0,-1,-1,neu
0,0,0,0,0,0,0,0,0,0,0,pos
0,0,0,0,0,3,3,1,1,1,1,pos
0,0,0,0,0,1,0,1,0,2,0,neu
0,0,0,0,0,3,3,1,1,2,1,pos
0,0,0,0,0,0,0,0,0,1,1,pos
1,0,0,0,0,4,0,2,0,2,0,pos
0,0,0,0,0,2,2,1,1,0,1,pos
0,0,0,0,0,0,0,0,0,2,2,pos
0,0,1,0,0,4,4,1,1,1,1,pos
0,0,0,0,0,0,0,0,0,0,0,pos
0,0,0,0,0,2,2,-1,-1,1,1,pos
0,0,0,0,0,-2,0,0,0,0,0,neg
0,0,0,0,0,-3,0,-1,0,0,0,neg
0,-1,0,0,0,-2,0,0,0,0,0,neg
0,-1,0,0,0,0,0,0,0,0,0,neg
0,-1,0,0,0,0,0,1,0,0,-1,neg
0,-1,0,0,0,0,0,0,0,1,0,neu
0,0,0,0,0,1,0,2,0,4,0,pos
0,0,0,0,0,-1,-1,0,0,0,0,pos
1,0,0,0,0,2,2,1,1,1,1,pos
0,0,0,0,0,3,3,1,1,2,1,pos
0,0,0,0,0,2,0,0,0,0,0,neg
0,-1,0,0,0,2,2,1,1,3,3,pos
0,-1,0,0,1,0,0,0,0,0,0,neg
0,0,0,0,0,0,0,0,0,0,0,neu
0,0,0,0,0,0,0,0,0,-1,0,neu
0,0,0,0,0,0,0,-1,-1,-1,-1,neg
0,0,0,0,0,-3,-3,-1,-1,0,0,neg
-1,0,0,0,0,0,0,0,0,0,0,neg
0,0,0,0,0,-3,0,-1,0,-1,0,pos
0,0,0,0,0,4,4,1,1,1,1,pos
0,0,0,0,1,0,0,0,0,2,1,neu
0,0,0,0,0,0,0,0,0,-1,0,pos
0,0,0,0,0,3,3,1,1,1,1,pos
0,0,0,0,0,3,3,1,1,0,1,pos
0,0,0,0,0,0,0,-1,-1,-1,-1,neg
0,-1,0,0,0,0,0,0,0,0,0,pos
0,0,0,1,0,0,0,0,0,0,0,neu
0,0,0,0,0,0,0,0,0,1,0,pos
0,0,0,0,0,2,0,2,1,2,1,pos
0,0,0,0,0,0,0,0,0,-1,0,neg
0,0,0,0,0,0,0,0,0,0,0,neg
0,0,0,0,0,0,0,0,0,0,0,neu
0,0,0,-1,0,0,0,0,0,0,0,neu
0,0,0,0,0,-2,-2,-1,-1,0,-2,neg
0,-1,0,0,0,0,0,0,0,1,1,pos
0,0,0,0,0,0,0,0,0,0,0,pos
0,0,0,0,0,0,0,0,0,0,0,pos
1,0,0,0,0,0,0,-1,0,0,0,pos
0,0,0,0,0,0,0,0,0,0,0,pos
1,0,0,0,0,0,0,0,0,-1,0,neu
1,0,0,0,0,0,0,0,0,0,0,neu
0,0,0,0,0,0,0,0,0,0,0,pos
0,0,0,0,0,-2,-2,-1,-1,0,-1,neg
0,-1,0,0,0,2,2,1,1,-1,-1,neu
0,0,0,0,0,3,3,1,1,1,1,pos
0,0,0,0,0,4,4,1,1,2,1,pos
0,1,0,0,0,0,0,0,0,-1,0,neu
0,0,0,0,0,0,0,-1,0,0,0,pos
0,0,0,0,0,0,0,1,0,1,0,pos
0,0,0,0,0,0,0,0,0,0,0,pos
0,1,0,0,0,0,0,0,0,0,0,neu
0,0,0,0,0,2,0,0,-1,0,-1,pos
0,0,0,0,0,0,0,0,0,0,0,neu
0,0,0,0,0,0,0,0,0,0,0,neg
0,0,0,0,0,0,0,0,0,0,0,neu
0,0,0,0,0,0,0,0,0,0,0,neu
0,0,0,0,0,4,0,2,0,2,0,pos
0,0,0,0,0,0,0,0,0,0,0,neu
0,0,0,0,0,0,0,2,1,2,1,pos
0,0,0,0,0,0,0,0,0,0,0,neg
0,0,0,0,0,0,0,0,0,0,0,neg
0,0,0,0,0,0,0,0,0,0,0,neg
0,0,0,0,0,0,0,0,0,0,0,pos
0,0,0,0,0,0,0,0,0,0,0,pos
0,0,0,0,0,0,0,0,0,0,0,pos
0,1,0,0,0,3,3,1,1,0,1,pos
0,0,0,0,0,1,1,0,0,0,0,pos
0,0,0,0,0,0,0,0,0,-1,-1,pos
0,0,0,0,0,0,0,0,0,-1,0,neg
0,0,0,0,0,6,3,2,1,1,0,pos
0,0,1,0,0,0,0,0,0,1,1,pos
0,0,0,0,0,2,3,2,2,4,3,pos
0,0,0,0,0,2,2,0,0,0,0,pos
0,0,0,0,0,2,2,1,1,2,2,pos
0,0,0,0,0,5,5,1,1,1,1,pos
0,0,0,0,0,0,0,0,0,0,0,pos
0,0,0,0,0,4,4,1,1,1,1,pos
0,0,0,0,0,0,0,1,0,0,0,pos
0,0,0,0,0,5,0,2,0,2,0,pos
0,0,0,0,0,2,0,2,0,1,0,pos
0,0,0,0,0,8,4,3,1,3,1,pos
0,0,0,0,0,3,3,1,1,1,1,pos
0,0,0,0,0,3,3,1,1,2,2,pos
0,0,0,0,0,0,0,0,0,0,0,pos
1,0,0,0,0,4,4,1,1,1,1,neu
0,0,0,0,0,0,0,0,0,0,0,pos
0,0,0,0,0,3,0,1,0,2,0,pos
0,0,0,0,0,0,0,0,0,0,0,pos
0,0,0,0,0,4,4,1,1,1,1,pos
1,0,0,0,0,-2,-2,-1,-1,-2,-1,pos
0,0,0,0,0,1,0,0,0,0,0,neu
0,0,0,0,0,0,0,0,0,0,0,neg
0,0,0,0,0,0,0,-1,-1,-1,-1,neu
0,0,0,0,0,0,0,1,1,0,0,pos
1,0,0,0,0,0,0,0,0,0,0,neu
1,0,0,0,0,3,3,2,2,2,3,pos
0,0,0,0,0,0,0,0,0,0,0,neg
0,0,-1,0,0,0,0,1,1,0,0,neu
0,0,0,0,0,3,0,1,0,1,0,pos
0,0,0,0,0,0,0,1,1,1,0,pos
0,0,0,0,0,0,0,0,0,0,0,neu
0,0,0,0,0,0,0,0,0,0,0,neu
0,0,0,0,0,0,0,0,0,0,0,pos
1,0,0,0,0,2,2,2,2,3,3,pos
0,0,0,0,0,0,0,-1,-1,0,0,neg
0,0,-1,0,0,0,0,0,0,0,0,neu
0,0,0,0,0,0,0,-1,-1,0,0,neg
0,0,0,0,0,0,0,0,0,0,0,pos
1,0,0,0,0,0,0,-1,-1,0,0,neg
1,0,0,-1,0,0,0,0,0,1,1,neu
0,0,0,0,0,2,0,1,0,1,0,pos
1,0,0,-1,0,1,1,1,1,0,0,pos
0,0,0,0,0,-1,0,0,0,1,0,neg
0,0,0,-1,0,0,0,0,0,0,0,neu
0,0,0,0,0,0,0,0,0,-1,0,neu
0,0,0,0,0,4,2,3,2,3,1,pos
0,0,0,0,0,0,0,0,0,0,0,neu
0,0,0,0,0,1,1,1,1,2,1,pos
0,0,0,0,0,4,1,2,1,2,1,pos
0,0,0,0,0,5,3,2,1,2,1,pos
0,0,0,0,0,-2,0,-2,0,-1,0,pos
0,0,0,1,0,1,0,0,0,1,0,pos
0,0,0,0,0,3,0,1,0,2,0,pos
0,0,0,0,0,2,2,1,1,1,1,pos
0,0,0,0,0,0,0,1,0,1,0,pos
1,0,0,0,0,0,0,0,0,0,0,pos
0,0,0,0,0,0,0,1,0,0,0,pos
0,1,0,0,0,0,0,-1,-1,-1,-1,pos
0,0,0,0,0,2,0,1,0,1,0,pos
0,0,0,0,0,0,0,-1,-1,-1,-1,neg
0,-1,0,0,0,0,0,0,0,2,0,neu
0,0,0,0,0,0,0,0,0,0,0,pos
0,0,0,0,0,3,3,0,1,0,1,pos
0,0,0,0,0,0,0,0,0,1,0,pos
0,0,0,0,0,0,0,1,0,1,0,pos
0,0,0,0,0,2,2,1,1,2,2,pos
0,0,0,1,0,1,1,0,0,1,1,pos
0,0,0,0,0,3,0,2,0,2,0,pos
0,0,0,0,0,0,0,0,0,0,0,pos
0,-1,0,0,0,0,0,0,0,0,0,neu
0,0,0,0,0,0,0,0,0,0,0,neg
0,0,0,0,0,0,0,0,0,0,0,neu
0,0,0,0,0,0,0,0,0,-1,-1,neu
0,0,0,0,0,0,0,-1,0,0,0,neg
0,0,0,0,0,0,0,0,0,0,0,neu
0,0,0,0,0,1,1,-1,0,0,0,neg
0,0,0,0,0,0,0,0,0,1,0,neg
0,0,0,0,0,0,0,0,0,1,1,neg
0,0,0,0,0,0,0,0,0,0,0,neg
-1,0,0,0,0,0,0,-1,-1,1,0,neg
0,0,0,0,0,0,0,0,0,0,0,neg
0,0,0,0,-1,0,0,0,0,-1,0,neg
0,0,0,0,0,0,0,0,0,0,0,neg
0,0,0,0,0,0,0,0,0,0,0,neu
0,0,0,0,0,0,0,0,0,0,0,neg
0,0,0,0,0,-3,0,-1,0,1,0,neg
0,0,0,0,0,0,0,0,0,0,0,neg
0,0,0,0,0,-2,0,-1,0,-1,0,neg
0,0,0,0,0,0,0,1,1,1,1,neg
-1,0,0,0,0,0,0,0,0,-1,-1,neg
0,0,0,0,0,0,0,0,0,0,0,neu
0,0,0,0,0,0,0,-1,0,-1,0,neu
0,0,0,0,0,0,0,-1,-1,-1,-1,pos
0,0,0,0,0,-2,-2,-1,-1,0,0,neg
0,0,0,0,0,-5,-2,-2,-1,-2,-1,neg
0,0,0,0,0,-2,-2,-1,-1,-1,-1,neg
0,0,0,0,0,0,0,0,0,-1,-1,neg
0,0,0,0,0,-1,-1,-1,0,-1,0,neg
0,0,0,0,0,0,0,0,0,1,1,neg
0,0,0,0,0,0,0,1,1,0,0,neg
0,0,0,0,0,0,0,1,1,1,1,neg
0,0,0,0,0,-3,-3,-1,-1,-1,-1,neg
0,0,0,0,0,0,0,0,0,0,0,neg
0,0,0,0,0,-1,-2,-3,-2,-2,-2,neg
0,0,0,0,0,6,3,2,1,2,1,neg
0,-1,0,0,0,3,0,1,0,1,0,pos
0,-1,0,0,0,0,0,0,0,0,0,neg
0,0,0,0,0,0,0,0,0,0,0,neu
0,0,0,0,0,0,0,-1,-1,0,0,neg
0,0,0,0,0,-1,-1,0,0,1,1,neg
-1,0,0,0,0,0,0,-1,-1,2,1,neg
0,0,0,0,0,2,0,1,0,1,0,pos
0,1,0,0,0,0,0,0,0,0,0,pos
0,0,0,0,0,0,0,-1,-1,-1,-1,neg
0,0,0,0,0,0,0,1,1,1,1,neg
0,0,-1,0,0,0,0,0,0,1,0,neg
0,0,0,0,0,0,0,-2,0,-1,0,neu
0,0,0,0,0,1,1,0,0,0,0,neu
0,0,0,0,0,0,0,-1,-1,-1,-1,neu
0,0,0,0,0,0,0,0,0,0,0,neu
0,0,0,0,0,0,0,0,0,0,0,neg
0,0,0,0,0,0,0,0,0,0,0,neu
0,0,0,0,0,3,0,1,0,2,1,neg
0,0,0,0,0,2,0,-1,0,1,0,neg
0,0,0,0,0,0,0,0,0,0,0,neg
0,0,0,0,0,0,0,-1,-1,0,0,neg
0,0,0,0,0,3,3,1,1,1,1,pos
0,0,0,0,0,0,0,0,0,0,-1,neg
0,0,0,0,0,0,0,0,0,1,0,neg
0,0,0,0,0,0,0,0,0,0,0,neg
0,0,-1,0,0,0,0,0,0,0,0,neg
0,0,0,0,0,3,3,1,1,1,1,pos
0,1,0,0,0,-2,-2,-1,-1,-1,-1,neg
0,0,0,0,0,0,0,0,0,0,0,neu
0,0,0,0,0,4,4,1,1,2,2,pos
0,0,0,0,0,1,1,0,0,0,0,pos
0,0,0,0,0,0,0,1,1,0,0,pos
1,0,0,0,0,0,0,0,0,0,0,pos
0,0,0,0,0,2,2,0,0,1,1,pos
0,0,0,0,0,2,2,1,1,1,1,pos
0,0,0,0,0,3,3,1,1,1,1,pos
1,0,0,0,0,0,0,0,0,1,0,pos
0,0,0,0,0,3,3,1,1,2,2,pos
0,0,0,0,0,3,0,1,0,1,0,pos
0,0,0,0,0,3,3,1,1,-1,-1,pos
0,0,1,0,0,3,0,1,0,1,0,pos
0,0,0,0,0,3,3,2,1,1,0,pos
0,0,0,0,0,2,2,1,1,1,1,pos
0,0,0,0,0,0,0,0,0,-1,-1,neu
0,0,0,0,0,0,0,-1,0,-1,0,neg
0,0,0,0,0,3,3,1,1,2,1,pos
0,0,0,0,0,0,0,0,0,0,0,neg
-1,0,0,0,0,0,0,-1,-1,0,0,neg
0,-1,0,0,0,0,0,0,0,0,0,neu
0,0,0,0,0,3,3,1,1,1,1,pos
0,0,0,0,0,0,0,0,0,0,0,neu
0,0,0,0,0,1,1,1,1,1,1,pos
1,0,0,0,0,1,0,1,0,1,0,pos
0,0,0,0,0,0,0,-2,-2,-2,-2,neg
0,-1,0,0,0,1,1,1,1,0,1,pos
0,-1,0,0,0,0,0,0,0,0,0,neu
0,-1,0,0,0,-1,-1,0,0,-1,-1,neu
0,0,0,0,0,0,0,0,0,1,0,pos
0,0,0,0,0,0,0,-1,0,0,0,neu
0,0,0,0,0,3,3,1,1,1,1,pos
0,0,0,0,0,4,0,1,0,1,0,pos
0,0,0,0,0,0,0,0,0,-1,0,neu
0,0,0,0,0,3,3,1,1,1,1,pos
0,0,0,0,0,0,0,0,0,-1,0,neg
-1,0,0,0,0,2,2,-1,0,0,0,neg
0,0,0,0,0,0,-2,0,-1,0,-1,neu
0,0,0,0,0,2,0,1,0,1,0,pos
0,0,0,0,0,0,0,0,0,0,0,pos
0,0,1,0,0,0,0,0,0,1,1,pos
0,0,0,0,0,0,0,0,0,2,1,pos
0,0,0,0,0,-2,0,-1,0,-1,0,neu
0,0,0,0,0,3,0,1,0,1,0,pos
0,0,0,0,0,-1,-1,2,0,2,0,pos
0,0,0,0,0,0,0,0,0,-1,0,pos
1,0,0,0,0,-1,-1,1,1,0,0,pos
0,0,0,0,0,2,2,1,1,1,0,neu
0,0,0,0,0,0,0,1,0,1,0,pos
0,0,0,0,0,0,0,0,0,0,0,neu
0,0,0,0,0,0,0,0,0,1,0,pos
0,0,0,0,0,0,0,0,0,0,0,neu
0,0,0,0,0,0,0,0,0,1,0,neu
0,0,0,0,0,3,0,1,0,1,0,pos
0,0,0,0,0,-2,0,-1,0,0,0,neg
0,0,0,0,0,-2,0,-1,0,-1,0,neg
0,0,0,0,0,3,0,2,0,1,0,pos
0,1,0,0,0,-1,-1,-1,-1,-1,-1,neg
0,1,-1,0,0,1,1,1,1,2,1,neu
0,0,0,0,0,0,0,0,0,0,0,neu
0,0,0,0,0,3,3,1,1,1,1,pos
0,0,0,0,0,0,0,0,0,0,0,pos
-1,0,0,0,0,0,0,0,0,0,0,pos
0,0,0,0,0,0,0,-1,-1,-2,-1,neg
-1,0,0,0,0,0,0,0,0,0,0,neg
0,0,0,0,0,0,0,0,0,0,0,neg
0,0,0,0,0,0,0,1,1,1,1,pos
0,0,0,0,0,2,2,1,1,1,1,pos
0,0,0,0,0,2,0,2,1,1,0,neg
0,0,0,0,0,0,0,0,0,0,0,neu
0,0,0,0,0,0,0,0,0,0,0,neu
0,0,0,0,0,0,0,0,0,0,0,neu
0,0,0,0,0,0,0,0,0,0,0,neu
0,0,0,0,0,0,0,0,0,0,0,neu
0,0,0,0,0,0,0,0,0,0,0,neu
0,0,0,0,0,0,0,0,0,0,0,neg
0,0,0,0,0,-3,-3,0,0,0,0,neg
0,0,0,0,0,-2,-2,-1,-1,-1,-1,neg
-1,0,0,0,0,0,0,0,0,0,0,neg
0,0,0,0,0,0,0,-1,0,-1,0,neu
0,0,0,0,0,0,0,0,0,0,0,neu
0,0,0,0,0,0,0,0,0,0,0,neg
0,0,0,0,0,1,0,1,0,1,0,neu
0,0,0,0,0,0,0,0,0,0,0,neu
0,0,0,0,0,-1,0,0,1,-1,1,neg
0,0,0,-1,0,-1,-1,0,-1,0,-1,neu
0,0,0,0,0,0,0,-2,0,-2,0,neg
0,0,0,0,0,0,0,0,0,0,0,neu
0,0,0,0,0,-3,-3,-1,-1,-1,-1,neg
-1,0,0,0,0,0,0,0,0,0,0,neg
0,0,0,0,0,0,0,0,0,0,0,neg
0,0,0,0,0,0,0,0,0,0,0,neu
0,0,0,0,0,0,0,0,0,0,0,neu
0,0,0,0,0,-3,-3,-2,-1,-1,-1,neg
0,0,0,0,0,0,0,-1,0,-1,0,neu
0,0,0,0,0,3,3,1,1,1,1,pos
1,0,0,0,0,0,0,0,0,0,0,pos
0,0,0,0,0,0,0,0,0,0,0, pos
0,0,0,0,0,0,0,0,0,0,0,neg
0,0,0,0,0,0,0,0,0,0,0,neg
0,0,0,0,0,1,1,0,0,0,0,neg
0,0,0,0,0,-1,-1,0,0,0,0,neu
0,0,0,0,0,0,0,0,0,0,0,neg
0,0,0,0,0,0,0,0,0,0,0,neu
0,0,0,0,0,0,0,0,0,0,0,neu
0,0,0,0,0,0,0,-1,0,-1,0,neu
0,0,0,0,0,0,0,0,0,0,0,neg
0,0,0,0,0,-2,0,-1,0,0,0,neu
0,0,0,0,0,-3,-3,-1,-1,-1,-1,neg
0,0,0,0,0,2,2,1,1,1,1,neg
0,0,0,0,0,0,0,1,0,1,0,neu
0,0,0,0,0,-4,-2,-2,-1,-2,-1,neg
0,0,0,0,0,-1,0,-1,0,0,0,neg
0,0,0,0,0,0,0,0,0,1,0,neg
0,0,0,0,0,0,0,0,0,0,0,neu
0,0,0,0,0,0,0,0,0,0,0,neu
0,1,0,0,0,3,3,1,1,1,1,pos
0,0,0,0,0,3,0,1,0,1,0,pos
0,1,0,0,0,0,0,1,1,1,1,neg
0,0,0,0,0,3,3,1,1,1,1,pos
1,0,0,0,0,0,0,2,1,2,1,pos
0,0,0,0,0,0,0,0,0,0,0,neu
0,0,0,0,0,0,0,0,0,0,0,neu
0,0,0,0,0,3,0,1,0,2,0,neg
0,0,0,0,0,0,0,-1,0,0,1,neg
0,0,0,0,0,-3,-3,0,0,0,0,neg
-1,0,0,0,0,0,0,0,0,-1,0,neg
0,0,0,0,0,0,0,0,0,0,0,neu
0,0,0,0,0,3,0,0,0,2,0,neg
0,0,0,0,0,0,0,0,0,-2,-1,neu
0,0,0,0,0,-3,0,-1,0,-1,0,neu
0,0,0,0,0,5,3,2,1,2,1,pos
0,0,0,0,0,2,2,1,1,1,1,pos
1,0,0,0,0,2,2,1,1,1,1,pos
0,0,0,0,0,0,0,0,0,-1,-1,neg
0,0,0,0,0,3,3,3,2,3,2,pos
0,0,0,0,0,5,5,1,1,1,1,pos
0,0,0,0,0,0,0,1,0,1,0,neg
0,1,0,0,0,0,0,0,0,0,0,neu
0,0,0,0,0,1,1,0,0,0,0,pos
0,0,0,0,0,3,3,1,1,1,1,pos
0,0,0,0,0,3,0,1,0,0,-1,pos
0,0,0,0,0,3,3,0,0,0,0,neu
0,0,0,0,0,4,4,1,1,1,1,pos
0,0,0,0,0,4,2,1,0,1,0,pos
0,0,0,0,0,0,0,1,1,2,1,pos
0,0,0,0,0,2,2,1,1,0,1,pos
0,0,0,0,0,4,4,1,1,1,1,pos
1,0,0,0,0,3,3,1,1,1,1,pos
1,0,0,0,1,0,0,0,0,1,0,neg
0,0,0,0,0,3,3,1,1,1,1,pos
0,0,0,0,0,0,0,0,0,0,0,pos
0,0,0,0,0,3,3,1,1,0,0,pos
0,0,0,0,0,0,0,0,0,0,0,pos
1,0,0,0,0,3,0,1,0,1,0,pos
0,0,0,0,0,4,4,2,2,2,2,pos
0,0,0,0,0,-3,0,-2,0,-1,0,neg
0,0,0,0,0,-1,0,0,0,0,0,neg
0,0,0,0,0,0,0,0,0,0,0,neg
0,0,0,0,0,-2,-2,-1,-1,-1,-1,neg
0,0,0,0,0,0,0,0,0,0,0,neg
-1,0,0,0,0,-7,-3,-2,-1,-1,-1,neg
-1,0,-1,0,0,0,0,0,0,0,0,neg
0,0,0,0,0,2,0,-2,0,-1,0,neg
0,0,0,0,0,2,0,1,0,2,0,neu
0,0,0,0,0,0,0,0,0,-1,0,neg
0,0,0,-1,0,0,0,0,0,0,0,neg
0,0,0,0,0,2,2,1,1,1,1,neg
0,0,0,0,0,1,0,1,0,1,0,neg
0,0,0,0,0,0,0,0,0,0,0,neg
0,0,0,0,0,0,0,0,0,0,0,neg
0,0,0,0,0,-2,0,-1,0,-1,1,neu
0,0,0,0,0,0,0,0,0,0,0,neg
0,0,0,0,0,2,2,0,0,0,0,neg
0,0,0,0,0,0,0,0,0,-2,0,neg
0,0,0,0,0,0,0,0,0,0,0,neg
0,0,0,0,0,2,2,1,1,1,1,pos
0,1,0,0,0,-1,-1,0,0,-1,-1,neg
0,0,0,0,0,0,0,0,0,0,0,neu
0,0,0,0,-1,3,3,1,1,0,1,pos
0,0,0,0,0,0,0,0,0,1,0,neg
0,0,0,0,0,-2,-2,0,0,2,2,neg
0,0,0,0,0,1,0,-1,0,-1,0,neg
0,0,0,0,0,0,0,0,0,0,0,neg
0,0,0,0,0,0,0,1,1,0,0,neu
0,0,0,0,0,0,0,-1,0,-2,0,neg
0,-1,0,0,0,-5,-3,-1,0,-1,0,neg
0,0,0,0,0,1,1,0,0,0,0,neu
0,0,0,0,0,1,1,-1,-1,-1,-1,neg
0,0,0,0,0,0,0,0,0,1,1,neu
0,0,0,0,0,-2,0,-2,0,-2,0,neg
0,0,0,0,0,0,0,0,0,0,-1,neu
0,0,0,0,0,0,0,2,1,1,0,neu
0,0,0,0,0,0,0,1,0,1,0,pos
0,0,0,0,0,3,3,1,1,1,1,pos
0,0,0,0,0,0,0,0,0,1,0,neu
0,0,0,0,0,2,0,1,0,0,0,neu
0,0,0,0,0,0,0,0,0,0,0,neu
0,0,0,0,0,4,3,2,1,2,1,pos
0,0,0,0,0,-2,-2,0,0,0,0,neu
0,0,0,0,0,0,0,1,0,1,0,pos
0,0,0,0,0,0,0,0,0,0,0,neu
0,0,0,0,0,2,0,1,0,1,0,neu
0,0,0,0,0,1,0,2,1,3,2,pos
0,0,0,0,0,3,0,1,0,1,0,pos
0,0,0,0,0,0,0,0,0,0,0,neu
0,0,0,0,0,0,0,0,0,-1,-1,neu
0,0,0,0,0,0,0,0,0,0,0,neu
0,1,0,0,0,2,0,1,0,0,0,pos
1,0,0,0,0,3,3,1,1,1,1,pos
0,0,0,0,0,0,0,-2,0,0,0,neg
0,0,0,0,0,0,0,-1,-1,0,0,neg
0,0,0,0,0,0,0,1,0,-1,0,neg
0,-1,0,0,0,0,0,0,0,0,0,neu
0,0,0,0,0,0,0,-1,-1,-1,-1,neg
-1,0,0,0,0,0,0,-1,0,0,0,neg
-1,0,0,0,0,-2,0,-1,0,-1,0,neg
-1,0,0,0,0,0,0,0,0,-1,-1,neg
-1,0,0,0,0,0,-1,0,-1,0,-1,neg
0,0,0,0,0,-2,-2,0,0,0,0,neu
0,0,0,0,0,4,0,0,-1,1,-1,neg
0,0,0,0,0,0,0,0,0,0,0,neu
0,0,0,0,0,0,0,0,0,0,0,neu
0,0,0,0,0,-2,0,0,0,0,0,neg
0,0,0,0,0,0,0,0,0,0,0,neg
0,0,0,0,0,3,3,1,1,2,2,pos
0,0,0,0,0,-2,0,-1,0,-1,0,neu
0,0,0,0,0,-1,0,0,0,0,0,neu
0,0,0,0,0,0,0,1,1,0,0,pos
0,0,0,0,0,3,3,1,1,2,2,pos
1,0,0,0,0,3,3,1,1,1,1,pos
0,0,0,0,0,1,3,1,1,1,1,pos
0,0,0,0,0,2,2,1,1,1,1,pos
1,0,0,0,0,0,0,1,1,1,1,pos
0,0,0,0,0,-2,-2,-1,-1,0,0,neg
0,0,0,0,0,0,0,0,0,-1,0,neu
0,0,0,0,0,0,0,1,0,0,0,neu
0,0,0,0,0,0,0,0,0,-1,-1,neu
0,0,0,0,0,0,0,0,0,0,0,pos
0,0,0,0,0,-1,-2,-1,-1,-1,-1,neg
0,0,1,0,0,0,0,-1,0,0,0,neg
0,0,0,0,0,0,0,0,0,-1,0,neg
0,0,0,0,0,0,0,0,0,1,0,neu
0,0,0,0,0,0,0,0,0,0,0,neu
0,0,0,0,0,0,0,0,0,1,1,neu
0,0,0,0,0,3,3,1,1,1,1,pos
0,0,0,0,0,2,0,1,0,1,0,pos
0,0,0,0,0,2,2,1,1,1,1,pos
0,0,0,0,0,0,0,1,0,1,0,neg
0,0,0,0,0,4,4,2,2,2,2,neu
0,0,0,0,0,0,0,1,0,1,0,neu
0,0,0,0,0,0,0,0,0,0,0,neu
0,0,0,0,0,0,0,0,0,0,0,neu
0,0,0,0,0,0,0,-1,0,-1,0,neu
0,0,0,0,0,3,0,1,0,1,0,pos
0,0,0,0,0,1,1,0,0,1,1,pos
0,0,0,0,0,2,2,0,0,1,1,pos
0,0,0,0,0,0,0,0,0,0,0,pos
0,0,0,1,0,0,0,0,0,0,0,pos
0,0,0,0,0,-1,0,0,0,0,1,pos
0,0,0,0,0,-2,0,-1,0,-1,0,pos
0,0,0,0,0,3,0,1,0,2,0,pos
0,0,0,0,0,0,0,0,0,1,1,pos
0,0,0,0,0,2,1,0,0,1,1,pos
0,0,0,0,0,0,0,0,0,0,0,neu
0,0,0,0,0,0,0,0,0,0,0,neu
0,0,0,0,0,3,0,1,0,1,0,pos
0,0,0,0,0,2,2,1,1,-1,-1,pos
0,0,0,0,0,0,0,0,0,0,-1,neu
0,0,0,0,0,0,0,1,0,1,0,pos
0,0,0,0,0,0,0,1,0,1,0,pos
0,0,0,0,0,0,0,0,0,0,0,pos
1,0,0,0,0,0,0,0,0,-1,0,pos
0,0,0,0,0,0,0,-1,0,-1,0,neg
-1,0,0,0,0,0,0,0,0,-2,0,neu
0,0,0,0,0,0,0,0,0,0,0,neu
0,0,0,0,0,0,0,0,0,0,0,pos
0,0,0,0,0,-3,-3,-1,-1,-1,-1,neg
0,-1,0,0,0,0,0,0,0,0,0,neu
0,0,0,0,0,2,2,1,1,1,1,pos
0,0,0,0,0,0,0,0,0,0,0,pos
0,0,0,0,0,3,3,1,1,2,1,pos
0,0,0,0,0,3,3,1,1,1,1,pos
0,0,0,0,0,5,5,0,0,3,3,pos
0,0,0,0,0,2,0,1,0,-2,0,pos
0,0,0,0,0,0,0,1,0,1,0,pos
0,1,0,0,0,-2,-2,-1,-1,-1,-1,neg
0,0,0,0,0,0,0,0,0,0,0,neu
0,0,0,0,0,0,0,0,0,1,0,neu
0,0,0,0,0,-3,-3,-1,-1,-1,-1,neg
0,0,0,1,0,6,4,2,1,3,2,neu
0,0,0,0,0,0,0,1,0,1,0,pos
0,0,0,0,0,0,0,0,0,0,0,neu
0,0,0,0,0,2,0,0,0,0,0,pos
0,0,0,0,0,0,0,0,0,0,0,neu
0,0,0,0,0,0,0,0,0,-1,0,neu
0,0,0,0,0,0,0,0,0,-1,-1,pos
0,0,1,0,0,0,0,0,0,0,0,neu
0,0,0,0,0,3,3,1,1,3,2,pos
0,0,0,0,0,0,0,0,0,0,0,neu
0,0,0,0,0,0,0,-1,0,0,0,neg
0,0,0,0,0,0,0,-1,-1,0,0,neg
0,0,0,0,0,0,0,0,0,0,0,neg
0,0,0,0,0,-3,-1,0,0,0,0,neg
0,0,0,0,0,0,0,0,0,0,0,neg
0,0,0,0,0,0,0,0,0,0,0,neg
0,0,0,0,0,-2,-2,-2,-2,-1,-1,neg
0,0,0,0,0,0,0,0,0,0,0,neg
0,0,0,0,0,0,0,0,0,0,0,neg
0,0,0,0,0,-1,0,0,0,0,0,neu
0,0,0,0,0,-4,-2,-1,-1,-1,-1,neg
0,0,0,0,0,0,0,0,0,0,0,neu
0,0,0,0,0,3,0,2,0,2,0,neu
0,0,0,0,0,0,0,-1,-1,0,0,neu
0,0,0,0,0,-1,-1,0,0,0,0,neu
0,0,0,0,0,0,0,0,0,0,0,neu
0,0,0,0,0,-3,0,-1,0,0,0,neg
0,0,0,0,0,0,0,-1,-1,-1,-1,neg
0,-1,0,0,0,0,0,1,1,0,0,pos
0,0,0,0,0,0,0,0,0,0,0,neg
0,0,0,0,0,0,0,0,0,0,0,neu
0,0,0,0,0,-1,-1,-1,-1,0,0,neg
0,0,0,0,0,0,0,1,1,2,1,pos
0,0,0,0,0,-1,-1,-1,-1,0,0,neg
0,0,0,0,0,0,0,1,0,1,0,pos
0,1,0,0,0,2,2,0,0,1,0,neg
0,0,0,0,0,0,0,0,0,0,0,neu
0,0,0,0,0,2,2,1,1,1,1,pos
0,0,0,0,0,0,0,1,0,1,0,neu
0,0,0,0,0,0,0,0,0,0,0,neg
-1,0,0,0,0,0,0,-1,0,-1,0,neg
-1,0,0,0,0,0,0,-1,-1,0,0,neg
-1,0,0,0,0,0,0,0,0,0,0,neg
-1,0,0,0,0,-2,0,0,0,0,0,neg
-1,0,0,0,0,0,0,0,0,0,0,neg
-1,0,0,0,0,-3,0,-4,-1,-3,-1,neg
0,0,0,0,0,0,0,0,0,0,0,neu
0,0,0,0,0,0,0,0,0,0,0,neu
0,0,0,0,0,0,0,0,0,0,0,neu
0,0,0,0,0,3,3,1,1,2,1,neu
0,0,0,0,0,3,3,1,1,1,0,neu
0,0,0,0,0,0,0,0,0,0,0,neg
0,0,0,0,0,0,0,0,0,0,0,neg
0,-1,0,0,0,2,0,1,0,1,0,pos
1,0,0,0,0,0,0,0,0,0,0,neu
1,0,0,0,0,-2,-2,-1,-1,0,-1,neg
0,0,0,0,0,0,0,0,0,0,0,neu
0,0,0,0,0,3,3,1,1,1,1,pos
0,0,0,0,0,0,0,0,0,0,0,pos
0,0,0,1,0,0,0,0,0,0,0,pos
0,0,0,0,0,0,0,0,0,0,0,pos
0,0,0,0,0,-1,0,0,0,0,0,pos
0,0,0,0,0,0,0,0,0,0,0,neu
0,0,0,0,0,-3,0,-1,0,-2,0,neg
-1,0,0,0,0,-1,-1,-1,-1,-2,-1,neg
-1,0,0,0,0,-1,0,-1,0,0,0,neg
0,0,0,0,0,-3,-3,-1,-1,-1,-1,neg
-1,0,0,0,0,3,0,1,0,1,0,pos
0,0,0,0,0,3,0,1,0,1,0,pos
0,0,0,0,0,0,0,-1,0,-1,0,neg
0,0,0,0,0,2,2,2,2,1,1,pos
0,0,0,0,0,0,0,0,0,0,0,neg
0,0,0,0,0,0,0,1,1,0,0,neg
-1,0,0,0,0,0,0,0,0,0,0,neg
-1,0,0,0,0,2,0,1,0,1,0,pos
0,0,0,0,0,0,0,1,0,1,0,pos
1,0,0,0,0,0,0,0,0,0,0,pos
0,0,0,0,0,0,0,-2,0,-1,-1,pos
0,0,0,0,0,0,0,0,0,-1,0,neg
0,-1,0,0,0,2,2,2,1,3,1,pos
0,0,0,0,0,1,1,1,0,2,1,neu
0,0,0,0,0,0,0,1,0,2,0,neu
0,0,0,0,0,3,3,1,1,1,1,neu
0,0,0,0,0,0,0,0,0,0,0,neu
0,0,0,0,0,0,0,0,0,0,0,neu
0,0,0,0,0,4,0,3,0,3,0,pos
0,0,0,0,0,0,0,0,0,-1,-1,neg
0,-1,0,0,0,0,0,0,0,0,0,pos
0,0,0,0,0,3,3,1,1,1,1,pos
0,1,0,0,0,0,0,-1,-1,-1,-1,neg
0,0,0,0,0,0,0,1,1,0,0,pos
0,0,0,0,0,2,0,1,0,2,1,pos
0,0,0,0,0,1,0,1,0,1,0,pos
1,0,0,0,0,4,2,2,1,2,1,pos
0,0,0,0,0,0,0,0,0,1,0,neg
0,0,0,0,0,0,0,0,0,0,0,neu
0,0,0,0,0,4,4,3,2,1,0,pos
0,0,0,0,0,-2,0,-1,0,0,0,neu
0,0,0,0,0,0,0,0,0,1,0,neu
0,0,0,0,0,0,0,0,0,0,0,neu
0,0,0,0,0,-2,-2,-2,-1,-2,0,pos
0,0,0,0,0,-2,-2,-1,-1,-1,-1,pos
0,0,0,0,0,1,0,0,0,1,0,pos
0,0,0,0,0,3,3,1,1,1,1,pos
0,0,0,0,0,3,0,2,0,2,0,pos
1,0,0,0,0,0,0,1,1,2,1,pos
0,0,0,0,0,0,0,0,0,0,0,neu
0,0,0,0,0,-3,0,-1,0,0,0,neg
0,0,0,0,0,0,0,0,0,0,0,neg
0,0,0,0,0,0,0,0,0,0,0,neg
0,0,0,0,0,2,2,1,1,1,1,pos
0,0,0,0,0,-3,0,-1,0,-1,0,neg
0,0,0,0,0,0,0,0,0,1,0,neg
0,0,0,0,0,0,0,0,0,0,0,neu
0,0,0,0,0,0,0,0,0,0,0,neg
0,0,0,0,0,2,0,1,0,1,0,neg
0,0,0,0,0,0,0,0,0,0,0,neg
0,0,0,0,0,0,0,0,0,0,0,neg
0,0,0,0,0,-1,0,-2,-1,0,0,neg
0,0,0,0,0,3,3,1,1,1,1,pos
0,0,0,0,0,6,6,3,3,3,3,pos
0,0,0,0,0,0,0,0,0,0,0,pos
0,0,0,0,0,2,2,1,1,-1,-1,neu
0,0,0,0,0,0,0,0,0,0,0,pos
0,0,0,0,0,-1,-1,0,0,0,0,pos
0,0,0,0,0,0,0,0,0,1,0,neu
0,0,0,0,0,2,2,1,1,1,1,neu
0,0,0,0,-1,0,0,0,0,0,-1,neu
0,0,0,0,0,0,0,0,0,0,0,neg
0,0,0,0,0,0,0,0,0,0,0,neg
0,0,0,0,0,0,0,0,0,1,1,neg
0,0,0,0,0,0,0,1,1,0,0,neu
0,0,0,0,0,0,0,0,0,0,0,neu
0,0,0,0,0,1,1,-1,1,2,1,neg
0,0,0,0,0,4,2,2,1,1,0,pos
0,0,0,0,0,0,0,0,0,0,0,neg
0,0,0,0,0,0,0,2,1,2,1,pos
0,0,0,0,0,0,0,0,0,0,0,neg
-1,0,0,0,0,0,0,0,0,-1,0,neg
0,0,0,0,0,3,3,1,1,0,0,pos
0,0,0,0,0,3,3,1,1,1,1,pos
0,0,0,0,0,-1,0,0,0,0,-1,pos
0,0,0,0,0,6,2,3,1,3,1,pos
0,0,0,0,0,0,0,0,0,0,0,pos
0,0,0,0,0,0,0,1,0,1,0,pos
0,0,0,0,0,0,0,0,0,0,0,pos
1,0,0,0,0,1,1,1,1,2,1,pos
0,0,0,0,0,-3,0,-1,0,-1,0,neg
0,0,0,0,0,2,2,1,1,1,1,pos
0,0,0,0,0,5,3,3,1,3,1,pos
1,0,0,0,0,2,0,2,1,2,1,pos
0,0,0,0,0,3,0,1,0,0,-1,pos
0,0,0,0,1,0,0,0,0,-1,0,neu
0,0,0,0,0,2,2,1,1,-1,-1,pos
0,0,0,0,0,0,0,-1,0,-1,0,neu
0,0,0,0,0,2,0,0,0,1,0,neg
0,0,0,0,0,-2,-2,-1,-1,-1,-1,neg
0,0,0,0,0,0,0,0,0,-1,0,neg
0,0,0,0,0,0,0,0,0,0,0,neu
0,0,0,0,0,-2,-2,-1,-1,-2,0,neu
0,0,0,0,0,2,2,2,2,1,1,pos
0,0,0,0,0,0,0,0,0,0,0,pos
0,0,0,0,0,0,0,0,0,1,0,neu
0,0,0,0,0,6,3,3,1,4,1,pos
0,0,0,0,0,0,0,0,0,0,0,neu
0,0,0,0,0,-3,-3,0,0,0,0,pos
0,0,0,0,0,1,0,1,0,1,0,neg
0,0,0,0,0,-3,0,-1,0,-1,0,neg
0,0,0,-1,0,0,0,0,0,1,0,neu
0,0,0,0,0,-1,0,-1,0,-1,0,neu
0,0,0,0,0,0,0,0,0,0,0,neu
0,0,0,0,0,-2,0,0,0,-1,-1,neg
0,1,0,0,0,0,0,1,0,0,-1,pos
0,0,-1,0,0,0,0,1,1,1,1,pos
0,0,0,0,0,3,3,0,1,0,1,neu
0,0,0,0,0,2,2,1,1,1,1,neu
0,0,0,0,0,0,0,0,0,1,0,neg
0,0,0,0,0,0,0,0,0,0,0,neu
0,0,0,0,0,1,1,1,1,1,1,neu
0,0,0,0,0,3,0,1,0,1,0,pos
0,0,0,0,0,3,0,1,0,1,0,pos
0,0,0,0,0,0,0,1,1,1,1,pos
0,0,0,0,0,4,4,1,1,1,1,pos
0,0,0,0,0,2,2,0,0,0,0,pos
0,0,0,0,0,4,2,2,1,2,1,pos
0,0,0,0,0,0,0,0,0,0,0,neg
0,0,0,0,0,-1,1,1,1,1,1,pos
0,1,0,0,0,-3,-3,-1,-1,-1,-1,neg
0,0,0,0,0,0,0,0,0,0,0,neu
0,0,0,0,0,-3,-3,-1,-1,-1,-1,neg
0,0,0,0,0,0,0,0,0,0,0,neg
0,0,0,0,0,2,2,1,1,1,1,neg
0,0,0,0,0,-1,-2,-1,-1,-1,-1,neg
0,0,0,0,0,0,0,-2,-2,-1,-1,neg
0,0,0,0,0,-3,0,-1,0,-1,0,neg
0,0,0,0,0,-2,0,-1,0,0,0,neg
-1,0,0,0,0,-2,-2,0,0,-1,-1,neg
0,0,0,0,0,0,0,0,0,0,0,neg
0,0,0,0,0,-2,-2,-1,-1,0,0,neg
0,0,0,0,0,0,0,0,0,0,0,neg
0,0,0,0,0,0,0,0,0,0,0,neg
0,0,0,0,0,0,0,-1,0,-1,0,neg
0,0,0,0,0,4,0,1,0,1,0,pos
0,0,0,0,0,0,0,1,0,1,0,pos
0,0,0,0,0,0,0,1,0,0,0,pos
0,0,0,0,0,-3,-3,0,0,0,0,neg
0,0,0,0,0,0,0,1,0,1,0,neu
0,0,0,0,0,6,6,1,1,1,1,pos
0,1,0,0,0,0,0,1,0,1,0,pos
0,0,0,0,0,0,0,0,0,0,0,neu
0,0,0,0,0,0,0,0,0,0,0,neu
0,0,0,0,0,5,0,1,0,3,0,pos
0,0,0,0,0,2,2,1,1,1,1,pos
0,0,0,0,0,0,0,0,0,1,1,pos
0,0,0,0,0,0,0,0,0,0,0,neu
0,0,0,0,0,1,1,1,1,2,2,pos
0,0,0,0,0,2,0,1,0,1,0,pos
0,0,0,0,0,0,0,-1,0,0,0,pos
0,0,0,0,0,0,0,0,0,0,0,pos
0,0,0,0,0,2,0,1,0,1,0,pos
0,0,0,0,0,0,0,0,0,0,0,neu
0,0,0,0,0,0,0,0,0,0,0,neu
0,0,0,0,0,4,0,1,0,1,0,pos
0,0,0,0,0,0,0,0,0,0,0,pos
0,0,0,0,0,0,0,1,1,1,1,pos
0,0,0,0,0,-1,0,-1,0,0,0,neg
0,0,0,0,0,0,0,0,0,0,0,pos
0,0,0,0,0,0,0,1,0,1,0,pos
0,0,0,0,0,-2,0,-1,0,-1,0,neg
0,0,0,0,0,1,1,0,0,0,0,pos
0,0,0,0,0,-1,0,-1,0,0,0,neg
0,0,0,0,0,0,0,0,0,1,1,neg
0,0,0,0,0,0,0,0,0,0,0,neg
0,0,-1,0,0,-1,-1,-1,-1,0,0,neg
0,0,0,0,0,0,0,0,0,1,1,neg
-1,0,0,0,0,0,0,-1,0,-1,0,neg
-1,0,0,0,0,0,0,0,0,0,0,neu
-1,0,0,0,0,0,0,0,0,0,0,neu
-1,0,0,0,0,0,0,0,0,1,0,neu
0,0,0,0,0,0,0,0,0,0,0,neu
0,0,0,0,0,3,3,1,1,2,2,pos
0,1,0,0,0,0,0,0,0,0,0,neu
0,0,0,0,0,-3,0,-1,0,-1,0,neu
0,0,0,0,0,-3,-3,-1,-1,0,-1,pos
0,0,0,0,0,2,2,1,1,2,1,neg
0,0,0,0,0,0,0,0,0,0,0,neu
0,-1,0,0,0,0,0,1,1,1,1,neu
0,0,0,0,0,-3,0,-1,0,-2,0,neg
0,0,0,0,0,3,3,2,2,1,1,pos
0,0,0,0,0,0,0,1,0,1,0,pos
0,0,0,0,0,0,0,1,0,2,0,pos
0,0,0,0,0,2,2,1,1,0,1,pos
0,0,0,0,0,0,0,1,0,1,0,pos
0,0,0,0,0,0,0,1,0,0,0,pos
0,0,0,0,0,0,0,-1,0,0,-1,neg
-1,0,0,0,0,0,0,-1,-1,-1,-1,neg
0,0,0,0,0,-2,0,0,0,-1,0,neg
0,0,0,0,0,1,0,0,0,0,0,neg
0,0,0,0,0,0,0,0,0,0,0,neu
0,0,0,0,0,0,0,-2,-1,-1,0,neg
0,0,0,0,0,5,3,1,1,2,1,pos
0,1,0,0,0,-1,-1,-3,-1,-2,-1,neg
0,0,0,0,0,-1,0,-1,-1,-3,-2,neg
0,0,0,0,0,2,0,1,0,1,0,neg
0,0,0,0,0,2,2,1,1,1,1,neg
0,0,0,0,0,0,0,0,0,0,0,neu
0,0,0,0,0,3,3,2,1,3,2,pos
0,0,0,0,0,0,0,-1,0,-2,-1,neg
0,0,0,0,-1,1,0,1,0,2,0,neu
0,0,0,0,-1,0,0,0,0,0,0,neg
0,0,0,0,0,-1,1,-1,0,-1,0,neu
0,0,0,0,0,-1,0,0,0,0,1,neg
0,0,0,0,0,0,0,0,0,0,0,neg
0,0,0,0,0,0,0,0,0,-1,-1,neg
0,0,0,0,0,-2,-2,-1,-1,1,1,neg
0,0,0,0,0,0,0,0,0,1,1,neg
0,0,0,0,0,0,0,0,0,-1,0,neg
0,0,0,0,0,0,0,0,0,-2,-1,neg
0,0,0,0,0,0,0,0,0,1,1,neg
0,0,0,0,0,0,0,0,0,2,0,neg
0,0,0,0,0,0,0,0,0,0,0,neg
0,0,0,0,0,0,0,0,0,0,0,neg
0,-1,0,0,0,0,0,0,0,0,0,neg
0,-1,0,0,0,-2,0,-2,0,-1,0,neg
0,0,0,0,0,0,0,0,0,1,1,neg
0,0,0,0,0,0,0,0,0,0,0,neg
0,0,0,0,0,0,0,0,0,2,1,neg
0,0,0,0,0,0,0,-1,-1,0,0,neg
0,0,0,0,0,0,0,0,0,0,0,neg
0,0,0,0,0,-2,-2,-1,-1,-1,-1,neg
0,0,0,0,0,-2,0,0,0,-2,-1,neg
0,0,0,0,0,0,0,0,0,0,0,neu
0,0,0,0,0,-2,0,-1,0,-1,0,neg
0,0,0,0,0,0,0,1,1,2,1,neg
0,0,0,0,0,0,0,0,0,0,0,neg
0,0,0,0,0,-1,0,-1,-1,0,-1,neg
-1,0,0,0,0,4,2,1,0,2,1,neg
-1,0,0,0,0,0,0,0,0,-1,-1,neg
0,0,0,0,0,0,0,1,1,1,1,neu
0,0,0,0,0,0,0,0,0,0,0,neg
0,0,0,0,0,0,0,0,0,0,0,neu
0,0,0,0,0,3,0,1,0,0,0,neu
0,0,0,0,0,0,0,0,0,0,0,neg
0,0,0,0,0,0,0,0,0,0,0,neg
-1,0,0,0,0,0,0,0,0,0,0,neg
0,0,0,0,0,-2,0,-1,0,-1,0,neg
-1,0,0,0,0,1,0,0,0,0,0,neg
0,0,0,0,0,0,0,0,0,0,0,neg
0,0,0,0,0,-2,-2,-1,-1,1,0,neg
0,0,0,0,0,-4,-2,-2,0,-2,0,neg
0,0,0,0,0,4,2,2,1,2,1,pos
0,1,0,0,0,-2,0,-1,0,-1,0,neg
0,0,0,0,0,0,0,0,0,0,0,neg
0,0,0,0,0,2,2,1,0,1,0,neg
0,0,0,0,0,-1,0,-1,0,-1,0,neg
0,0,0,0,0,-1,-1,0,0,-1,-1,neu
0,0,0,0,0,3,0,0,0,0,0, pos
0,0,0,0,0,5,3,2,1,3,1,pos
0,1,0,0,0,0,-1,0,0,1,1,neg
0,0,0,0,0,0,0,-1,0,2,1,neg
0,0,0,0,0,-3,-3,-1,-1,-1,-1,neg
0,0,0,0,0,-2,-2,0,0,0,0,neg
0,0,0,0,0,0,0,0,0,1,1,neu
0,0,0,0,0,4,4,1,1,1,1,pos
0,0,0,0,0,-3,0,-2,0,-2,0,neg
0,-1,0,0,0,3,3,1,1,1,1,pos
1,-1,0,0,0,0,0,0,0,0,0,pos
1,-1,0,0,0,0,0,0,0,0,0,neu
0,0,0,0,0,0,0,1,1,0,1,neg
0,0,0,0,0,0,0,1,1,2,1,neg
0,0,0,0,0,0,0,0,0,0,0,neg
0,0,0,0,0,0,0,-1,-1,0,0,neg
0,0,0,-1,0,0,0,0,0,0,0,neg
0,0,0,0,0,-2,-2,0,0,0,0,neg
0,0,0,0,0,2,0,2,0,3,0,neg
0,-1,0,0,0,-1,0,2,0,0,0,pos
0,0,0,0,0,0,0,2,1,1,1,pos
0,0,0,0,0,0,0,0,0,0,0,pos
0,0,0,0,0,5,3,2,1,2,1,pos
0,0,0,0,0,0,0,-1,0,-2,-1,neg
0,0,0,0,0,0,0,0,0,0,0,neu
0,0,0,0,0,4,3,1,1,2,1,pos
0,0,0,0,0,3,3,1,1,1,1,pos
0,0,0,0,0,3,3,1,1,1,1,pos
0,0,0,0,0,4,4,1,1,1,1,pos
0,0,0,0,0,0,0,0,0,0,0,pos
0,0,0,0,0,0,0,0,0,0,0,neu
0,0,0,0,0,0,0,1,1,1,1,neu
0,0,0,0,0,0,0,0,0,0,0,neu
0,0,0,0,0,0,0,1,1,0,0,pos
0,0,0,0,0,-1,-1,0,0,0,0,neg
-1,0,0,0,0,0,0,0,0,-1,-1,neg
-1,-1,0,0,0,3,0,1,0,1,0,pos
0,0,0,0,0,0,0,0,0,0,0,neu
0,0,0,0,0,0,0,0,0,-1,0,neg
0,0,0,0,0,0,0,0,0,0,0,neu
0,0,0,0,0,3,0,1,0,1,0,pos
0,0,0,0,0,0,0,2,1,0,-1,pos
0,0,0,0,0,0,0,0,0,-1,0,neu
0,0,0,0,0,0,0,0,0,0,0,neu
0,0,0,0,0,0,0,0,0,1,0,neu
0,0,0,0,0,4,4,1,1,1,1,pos
0,0,0,0,0,2,0,1,0,1,0,neu
0,0,0,0,0,0,0,0,0,0,0,neu
0,0,0,0,0,0,0,0,0,0,0,neu
0,0,0,0,0,2,0,1,0,1,0,neu
0,0,0,0,0,0,0,0,0,0,0,neu
0,0,0,0,0,0,0,1,0,0,-1,pos
0,0,0,0,0,-2,-2,-1,-1,-2,-1,neg
0,0,0,0,0,0,0,-1,-1,-1,-1,neg
0,0,0,0,0,0,0,1,0,0,0,neg
0,0,0,0,0,2,2,1,1,-1,-1,neu
0,0,0,0,0,0,0,0,0,0,0,neg
-1,0,0,0,0,-1,0,0,0,-2,-1,neg
-1,0,-1,0,0,0,0,0,0,0,0,neu
0,0,0,0,0,3,0,1,0,1,0,pos
0,0,1,0,0,0,0,1,0,0,0,pos
0,0,0,0,0,2,0,1,0,1,0,pos
1,0,0,0,0,0,0,0,0,0,0,pos
0,0,0,0,0,0,0,0,0,1,1,neg
-1,0,0,0,0,0,0,0,0,-1,0,neg
-1,0,0,0,0,1,0,0,0,0,0,neg
0,0,0,0,0,0,0,0,0,1,0,neg
0,0,0,0,0,0,0,0,0,0,0,neu
0,0,0,0,0,0,0,-1,0,-1,0,neu
0,0,0,0,0,0,0,0,0,1,0,neu
0,0,0,0,0,0,0,0,0,0,0,neg
0,0,0,0,0,0,0,-1,-1,-1,0,neg
0,0,0,0,0,0,0,0,0,0,0,neu
0,0,0,0,0,0,0,0,0,0,0,neg
0,0,0,0,0,0,0,0,0,0,0,neg
0,0,0,0,0,0,0,0,0,0,0,neu
0,0,0,0,0,0,0,0,0,0,0,neg
0,0,0,0,0,0,0,0,0,0,0,neg
0,0,0,0,0,0,0,0,0,-1,0,neg
0,0,0,0,0,0,0,0,0,1,0,neg
0,0,0,0,0,0,0,0,0,0,0,neu
0,0,0,0,0,2,0,0,0,0,0,neu
0,0,0,0,0,0,0,0,0,0,0,neu
0,0,0,0,0,4,4,1,1,2,2,neg
0,0,0,0,0,0,0,-1,0,-1,0,neg
0,0,0,0,0,6,4,3,1,2,1,neg
0,0,0,0,0,2,0,1,0,1,0,pos
0,0,0,0,0,0,0,1,0,0,0,neg
0,0,0,0,0,-1,-1,0,0,0,1,neu
0,0,0,0,0,5,5,2,2,2,2,neg
0,0,0,0,0,1,1,0,0,1,0,pos
0,0,0,0,0,0,0,0,0,0,0,pos
0,0,0,0,0,1,0,0,0,1,0,pos
0,0,0,0,0,0,0,1,1,2,1,pos
0,0,0,0,0,2,2,1,1,-1,-1,pos
0,0,1,0,0,3,3,1,1,1,1,pos
0,0,0,0,0,0,0,1,1,0,0,neu
0,0,0,0,0,5,5,1,1,1,1,pos
0,0,0,0,0,-1,0,0,0,-1,0,pos
0,0,0,0,0,0,0,2,1,1,0,pos
0,0,0,0,0,5,2,3,1,2,1,pos
0,0,0,0,0,-1,-1,0,0,0,0,neg
0,0,0,0,0,-2,0,-1,0,-1,0,neg
-1,0,0,0,0,-1,0,-1,0,-1,0,neg
0,0,0,0,0,0,0,0,0,0,0,neu
0,0,0,0,0,0,0,0,0,1,0,pos
1,0,0,0,0,-3,0,-1,0,-1,0,pos
0,0,0,0,0,-7,-2,-3,-2,-3,-2,neu
0,0,0,0,0,0,0,0,0,0,0,neg
0,0,0,0,0,0,0,0,0,-1,-1,neg
0,0,0,0,0,0,0,0,0,1,1,neg
0,0,0,0,0,0,0,-1,0,0,0,neg
0,0,0,0,0,0,0,-2,-1,-1,0,neg
0,0,0,0,0,0,0,0,0,0,0,neg
0,0,0,0,0,0,0,0,0,0,0,neg
0,0,0,0,0,-2,0,0,1,1,1,neg
0,0,0,0,0,0,0,0,0,2,2,neg
0,0,0,0,0,-1,-1,-1,-1,-1,-1,neg
0,0,0,0,0,-2,0,-1,0,-1,-1,neg
0,0,0,0,0,0,0,0,0,0,0,neg
0,-1,0,0,0,0,0,0,0,0,0,pos
1,-1,0,0,0,0,0,0,0,1,0,pos
0,0,0,0,0,0,0,0,0,0,0,neu
0,0,0,0,0,0,0,0,0,0,0,neu
0,0,0,0,0,0,0,0,0,1,1,neu
0,0,0,0,0,-2,-3,0,-1,0,-1,neg
0,0,0,0,0,0,0,0,0,0,0,neu
0,0,0,0,0,0,0,0,0,1,0,pos
0,0,0,0,0,0,0,0,0,0,0,neg
0,0,0,0,0,0,0,0,0,0,0,neg
0,0,0,0,0,2,2,1,1,1,1,pos
0,0,0,0,0,0,0,0,0,0,0,neu
0,0,0,0,0,0,0,0,0,0,0,pos
0,0,0,0,0,2,0,1,0,1,0,neu
0,0,0,0,0,0,0,0,0,0,0,pos
0,0,0,0,0,0,0,0,0,0,0,neu
0,0,1,0,0,0,0,0,0,0,0,neu
0,0,0,0,0,-3,0,-1,0,-1,0,pos
0,0,0,0,0,-2,0,-1,0,-1,0,neg
0,0,0,0,0,0,0,0,0,0,0,neu
0,0,0,0,0,2,0,1,0,1,0,pos
0,0,0,0,0,0,0,0,0,0,0,pos
0,0,0,0,0,3,0,1,0,1,0,pos
0,0,0,0,0,3,0,1,0,1,0,pos
1,0,0,0,0,3,3,1,1,1,1,pos
0,0,0,0,0,-2,-2,-1,-1,-1,-1,neg
0,0,0,0,0,0,0,-2,0,-1,0,neg
0,0,0,0,0,0,0,0,0,0,0,neg
0,0,0,0,0,0,0,0,0,0,0,neg
0,0,0,-1,0,0,0,0,0,0,0,neg
0,0,0,0,0,0,0,0,0,0,0,neg
0,0,0,0,0,2,0,1,0,0,0,neg
0,0,0,0,0,0,0,0,0,0,0,neg
0,0,0,0,0,0,0,0,0,0,0,neg
0,0,0,0,0,-1,0,-1,0,-1,0,neg
0,0,0,0,0,0,0,0,0,0,0,neg
0,0,0,0,0,0,0,0,0,0,0,neg
0,0,0,0,0,0,0,-1,0,0,0,neg
0,0,0,0,0,0,0,-1,-1,0,0,neg
0,0,0,0,0,1,0,-1,-1,0,0,neg
0,0,0,0,0,0,0,0,0,0,0,neg
0,0,0,0,0,-2,-2,-1,-1,-1,-1,neg
0,0,0,0,0,0,0,0,0,0,0,neg
0,0,0,0,0,-2,-2,-1,-1,-1,-1,neg
0,0,0,0,0,0,0,0,0,0,0,neu
0,0,0,0,0,0,0,0,0,1,1,neu
0,0,0,0,0,0,0,0,0,1,0,neu
0,0,0,0,0,0,0,0,0,1,0,neu
0,0,0,0,0,4,4,1,1,1,1,neu
0,0,0,0,0,0,0,0,0,1,0,neu
0,0,0,0,0,0,0,0,0,0,0,pos
0,0,0,0,0,1,0,2,0,2,0,pos
0,0,0,0,0,0,0,1,1,1,1,pos
0,0,0,0,0,3,3,1,1,1,1,pos
1,0,0,0,0,6,6,2,2,2,2,pos
0,0,0,0,0,-2,0,-1,0,-1,0,neg
0,0,0,0,0,0,0,0,0,0,0,neu
0,0,0,0,0,0,0,-1,-1,-1,-1,neg
0,0,0,0,0,1,1,1,1,0,1,neg
0,0,0,0,0,0,0,1,1,1,1,neu
0,0,0,0,0,-2,-2,-1,-1,-1,-1,neg
0,0,0,0,0,0,0,0,0,-1,0,neg
0,0,0,0,0,0,0,-2,0,-1,0,neg
0,0,0,0,0,0,0,-2,-1,-1,0,neg
-1,0,0,0,0,0,0,0,0,0,0,neg
0,0,0,0,0,0,0,0,0,0,0,neu
0,0,0,0,0,-1,-1,0,0,0,0,neg
0,0,0,0,0,0,0,0,0,0,0,neg
0,0,0,0,0,2,2,0,0,1,1,neu
0,0,0,0,0,0,0,0,0,0,0,neu
0,0,0,0,0,0,0,0,0,0,0,neu
0,0,0,0,0,0,0,0,0,0,0,neu
0,0,0,0,0,0,0,0,0,0,0,neu
0,0,0,0,0,0,0,0,0,0,0,neu
0,0,0,0,0,0,0,0,0,0,0,neg
0,0,0,0,0,0,0,0,0,-1,0,neg
0,0,0,0,0,0,0,0,0,1,1,neu
0,0,0,0,0,-2,0,-1,0,-1,0,neu
0,0,0,0,0,1,0,1,0,1,0,pos
0,0,0,0,0,0,0,0,0,0,0,neu
0,0,0,0,0,0,0,0,0,-1,0,neu
0,0,0,0,0,0,0,0,0,1,1,neu
0,0,0,0,0,2,2,1,1,1,1,neu
0,0,0,0,0,0,0,0,0,-1,0,neu
0,0,0,0,0,0,0,0,0,0,0,neu
0,0,0,0,0,-2,0,-1,0,-1,0,neg
0,0,0,0,0,-2,0,-1,0,-1,0,neg
0,0,0,0,0,0,0,0,0,0,0,neu
0,0,0,0,0,0,0,0,0,0,0,neg
-1,0,0,0,0,0,0,0,0,0,0,neg
0,0,0,0,0,0,0,0,0,0,0,neg
0,0,0,0,0,0,0,0,0,0,0,neu
0,0,0,0,0,-3,0,-1,0,-1,0,neg
0,0,0,0,0,0,0,0,0,0,0,neg
0,0,0,0,0,-2,0,-1,0,-1,0,neg
0,0,0,0,0,0,0,0,0,0,0,neg
0,0,0,0,0,0,0,-1,0,-1,0,neg
0,0,0,0,0,3,1,1,0,1,0,neg
0,0,0,0,0,0,0,0,0,0,0,neg
0,0,-1,0,0,0,0,0,0,0,0,neg
0,0,0,0,0,-3,-3,-1,-1,-2,-1,neg
0,0,0,0,0,3,0,1,0,1,0,pos
0,0,0,0,0,0,0,0,0,1,0,pos
0,0,0,0,0,0,0,0,0,-2,0,pos
0,0,0,0,0,3,3,1,1,1,1,pos
0,1,0,0,0,-3,0,-1,0,-1,0,neg
0,0,0,0,0,2,2,1,1,1,1,pos
1,0,0,0,0,2,0,1,0,1,0,pos
0,0,0,0,0,0,0,0,0,1,0,pos
0,0,0,0,0,0,0,0,0,0,0,pos
0,0,0,0,0,3,3,1,1,1,1,pos
0,0,0,0,0,1,-2,1,0,1,0,pos
0,0,0,0,0,0,0,0,0,0,0,neu
0,0,0,0,0,0,0,0,0,1,1,pos
0,0,0,0,0,0,0,0,0,-1,0,neu
0,0,0,0,0,0,0,0,0,0,0,neg
0,0,0,-1,0,-2,-2,-1,-1,-3,-3,neg
0,0,0,0,0,0,0,0,0,0,0,neg
0,0,0,0,0,0,0,0,0,0,0,neu
0,0,0,0,0,3,0,0,-1,0,-1,pos
0,0,0,0,0,1,1,1,1,1,1,pos
0,0,0,0,0,0,0,0,0,0,0,neu
0,0,0,0,0,0,0,0,0,0,0,neu
0,0,0,0,0,0,0,0,0,0,0,neu
0,0,0,0,0,-1,-3,0,-1,0,-1,neg
0,0,0,0,0,0,0,0,0,1,0,neu
0,0,0,0,0,0,0,0,0,0,0,neu
0,0,0,0,0,-2,-2,-1,-1,-1,-1,neg
0,0,0,0,0,0,0,0,0,-1,0,neg
0,0,-1,0,0,0,0,-1,0,-1,0,neu
0,0,-1,0,0,4,4,1,1,1,1,pos
0,0,0,0,0,0,0,0,0,0,0,neu
0,0,0,0,0,0,0,-1,0,-2,0,neu
0,0,0,0,0,0,0,0,0,0,0,neu
0,0,0,0,0,-2,-2,-1,-1,-1,-1,neg
0,0,0,0,0,1,1,0,0,1,1,pos
0,1,0,0,0,0,0,0,0,-1,-1,neg
-1,0,0,0,0,-3,0,-2,-1,-1,0,neg
0,0,0,0,0,0,0,0,0,1,0,neg
0,0,0,0,0,3,3,1,1,1,1,pos
0,0,0,0,0,4,4,1,1,2,2,pos
0,0,0,0,0,2,0,1,0,1,0,pos
0,0,0,0,0,0,0,0,0,0,0,neu
0,0,0,0,0,0,0,0,0,0,0,neu
0,0,0,0,0,0,0,0,0,0,0,neu
0,0,0,0,0,0,0,0,0,0,0,neu
0,0,0,0,0,6,3,2,1,2,1,pos
0,0,0,0,0,3,0,1,0,1,0,pos
0,0,0,0,0,0,0,0,0,0,0,neu
0,0,0,0,0,6,3,2,1,2,1,pos
0,0,0,0,0,0,0,0,0,0,0,neu
0,0,0,0,0,0,0,0,0,0,0,neu
0,0,0,0,0,6,6,2,2,1,1,pos
0,0,0,0,0,4,1,2,1,2,1,pos
0,0,0,0,0,3,3,1,1,1,1,pos
0,1,0,0,0,0,0,0,0,-1,0,neg
0,0,0,0,0,0,0,0,0,0,0,neu
0,0,0,0,0,2,3,1,1,2,1,pos
0,0,0,0,0,0,0,-2,0,-2,0,neg
0,0,0,0,0,0,0,0,0,0,0,pos
0,0,0,0,0,0,0,0,0,0,0,pos
0,0,0,0,0,0,0,0,0,0,0,pos
0,0,0,0,0,0,0,0,0,0,0,neu
0,0,0,0,0,4,4,1,1,1,1,pos
0,0,0,0,0,0,0,0,0,0,0,neu
0,0,0,0,0,0,0,0,0,0,0,neu
0,0,0,0,0,2,2,1,1,1,1,neu
0,0,0,0,0,3,3,1,1,1,1,pos
0,0,0,0,0,3,3,1,1,1,1,pos
1,0,0,0,0,4,0,2,0,2,0,pos
0,0,0,0,0,2,0,1,0,1,0,pos
0,0,0,0,0,0,0,0,0,0,0,pos
0,0,0,0,0,0,0,0,0,0,0,pos
0,0,0,0,0,3,3,0,0,-1,0,pos
0,0,0,0,0,6,6,3,3,3,3,pos
0,0,0,0,0,2,2,1,1,0,0,pos
0,0,0,0,0,0,0,0,0,0,0,pos
0,0,0,0,0,2,1,2,1,1,-1, pos
0,0,0,0,0,6,6,2,2,2,2,pos
0,0,0,0,0,8,8,2,2,3,2,neu
0,0,0,0,0,3,0,1,0,1,0,pos
0,0,0,0,0,3,3,1,1,1,1,pos
0,0,0,0,0,0,0,0,0,1,0,pos
0,0,0,0,0,4,0,2,0,1,0,pos
0,0,0,0,0,2,0,0,-1,1,-1,pos
0,0,0,0,0,3,3,1,1,1,1,pos
0,0,0,0,0,0,0,1,1,1,1,pos
0,0,0,0,0,3,2,1,1,1,1,pos
1,0,0,0,0,2,2,1,1,1,1,pos
0,0,0,0,0,3,3,1,1,0,1,pos
0,0,0,0,0,3,3,1,1,2,1,pos
1,0,0,0,0,3,3,1,1,1,0,pos
0,0,0,0,0,0,0,-1,-1,-1,-1,neu
0,0,0,0,0,-6,-2,-3,-1,-3,-1,neg
0,0,0,0,0,3,0,-1,0,-1,0,pos
0,0,0,0,0,1,1,0,0,0,0,pos
0,0,0,0,0,0,0,0,0,-1,0,neg
0,0,0,0,0,0,0,0,0,0,0,neu
1,0,0,0,0,-1,-1,-1,-1,-1,-1,neg
0,0,0,0,0,0,0,0,0,0,0,pos
0,1,0,0,0,0,0,0,0,0,0,neg
1,1,0,0,0,0,0,0,0,-1,0,neg
0,1,0,0,0,-2,-2,0,0,0,0,pos
1,1,0,0,0,3,0,1,0,2,1,pos
0,0,0,0,0,0,0,2,2,1,1,neu
0,0,0,0,0,0,0,2,0,2,0,pos
1,0,0,0,0,3,3,1,1,1,1,pos
0,0,0,0,0,4,2,2,1,0,-1,pos
0,0,0,0,0,-2,-2,-1,-1,-1,-1,pos
0,0,0,0,0,0,0,0,0,0,0,pos
0,0,0,0,0,-1,-1,2,1,2,1,pos
0,0,0,0,0,4,4,1,1,1,1,pos
0,0,0,0,0,4,0,1,0,0,-1,pos
0,0,0,0,0,-2,-2,0,-1,1,0,neg
0,0,0,0,0,1,1,0,0,0,0,neg
0,0,0,0,0,0,0,1,0,1,0,neg
0,0,0,0,0,0,0,1,1,1,1,neg
0,0,0,0,0,0,0,-1,0,-1,0,neg
0,0,0,0,0,3,0,0,0,0,0,neg
0,0,0,0,0,0,0,0,0,2,0,pos
0,0,0,0,0,0,0,-1,0,0,0,neg
0,0,0,0,0,0,0,0,-1,0,-1,neg
0,0,0,0,0,0,0,1,1,1,1,neg
0,0,0,0,0,0,0,-1,0,-1,0,neu
0,0,0,0,0,0,0,0,0,-1,0,neu
0,0,0,0,0,1,0,0,0,0,0,neu
0,0,0,0,0,-2,0,-1,0,-1,0,neu
0,0,0,0,0,0,0,-1,-1,1,0,neg
0,0,0,0,0,-4,-4,-1,-1,-1,-1,neg
0,0,0,0,0,3,0,1,0,0,0,pos
0,0,0,0,0,0,0,0,0,1,1,neu
1,0,0,0,0,0,0,0,0,1,1,neu
0,0,0,0,0,0,0,0,0,0,0,neu
0,0,0,0,0,0,0,0,0,0,0,neu
0,1,0,0,0,2,0,1,0,1,0,pos
0,0,0,0,0,0,0,-1,-1,0,0,neg
0,0,0,0,0,1,2,2,2,1,1,pos
0,0,0,0,0,2,0,1,-1,0,0,pos
0,0,0,0,0,0,0,-1,0,-1,0,neu
0,0,0,0,0,2,-1,0,-1,0,-1, pos
0,0,0,0,0,-1,0,-1,0,-1,0,neg
0,0,0,0,0,0,0,0,0,0,0,neu
0,0,0,0,0,0,0,-2,-2,-1,-1,neg
0,0,0,0,0,3,0,1,0,1,0,pos
0,0,0,0,0,-1,-1,-1,-1,-1,-1,neg
0,0,0,0,0,0,0,0,0,0,0,neg
0,0,0,0,0,0,0,-1,-1,-1,-1,neg
0,0,0,0,0,0,0,-1,0,-1,0,neg
0,0,0,0,0,2,2,1,1,0,0,neg
0,0,0,0,0,0,0,0,0,0,0,neu
0,0,0,0,0,0,0,0,0,0,0,neg
0,0,0,0,0,-1,-1,0,0,0,0,pos
0,0,0,0,0,0,0,0,0,-1,0,neu
0,0,0,0,0,3,3,1,1,1,1,pos
0,0,0,0,0,0,0,0,0,1,0,neu
0,0,0,0,0,4,0,1,0,1,0,pos
0,1,0,0,0,-3,0,-1,1,-2,0,neg
0,0,0,0,0,-2,0,-1,0,-2,0,neg
0,0,0,0,0,0,0,0,0,0,0,neu
0,0,0,0,0,4,2,2,1,1,0,pos
0,0,0,0,0,0,0,0,0,0,0,neu
0,0,0,0,0,0,0,0,0,0,0,neu
0,0,0,0,0,3,3,1,1,1,1,neu
0,0,0,0,0,10,7,4,2,5,3,pos
0,0,0,0,0,3,0,1,0,1,0,pos
0,0,0,0,0,3,3,1,1,1,1,pos
1,0,0,0,0,0,0,0,0,1,0,neg
0,0,0,0,0,0,0,0,0,0,0,neu
0,0,0,0,0,0,0,0,0,1,0,neg
0,0,0,0,0,0,0,0,0,0,0,neg
0,0,0,0,0,-2,-2,-1,-1,0,0,neg
0,0,0,0,0,0,0,0,0,0,0,neg
0,0,0,-1,0,0,0,0,0,0,0,pos
0,0,0,0,0,0,0,0,0,0,0,neu
0,0,0,0,0,0,0,0,0,1,0,neu
0,0,0,0,0,3,3,1,1,1,1,pos
0,0,0,0,0,0,0,0,0,0,0,neu
0,0,0,0,0,0,0,0,0,0,0,neg
0,0,0,0,0,0,0,0,0,0,0,neg
1,0,0,0,0,0,0,0,0,0,0,neg
0,-1,0,0,0,-3,0,-1,0,-1,0,neg
0,-1,0,0,0,0,0,0,0,1,0,neg
0,-1,0,0,0,0,0,0,0,1,0,neg
0,-1,0,0,0,0,0,0,0,0,0,neu
0,-1,0,0,0,-1,0,0,0,0,0,neg
0,-1,0,0,0,1,1,0,0,0,0,neu
0,-1,0,0,0,3,0,1,0,2,0,pos
0,0,0,0,0,6,6,3,3,3,3,pos
0,-1,0,0,0,5,0,2,0,1,0,pos
0,0,0,0,0,0,0,0,0,0,0,pos
0,0,0,0,0,3,3,1,1,1,1,pos
0,0,0,1,0,0,0,0,0,0,0,neg
0,0,0,0,0,0,0,0,0,0,0,neg
0,0,0,0,0,0,0,0,0,0,0,neg
0,0,0,0,0,3,3,1,1,2,1,neu
0,0,0,0,0,0,0,0,0,0,0,neg
0,0,0,0,0,2,2,1,1,1,1,pos
0,0,0,0,0,0,0,0,0,0,0,pos
0,0,0,0,0,0,0,0,0,0,0,neu
0,0,0,0,0,3,0,2,1,2,1,neu
0,0,0,0,0,0,0,0,0,0,0,neu
0,0,0,0,0,2,2,2,2,1,1,neu
0,0,0,0,0,0,0,0,0,0,0,neu
0,0,0,0,0,0,0,-1,-1,-3,-1,neg
0,0,0,0,0,0,0,0,0,0,0,neu
0,0,0,0,0,0,0,-1,-1,-1,-1,neg
0,0,0,0,0,-1,-1,-1,-1,0,0,neg
0,0,0,0,0,-2,-2,-1,-1,-1,-2,neg
0,0,0,0,0,0,0,0,0,0,0,neu
0,0,0,0,0,0,0,0,0,0,0,neg
0,0,0,0,0,0,0,0,0,0,0,neg
0,0,0,0,0,0,0,0,0,0,0,neg
0,0,0,0,0,-3,0,-1,0,0,0,neg
0,0,0,0,0,2,0,0,0,1,0,neg
0,0,0,0,0,0,0,0,0,0,0,neg
0,0,0,0,0,-2,0,-2,-1,-2,-1,neg
0,0,0,0,0,0,0,0,0,0,0,neu
0,0,0,0,0,0,0,1,1,0,0,neu
0,0,0,0,0,3,3,1,1,2,1,pos
0,0,0,0,0,0,0,0,0,0,0,pos
0,0,0,0,0,3,3,1,1,1,1,pos
0,0,0,0,0,-1,-1,-1,0,-1,0,neg
0,0,0,0,0,0,0,0,0,-1,0,neg
0,0,0,0,0,-2,-2,-1,-1,-1,-1,neg
0,0,0,0,0,0,0,1,1,0,0,neg
0,0,0,0,0,0,0,0,0,0,0,neg
0,0,0,-1,0,0,0,-1,-1,0,0,neg
0,0,0,0,0,-1,-1,0,0,0,0,pos
0,0,0,0,0,0,0,-1,0,-1,0,neg
0,0,0,0,0,0,0,0,0,0,0,neu
0,0,0,0,0,0,0,0,1,0,0,neu
0,0,0,0,0,0,0,-1,0,-1,0,neg
0,0,0,0,0,0,0,1,1,0,0,neg
0,0,0,0,0,0,0,0,0,0,0,neg
0,0,0,0,0,0,0,0,0,0,0,neu
0,0,0,0,0,3,3,1,1,2,2,pos
0,0,0,0,1,0,0,0,0,-1,0,neg
0,0,0,0,0,2,0,2,0,2,0,pos
0,0,0,0,0,3,3,1,1,1,1,pos
0,0,0,0,0,3,3,1,1,1,1,pos
0,0,0,0,0,0,0,0,0,0,0,neu
0,0,0,0,0,0,0,0,0,0,0,neu
0,0,0,0,0,0,0,1,1,1,1,pos
0,0,0,0,0,-3,0,-1,0,0,0,pos
0,0,0,0,0,0,0,0,0,0,0,neu
0,0,0,0,0,0,0,0,0,-1,0,pos
0,0,0,0,0,0,0,0,0,-1,0,neu
0,0,0,0,0,0,0,0,0,0,0,neu
0,0,0,0,0,2,0,1,0,1,0,pos
0,0,0,0,0,0,0,0,0,0,0,neu
0,0,0,0,0,0,0,0,0,-1,0,neu
0,0,0,0,0,0,0,-1,-1,-1,-1,neg
0,0,0,0,0,-3,-3,-1,-1,0,0,neg
-1,0,0,0,0,0,0,0,0,0,0,neg
0,0,0,0,0,-3,0,-1,0,-1,0,pos
0,0,0,0,0,4,4,1,1,1,1,pos
0,0,0,0,1,0,0,0,0,2,1,neu
0,0,0,0,0,0,0,0,0,-1,0,pos
0,0,0,0,0,3,3,1,1,1,1,pos
0,0,0,0,0,3,3,1,1,0,1,pos
0,0,0,0,0,0,0,-1,-1,-1,-1,neg
0,-1,0,0,0,0,0,0,0,0,0,pos
0,0,0,1,0,0,0,0,0,0,0,neu
0,0,0,0,0,0,0,0,0,1,0,pos
0,0,0,0,0,2,0,2,1,2,1,pos
0,0,0,0,0,4,4,1,1,1,1,pos
0,0,0,0,0,0,0,1,1,0,0,pos
0,0,0,0,0,0,0,0,0,0,0,neu
0,0,0,0,0,1,1,1,1,1,1,pos
0,0,0,0,0,2,2,1,1,1,1,pos
0,0,0,0,0,0,0,2,1,2,1,pos
0,0,0,0,0,0,0,-1,0,-1,0,neg
0,0,0,0,0,2,0,2,0,1,0,pos
0,0,0,0,0,3,0,1,0,0,0,pos
1,0,0,0,0,0,0,1,1,2,2,pos
0,0,0,0,0,3,0,2,0,2,0,pos
0,0,0,0,0,0,0,0,0,0,0,neu
0,0,0,0,0,0,0,0,0,1,0,pos
0,0,0,0,0,0,0,0,0,0,0,pos
0,0,0,0,0,3,1,3,1,1,-1,pos
0,0,0,0,0,0,0,0,0,0,0,neu
0,0,0,0,0,-3,-3,0,0,-1,-1,neg
0,0,0,0,0,0,0,0,0,0,0,neu
0,0,0,0,0,1,0,1,0,1,0,pos
0,0,0,0,0,3,2,2,1,2,1,pos
0,0,0,0,0,-3,0,-1,0,-1,0,neg
0,0,0,0,0,0,0,0,0,0,0,neu
0,0,0,0,0,0,0,0,0,0,-1,neg
0,0,0,0,0,2,0,2,1,2,0,pos
0,0,0,0,0,-2,0,-1,0,-1,0,neg
0,0,0,0,0,0,0,-2,-1,-2,-1,neg
-1,0,0,0,0,0,0,-1,-1,0,0,neg
0,0,0,0,0,0,0,0,0,0,0,neg
0,0,0,0,0,1,0,0,-1,1,0,neg
0,0,0,0,0,0,0,1,0,0,0,neg
0,0,0,0,0,0,0,0,0,0,0,neu
0,0,0,0,0,0,0,0,0,0,0,neu
0,0,0,0,0,0,0,0,0,0,1,neg
0,0,0,0,0,0,0,0,0,1,1,neg
0,0,0,0,0,-3,0,-1,0,-1,0,neg
0,0,0,0,0,0,0,0,0,1,0,neg
0,-1,0,0,0,0,0,0,0,0,0,neu
0,0,0,0,0,1,1,1,1,1,1,neg
0,0,0,0,0,0,0,0,0,0,0,neg
0,0,0,0,0,-2,-2,0,0,-1,-1,neu
0,0,0,0,0,0,0,0,0,0,0,neu
0,0,0,0,0,0,0,0,0,0,0,neu
0,0,0,0,0,5,3,3,2,3,2,pos
0,0,0,0,0,0,0,-1,-1,-1,0,neu
0,0,0,1,0,2,0,2,1,-1,0,neg
0,0,0,1,0,6,6,4,4,3,3,pos
0,0,0,0,0,-4,-4,-1,-1,-1,-1,neg
0,0,0,0,0,0,0,1,1,1,1,neg
0,0,0,0,0,0,0,0,0,-1,0,pos
0,0,0,1,0,3,3,2,2,0,0,pos
0,0,0,0,0,0,0,0,0,1,0,neu
0,0,0,1,0,2,2,1,1,1,1,pos
0,0,0,1,0,0,-2,0,-1,2,-1,pos
0,0,0,0,0,3,0,1,0,0,-1,pos
0,0,0,0,0,4,4,1,1,1,1,pos
0,0,0,0,0,0,0,0,0,1,1,pos
0,0,0,0,0,3,3,1,1,2,1,neu
0,0,0,0,0,0,0,0,0,0,0,pos
0,0,0,0,0,2,2,1,1,2,2,pos
0,0,0,0,0,0,0,1,1,-1,0,pos
0,0,0,0,0,0,0,0,0,0,0,pos
0,0,0,0,0,0,0,0,0,2,0,pos
0,0,0,0,0,0,0,0,0,-1,0,pos
0,0,0,0,0,0,0,1,0,1,0,pos
1,0,0,0,0,0,0,-1,-1,0,1,pos
0,0,0,0,0,0,0,0,0,-1,0,neu
0,0,0,0,0,2,2,1,1,1,1,pos
0,0,0,0,0,0,0,0,0,0,0,neu
0,0,0,0,0,0,0,0,0,0,0,neu
0,0,0,0,0,0,0,0,0,0,0,neu
0,0,0,0,0,3,3,1,1,1,1,pos
0,0,0,0,0,0,0,0,0,0,0,pos
0,0,0,0,0,0,0,0,0,0,0,neu
0,0,0,0,0,2,2,1,1,1,1,pos
0,0,0,0,0,0,0,0,0,0,0,neg
0,0,0,0,0,0,0,0,0,1,0,pos
0,0,0,0,0,3,3,1,1,0,0,pos
1,0,0,0,0,0,0,0,0,0,0,neu
0,0,0,0,0,0,0,0,0,-1,-1,neu
0,0,0,0,0,0,0,0,0,0,0,neg
0,0,0,0,0,0,0,0,0,0,0,neu
0,0,0,0,0,0,0,0,0,-1,0,neg
0,0,0,0,0,3,3,1,1,1,1,neu
0,0,0,0,0,0,0,0,0,0,0,neu
0,0,0,0,0,2,0,1,0,3,0,neg
0,0,0,0,0,0,0,1,0,1,0,pos
0,0,0,0,0,0,0,0,0,0,0,neg
0,-1,0,0,0,0,0,0,0,0,0,pos
1,-1,0,0,0,0,0,0,0,0,0,pos
0,0,0,0,0,0,0,0,0,-1,-1,neg
0,0,0,0,0,0,0,0,0,1,0,neu
0,0,0,0,0,0,0,-1,-1,0,1,neg
0,0,0,0,0,2,0,2,0,2,0,neg
0,0,0,0,0,2,0,1,0,1,0,neg
0,0,0,0,0,0,0,0,0,0,0,neg
0,0,0,0,0,0,0,0,0,0,0,neg
0,0,0,0,0,0,0,0,0,0,0,neg
0,0,0,0,0,0,0,-1,0,0,0,neg
0,0,0,0,0,0,0,-2,-1,0,-1,neg
-1,0,0,0,0,0,0,0,0,0,0,neg
0,0,0,0,0,0,0,0,0,0,0,neg
0,0,0,0,0,0,0,0,0,1,0,neu
0,0,0,0,0,3,3,1,1,1,1,pos
0,0,0,0,0,2,2,0,0,-2,-2,pos
0,1,0,0,0,0,0,0,0,0,0,neu
0,1,0,0,0,-1,0,0,0,-1,-1,neg
0,0,0,0,0,0,0,0,0,-1,0,neu
0,0,0,0,0,0,0,0,0,0,0,neu
0,0,0,0,0,0,0,0,0,0,0,neu
0,0,0,0,0,0,0,0,0,0,0,neg
0,0,-1,0,0,0,0,0,0,1,0,neg
0,0,0,0,0,0,0,0,0,0,0,neu
0,0,0,0,0,0,0,0,0,0,0,neu
0,0,0,0,0,0,0,0,0,0,0,neg
0,0,0,0,0,0,0,0,0,0,1,neu
0,0,0,0,0,0,0,0,0,3,1,neu
0,0,0,0,0,0,0,0,0,0,0,neg
0,0,-1,0,0,0,0,0,0,1,0,neu
0,0,-1,0,0,0,0,0,0,0,0,pos
0,0,-1,0,0,0,0,1,1,0,0,pos
0,0,0,0,0,3,0,1,0,1,0,pos
0,0,0,0,0,0,0,0,0,-1,0,pos
0,0,0,0,0,-1,0,0,0,0,0,neu
0,0,0,0,0,0,0,0,0,0,0,neu
0,0,0,0,0,0,0,0,0,0,0,neg
0,-1,0,0,0,2,2,1,1,1,1,pos
0,0,0,0,0,0,0,1,1,1,1,neg
0,0,0,0,0,0,0,0,0,0,0,neu
0,0,0,0,0,2,2,1,1,2,2,pos
0,0,0,0,0,2,0,1,0,1,0,pos
1,0,0,0,0,3,3,1,1,1,1,pos
0,0,0,0,0,3,0,2,1,1,0,pos
0,0,0,0,0,10,10,4,4,4,4,pos
0,0,0,0,0,2,0,1,0,1,0,pos
1,0,0,0,0,0,0,2,0,0,-2,pos
0,0,0,0,0,0,0,0,0,0,0,pos
0,0,0,0,0,3,3,1,1,1,1,pos
0,0,0,0,0,0,0,0,0,1,0,pos
1,0,0,0,0,0,0,1,1,1,1,pos
0,0,0,0,0,-3,-4,-2,-2,-2,-2,pos
0,0,0,0,0,0,0,1,1,0,0,pos
0,0,0,0,0,0,0,0,0,0,0,pos
1,0,0,0,0,-2,0,0,0,0,0,pos
0,0,0,0,0,2,0,1,0,1,0,neu
0,0,0,0,0,0,0,2,0,2,0,neu
0,0,0,0,0,0,0,0,0,0,0,neg
0,0,0,0,-1,0,0,0,0,1,0,pos
0,0,0,0,0,-2,-2,-1,-1,-1,-1,neg
0,0,0,0,0,-2,-2,-1,-1,-1,-1,neg
0,0,0,0,0,0,0,0,0,0,0,neg
0,0,0,0,0,0,0,-2,-2,0,0,neg
0,0,0,0,0,0,0,0,0,0,0,neg
0,0,0,0,0,0,0,0,0,0,0,neg
0,0,0,0,0,0,0,0,0,0,0,neg
0,0,0,0,0,-2,0,0,0,-1,0,neg
0,0,0,0,0,0,0,-1,0,-1,0,neu
0,0,0,0,0,0,0,0,0,0,0,neu
0,0,0,0,0,0,0,0,0,-1,-1,neu
0,0,0,0,0,3,3,1,1,0,1,pos
0,0,0,0,0,3,3,1,1,1,1,pos
0,0,0,0,0,0,0,0,0,1,0,pos
0,0,0,0,0,0,0,0,0,0,0,neu
0,0,0,0,0,0,0,0,0,0,0,neu
0,0,0,0,0,0,0,0,0,0,0,neu
0,0,0,0,0,4,4,1,1,1,1,pos
0,0,0,0,0,0,0,0,0,0,0,pos
0,0,0,0,0,3,3,1,1,3,1,neg
0,0,0,0,0,2,4,1,1,2,2,pos
1,0,0,0,0,3,3,1,1,1,1,pos
0,1,0,0,0,-2,0,-1,0,-1,0,neg
0,0,0,0,0,-2,0,-1,-1,0,0,neg
0,0,0,0,0,0,0,0,0,0,0,neg
0,0,0,0,0,0,0,0,0,0,-1,neg
-1,0,0,0,0,-2,-2,0,-1,-1,-1,neg
0,0,0,0,0,0,0,0,0,0,0,neu
0,0,0,0,0,0,0,0,0,1,0,neu
0,0,0,0,0,0,0,0,0,0,0,neg
-1,0,0,0,0,0,0,0,0,0,0,neg
-1,0,0,0,0,0,0,0,0,0,0,neg
0,0,0,0,0,2,0,1,0,1,0,neg
0,0,0,0,0,0,0,-1,0,-1,0,neg
0,0,0,0,0,0,0,0,0,0,0,neu
0,0,0,0,0,3,3,1,1,1,1,pos
0,0,0,0,0,0,0,0,0,0,0,neg
0,0,0,0,0,0,0,0,0,0,0,neu
0,0,0,0,0,3,1,1,0,2,0,neg
0,0,0,0,0,0,0,-1,0,-1,0,neu
0,0,0,0,0,0,0,-1,-1,0,0,neg
-1,0,0,0,0,2,2,0,0,0,-1,pos
0,1,0,0,0,2,2,1,1,1,1,neu
